player/simulation/qsim/player.msim.vcd
$comment
	File created using the following command:
		vcd file player.msim.vcd -direction
$end
$date
	Fri Oct 22 14:17:31 2021
$end
$version
	ModelSim Version 2020.1
$end
$timescale
	1ps
$end

$scope module player_vlg_vec_tst $end
$var reg 64 ! datain [63:0] $end
$var wire 1 " dataout [63] $end
$var wire 1 # dataout [62] $end
$var wire 1 $ dataout [61] $end
$var wire 1 % dataout [60] $end
$var wire 1 & dataout [59] $end
$var wire 1 ' dataout [58] $end
$var wire 1 ( dataout [57] $end
$var wire 1 ) dataout [56] $end
$var wire 1 * dataout [55] $end
$var wire 1 + dataout [54] $end
$var wire 1 , dataout [53] $end
$var wire 1 - dataout [52] $end
$var wire 1 . dataout [51] $end
$var wire 1 / dataout [50] $end
$var wire 1 0 dataout [49] $end
$var wire 1 1 dataout [48] $end
$var wire 1 2 dataout [47] $end
$var wire 1 3 dataout [46] $end
$var wire 1 4 dataout [45] $end
$var wire 1 5 dataout [44] $end
$var wire 1 6 dataout [43] $end
$var wire 1 7 dataout [42] $end
$var wire 1 8 dataout [41] $end
$var wire 1 9 dataout [40] $end
$var wire 1 : dataout [39] $end
$var wire 1 ; dataout [38] $end
$var wire 1 < dataout [37] $end
$var wire 1 = dataout [36] $end
$var wire 1 > dataout [35] $end
$var wire 1 ? dataout [34] $end
$var wire 1 @ dataout [33] $end
$var wire 1 A dataout [32] $end
$var wire 1 B dataout [31] $end
$var wire 1 C dataout [30] $end
$var wire 1 D dataout [29] $end
$var wire 1 E dataout [28] $end
$var wire 1 F dataout [27] $end
$var wire 1 G dataout [26] $end
$var wire 1 H dataout [25] $end
$var wire 1 I dataout [24] $end
$var wire 1 J dataout [23] $end
$var wire 1 K dataout [22] $end
$var wire 1 L dataout [21] $end
$var wire 1 M dataout [20] $end
$var wire 1 N dataout [19] $end
$var wire 1 O dataout [18] $end
$var wire 1 P dataout [17] $end
$var wire 1 Q dataout [16] $end
$var wire 1 R dataout [15] $end
$var wire 1 S dataout [14] $end
$var wire 1 T dataout [13] $end
$var wire 1 U dataout [12] $end
$var wire 1 V dataout [11] $end
$var wire 1 W dataout [10] $end
$var wire 1 X dataout [9] $end
$var wire 1 Y dataout [8] $end
$var wire 1 Z dataout [7] $end
$var wire 1 [ dataout [6] $end
$var wire 1 \ dataout [5] $end
$var wire 1 ] dataout [4] $end
$var wire 1 ^ dataout [3] $end
$var wire 1 _ dataout [2] $end
$var wire 1 ` dataout [1] $end
$var wire 1 a dataout [0] $end

$scope module i1 $end
$var wire 1 b gnd $end
$var wire 1 c vcc $end
$var wire 1 d unknown $end
$var tri1 1 e devclrn $end
$var tri1 1 f devpor $end
$var tri1 1 g devoe $end
$var wire 1 h datain[0]~input_o $end
$var wire 1 i datain[1]~input_o $end
$var wire 1 j datain[2]~input_o $end
$var wire 1 k datain[3]~input_o $end
$var wire 1 l datain[4]~input_o $end
$var wire 1 m datain[5]~input_o $end
$var wire 1 n datain[6]~input_o $end
$var wire 1 o datain[7]~input_o $end
$var wire 1 p datain[8]~input_o $end
$var wire 1 q datain[9]~input_o $end
$var wire 1 r datain[10]~input_o $end
$var wire 1 s datain[11]~input_o $end
$var wire 1 t datain[12]~input_o $end
$var wire 1 u datain[13]~input_o $end
$var wire 1 v datain[14]~input_o $end
$var wire 1 w datain[15]~input_o $end
$var wire 1 x datain[16]~input_o $end
$var wire 1 y datain[17]~input_o $end
$var wire 1 z datain[18]~input_o $end
$var wire 1 { datain[19]~input_o $end
$var wire 1 | datain[20]~input_o $end
$var wire 1 } datain[21]~input_o $end
$var wire 1 ~ datain[22]~input_o $end
$var wire 1 !! datain[23]~input_o $end
$var wire 1 "! datain[24]~input_o $end
$var wire 1 #! datain[25]~input_o $end
$var wire 1 $! datain[26]~input_o $end
$var wire 1 %! datain[27]~input_o $end
$var wire 1 &! datain[28]~input_o $end
$var wire 1 '! datain[29]~input_o $end
$var wire 1 (! datain[30]~input_o $end
$var wire 1 )! datain[31]~input_o $end
$var wire 1 *! datain[32]~input_o $end
$var wire 1 +! datain[33]~input_o $end
$var wire 1 ,! datain[34]~input_o $end
$var wire 1 -! datain[35]~input_o $end
$var wire 1 .! datain[36]~input_o $end
$var wire 1 /! datain[37]~input_o $end
$var wire 1 0! datain[38]~input_o $end
$var wire 1 1! datain[39]~input_o $end
$var wire 1 2! datain[40]~input_o $end
$var wire 1 3! datain[41]~input_o $end
$var wire 1 4! datain[42]~input_o $end
$var wire 1 5! datain[43]~input_o $end
$var wire 1 6! datain[44]~input_o $end
$var wire 1 7! datain[45]~input_o $end
$var wire 1 8! datain[46]~input_o $end
$var wire 1 9! datain[47]~input_o $end
$var wire 1 :! datain[48]~input_o $end
$var wire 1 ;! datain[49]~input_o $end
$var wire 1 <! datain[50]~input_o $end
$var wire 1 =! datain[51]~input_o $end
$var wire 1 >! datain[52]~input_o $end
$var wire 1 ?! datain[53]~input_o $end
$var wire 1 @! datain[54]~input_o $end
$var wire 1 A! datain[55]~input_o $end
$var wire 1 B! datain[56]~input_o $end
$var wire 1 C! datain[57]~input_o $end
$var wire 1 D! datain[58]~input_o $end
$var wire 1 E! datain[59]~input_o $end
$var wire 1 F! datain[60]~input_o $end
$var wire 1 G! datain[61]~input_o $end
$var wire 1 H! datain[62]~input_o $end
$var wire 1 I! datain[63]~input_o $end
$var wire 1 J! dataout[0]~output_o $end
$var wire 1 K! dataout[1]~output_o $end
$var wire 1 L! dataout[2]~output_o $end
$var wire 1 M! dataout[3]~output_o $end
$var wire 1 N! dataout[4]~output_o $end
$var wire 1 O! dataout[5]~output_o $end
$var wire 1 P! dataout[6]~output_o $end
$var wire 1 Q! dataout[7]~output_o $end
$var wire 1 R! dataout[8]~output_o $end
$var wire 1 S! dataout[9]~output_o $end
$var wire 1 T! dataout[10]~output_o $end
$var wire 1 U! dataout[11]~output_o $end
$var wire 1 V! dataout[12]~output_o $end
$var wire 1 W! dataout[13]~output_o $end
$var wire 1 X! dataout[14]~output_o $end
$var wire 1 Y! dataout[15]~output_o $end
$var wire 1 Z! dataout[16]~output_o $end
$var wire 1 [! dataout[17]~output_o $end
$var wire 1 \! dataout[18]~output_o $end
$var wire 1 ]! dataout[19]~output_o $end
$var wire 1 ^! dataout[20]~output_o $end
$var wire 1 _! dataout[21]~output_o $end
$var wire 1 `! dataout[22]~output_o $end
$var wire 1 a! dataout[23]~output_o $end
$var wire 1 b! dataout[24]~output_o $end
$var wire 1 c! dataout[25]~output_o $end
$var wire 1 d! dataout[26]~output_o $end
$var wire 1 e! dataout[27]~output_o $end
$var wire 1 f! dataout[28]~output_o $end
$var wire 1 g! dataout[29]~output_o $end
$var wire 1 h! dataout[30]~output_o $end
$var wire 1 i! dataout[31]~output_o $end
$var wire 1 j! dataout[32]~output_o $end
$var wire 1 k! dataout[33]~output_o $end
$var wire 1 l! dataout[34]~output_o $end
$var wire 1 m! dataout[35]~output_o $end
$var wire 1 n! dataout[36]~output_o $end
$var wire 1 o! dataout[37]~output_o $end
$var wire 1 p! dataout[38]~output_o $end
$var wire 1 q! dataout[39]~output_o $end
$var wire 1 r! dataout[40]~output_o $end
$var wire 1 s! dataout[41]~output_o $end
$var wire 1 t! dataout[42]~output_o $end
$var wire 1 u! dataout[43]~output_o $end
$var wire 1 v! dataout[44]~output_o $end
$var wire 1 w! dataout[45]~output_o $end
$var wire 1 x! dataout[46]~output_o $end
$var wire 1 y! dataout[47]~output_o $end
$var wire 1 z! dataout[48]~output_o $end
$var wire 1 {! dataout[49]~output_o $end
$var wire 1 |! dataout[50]~output_o $end
$var wire 1 }! dataout[51]~output_o $end
$var wire 1 ~! dataout[52]~output_o $end
$var wire 1 !" dataout[53]~output_o $end
$var wire 1 "" dataout[54]~output_o $end
$var wire 1 #" dataout[55]~output_o $end
$var wire 1 $" dataout[56]~output_o $end
$var wire 1 %" dataout[57]~output_o $end
$var wire 1 &" dataout[58]~output_o $end
$var wire 1 '" dataout[59]~output_o $end
$var wire 1 (" dataout[60]~output_o $end
$var wire 1 )" dataout[61]~output_o $end
$var wire 1 *" dataout[62]~output_o $end
$var wire 1 +" dataout[63]~output_o $end
$upscope $end
$upscope $end
$enddefinitions $end
#0
$dumpvars
b1111 !
0a
0`
0_
0^
0]
0\
0[
0Z
0Y
0X
0W
0V
0U
0T
0S
0R
0Q
0P
0O
0N
0M
0L
0K
0J
0I
0H
0G
0F
0E
0D
0C
0B
0A
0@
0?
0>
0=
0<
0;
0:
09
08
07
06
05
04
03
02
01
00
0/
0.
0-
0,
0+
0*
0)
0(
0'
0&
0%
0$
0#
0"
0b
1c
xd
1e
1f
1g
1h
1i
1j
1k
0l
0m
0n
0o
0p
0q
0r
0s
0t
0u
0v
0w
0x
0y
0z
0{
0|
0}
0~
0!!
0"!
0#!
0$!
0%!
0&!
0'!
0(!
0)!
0*!
0+!
0,!
0-!
0.!
0/!
00!
01!
02!
03!
04!
05!
06!
07!
08!
09!
0:!
0;!
0<!
0=!
0>!
0?!
0@!
0A!
0B!
0C!
0D!
0E!
0F!
0G!
0H!
0I!
0J!
0K!
0L!
0M!
0N!
0O!
0P!
0Q!
0R!
0S!
0T!
0U!
0V!
0W!
0X!
0Y!
0Z!
0[!
0\!
0]!
0^!
0_!
0`!
0a!
0b!
0c!
0d!
0e!
0f!
0g!
0h!
0i!
0j!
0k!
0l!
0m!
0n!
0o!
0p!
0q!
0r!
0s!
0t!
0u!
0v!
0w!
0x!
0y!
0z!
0{!
0|!
0}!
0~!
0!"
0""
0#"
0$"
0%"
0&"
0'"
0("
0)"
0*"
0+"
$end
#10000
b11111 !
b10111 !
b10011 !
b10001 !
b10000 !
0h
0i
0j
0k
1l
#20000
b10001 !
1h
#30000
b10011 !
b10010 !
0h
1i
#40000
b10011 !
1h
#50000
b10111 !
b10101 !
b10100 !
0h
0i
1j
#60000
b10101 !
1h
#70000
b10111 !
b10110 !
0h
1i
#80000
b10111 !
1h
#90000
b11111 !
b11011 !
b11001 !
b11000 !
0h
0i
0j
1k
#100000
b11001 !
1h
#110000
b11011 !
b11010 !
0h
1i
#120000
b11011 !
1h
#130000
b11111 !
b11101 !
b11100 !
0h
0i
1j
#140000
b11101 !
1h
#150000
b11111 !
b11110 !
0h
1i
#160000
b11111 !
1h
#170000
b111111 !
b101111 !
b100111 !
b100011 !
b100001 !
b100000 !
0h
0i
0j
0k
0l
1m
#180000
b100001 !
1h
#190000
b100011 !
b100010 !
0h
1i
#200000
b100011 !
1h
#210000
b100111 !
b100101 !
b100100 !
0h
0i
1j
#220000
b100101 !
1h
#230000
b100111 !
b100110 !
0h
1i
#240000
b100111 !
1h
#250000
b101111 !
b101011 !
b101001 !
b101000 !
0h
0i
0j
1k
#260000
b101001 !
1h
#270000
b101011 !
b101010 !
0h
1i
#280000
b101011 !
1h
#290000
b101111 !
b101101 !
b101100 !
0h
0i
1j
#300000
b101101 !
1h
#310000
b101111 !
b101110 !
0h
1i
#320000
b101111 !
1h
#330000
b111111 !
b110111 !
b110011 !
b110001 !
b110000 !
0h
0i
0j
0k
1l
#340000
b110001 !
1h
#350000
b110011 !
b110010 !
0h
1i
#360000
b110011 !
1h
#370000
b110111 !
b110101 !
b110100 !
0h
0i
1j
#380000
b110101 !
1h
#390000
b110111 !
b110110 !
0h
1i
#400000
b110111 !
1h
#410000
b111111 !
b111011 !
b111001 !
b111000 !
0h
0i
0j
1k
#420000
b111001 !
1h
#430000
b111011 !
b111010 !
0h
1i
#440000
b111011 !
1h
#450000
b111111 !
b111101 !
b111100 !
0h
0i
1j
#460000
b111101 !
1h
#470000
b111111 !
b111110 !
0h
1i
#480000
b111111 !
1h
#490000
b1111111 !
b1011111 !
b1001111 !
b1000111 !
b1000011 !
b1000001 !
b1000000 !
0h
0i
0j
0k
0l
0m
1n
#500000
b1000001 !
1h
#510000
b1000011 !
b1000010 !
0h
1i
#520000
b1000011 !
1h
#530000
b1000111 !
b1000101 !
b1000100 !
0h
0i
1j
#540000
b1000101 !
1h
#550000
b1000111 !
b1000110 !
0h
1i
#560000
b1000111 !
1h
#570000
b1001111 !
b1001011 !
b1001001 !
b1001000 !
0h
0i
0j
1k
#580000
b1001001 !
1h
#590000
b1001011 !
b1001010 !
0h
1i
#600000
b1001011 !
1h
#610000
b1001111 !
b1001101 !
b1001100 !
0h
0i
1j
#620000
b1001101 !
1h
#630000
b1001111 !
b1001110 !
0h
1i
#640000
b1001111 !
1h
#650000
b1011111 !
b1010111 !
b1010011 !
b1010001 !
b1010000 !
0h
0i
0j
0k
1l
#660000
b1010001 !
1h
#670000
b1010011 !
b1010010 !
0h
1i
#680000
b1010011 !
1h
#690000
b1010111 !
b1010101 !
b1010100 !
0h
0i
1j
#700000
b1010101 !
1h
#710000
b1010111 !
b1010110 !
0h
1i
#720000
b1010111 !
1h
#730000
b1011111 !
b1011011 !
b1011001 !
b1011000 !
0h
0i
0j
1k
#740000
b1011001 !
1h
#750000
b1011011 !
b1011010 !
0h
1i
#760000
b1011011 !
1h
#770000
b1011111 !
b1011101 !
b1011100 !
0h
0i
1j
#780000
b1011101 !
1h
#790000
b1011111 !
b1011110 !
0h
1i
#800000
b1011111 !
1h
#810000
b1111111 !
b1101111 !
b1100111 !
b1100011 !
b1100001 !
b1100000 !
0h
0i
0j
0k
0l
1m
#820000
b1100001 !
1h
#830000
b1100011 !
b1100010 !
0h
1i
#840000
b1100011 !
1h
#850000
b1100111 !
b1100101 !
b1100100 !
0h
0i
1j
#860000
b1100101 !
1h
#870000
b1100111 !
b1100110 !
0h
1i
#880000
b1100111 !
1h
#890000
b1101111 !
b1101011 !
b1101001 !
b1101000 !
0h
0i
0j
1k
#900000
b1101001 !
1h
#910000
b1101011 !
b1101010 !
0h
1i
#920000
b1101011 !
1h
#930000
b1101111 !
b1101101 !
b1101100 !
0h
0i
1j
#940000
b1101101 !
1h
#950000
b1101111 !
b1101110 !
0h
1i
#960000
b1101111 !
1h
#970000
b1111111 !
b1110111 !
b1110011 !
b1110001 !
b1110000 !
0h
0i
0j
0k
1l
#980000
b1110001 !
1h
#990000
b1110011 !
b1110010 !
0h
1i
