lab4/lab4_1/simulation/qsim/lab4_1.msim.vcd
$comment
	File created using the following command:
		vcd file lab4_1.msim.vcd -direction
$end
$date
	Fri Oct 15 11:21:49 2021
$end
$version
	ModelSim Version 2020.1
$end
$timescale
	1ps
$end

$scope module lab4_1_vlg_vec_tst $end
$var reg 1 ! asset $end
$var reg 1 " clk $end
$var reg 4 # din [3:0] $end
$var reg 1 $ dir $end
$var reg 1 % ena $end
$var reg 1 & load $end
$var reg 1 ' sclr $end
$var wire 1 ( q [3] $end
$var wire 1 ) q [2] $end
$var wire 1 * q [1] $end
$var wire 1 + q [0] $end

$scope module i1 $end
$var wire 1 , gnd $end
$var wire 1 - vcc $end
$var wire 1 . unknown $end
$var tri1 1 / devclrn $end
$var tri1 1 0 devpor $end
$var tri1 1 1 devoe $end
$var wire 1 2 q[0]~output_o $end
$var wire 1 3 q[1]~output_o $end
$var wire 1 4 q[2]~output_o $end
$var wire 1 5 q[3]~output_o $end
$var wire 1 6 clk~input_o $end
$var wire 1 7 clk~inputclkctrl_outclk $end
$var wire 1 8 din[0]~input_o $end
$var wire 1 9 sclr~input_o $end
$var wire 1 : load~input_o $end
$var wire 1 ; Mux3~0_combout $end
$var wire 1 < asset~input_o $end
$var wire 1 = ena~input_o $end
$var wire 1 > q[0]~reg0_q $end
$var wire 1 ? dir~input_o $end
$var wire 1 @ din[2]~input_o $end
$var wire 1 A Add0~10_combout $end
$var wire 1 B Add0~3_combout $end
$var wire 1 C din[3]~input_o $end
$var wire 1 D Add0~5_cout $end
$var wire 1 E Add0~7 $end
$var wire 1 F Add0~12 $end
$var wire 1 G Add0~14_combout $end
$var wire 1 H Add0~16_combout $end
$var wire 1 I Add0~17_combout $end
$var wire 1 J q[3]~reg0_q $end
$var wire 1 K q~1_combout $end
$var wire 1 L Add0~8_combout $end
$var wire 1 M Add0~11_combout $end
$var wire 1 N Add0~13_combout $end
$var wire 1 O q[2]~reg0_q $end
$var wire 1 P q~0_combout $end
$var wire 1 Q Add0~18_combout $end
$var wire 1 R din[1]~input_o $end
$var wire 1 S Add0~2_combout $end
$var wire 1 T Add0~6_combout $end
$var wire 1 U Add0~9_combout $end
$var wire 1 V q[1]~reg0_q $end
$upscope $end
$upscope $end
$enddefinitions $end
#0
$dumpvars
0!
0"
b1111 #
1$
1%
1&
1'
0+
0*
0)
1(
0,
1-
x.
1/
10
11
02
03
04
15
06
07
18
19
1:
1;
0<
1=
0>
1?
1@
0A
1B
1C
0D
1E
0F
1G
0H
0I
0J
0K
1L
0M
0N
0O
0P
0Q
1R
0S
0T
0U
0V
$end
#40000
1"
16
17
#80000
0"
06
07
#120000
1"
16
17
#160000
0"
06
07
#200000
1"
16
17
#240000
1!
0"
1<
06
07
#280000
1"
16
17
1>
12
1D
1+
0;
1T
1U
#320000
0"
06
07
#360000
1"
16
17
1V
0>
02
13
0E
0T
0D
1*
0+
1;
1M
1E
1T
0U
0M
1N
1U
0N
#400000
0"
06
07
#440000
1"
16
17
1>
12
1D
1+
0;
0E
0T
1M
0U
1N
#480000
0"
06
07
#520000
1"
16
17
0V
1O
0>
02
14
03
1E
1T
1F
0M
0D
0*
1)
0+
1;
0F
1M
0G
0T
1U
0N
1G
1H
1N
0U
0H
1I
0I
#560000
0"
06
07
#600000
1"
16
17
1>
12
1D
1+
0;
1T
1U
#640000
b111 #
b11 #
b1 #
b0 #
0"
08
0R
0@
0C
06
07
#680000
1"
16
17
1V
0>
02
13
0E
0T
0D
1*
0+
1;
1F
0M
1E
1T
0U
0G
0F
1M
0N
1U
1H
1G
1N
0H
1I
0I
#720000
0"
06
07
#760000
1"
16
17
1>
12
1K
1D
1+
0;
0L
1H
0E
0T
1F
0M
0U
0N
1I
0G
#800000
0"
06
07
#840000
1"
16
17
1J
0V
0O
0>
02
04
03
05
1P
0K
1G
1E
1T
0F
1M
0D
0(
0*
0)
0+
1;
1L
0H
0M
0G
0T
1H
0I
1I
#880000
0"
06
07
#920000
1"
16
17
1>
12
0P
1D
1+
0;
1T
1U
#960000
0"
06
07
#1000000
1"
16
17
1V
0>
02
13
0E
0T
0D
1*
0+
1;
1M
1E
1T
0U
0M
1N
1U
0N
#1040000
0"
06
07
#1080000
1"
16
17
1>
12
1D
1+
0;
0E
0T
1M
0U
1N
#1120000
0"
06
07
#1160000
1"
16
17
0V
1O
0>
02
14
03
1E
1T
1F
0M
0D
0*
1)
0+
1;
0F
1M
1G
0T
1U
0N
0G
0H
1N
0U
1H
0I
1I
#1200000
0"
06
07
#1240000
1"
16
17
1>
12
1D
1+
0;
1T
1U
#1280000
0$
0"
0?
06
07
1G
1F
0M
0E
0T
0H
0G
1M
0N
0U
1H
0I
1N
1I
#1320000
1"
16
17
0>
02
0D
0+
1;
1E
1T
0M
1U
0N
#1360000
0"
06
07
#1400000
1"
16
17
1V
0O
1>
12
04
13
0E
0T
0F
1M
1D
1*
0)
1+
0;
1F
0M
1G
1T
0U
1N
0G
0H
0N
1U
1H
0I
1I
#1440000
b1000 #
b1100 #
b1110 #
b1111 #
0"
18
1R
1@
1C
06
07
#1480000
1"
16
17
0>
02
0D
0+
1;
0T
0U
#1520000
0"
06
07
#1560000
1"
16
17
0V
1>
12
03
1E
1T
1D
0*
1+
0;
0F
1M
0E
0T
1U
1G
1F
0M
1N
0U
0H
0G
0N
1H
0I
1I
#1600000
0&
0"
0:
06
07
1S
0B
1A
0I
1;
0L
1U
1N
#1640000
1"
16
17
0J
1V
1O
14
13
15
1K
1G
1T
1M
1(
1*
1)
0H
#1680000
0"
06
07
#1720000
1"
16
17
#1760000
0"
06
07
#1800000
1"
16
17
#1840000
0"
06
07
#1880000
1"
16
17
#1920000
1&
0"
1:
06
07
0S
1B
0A
0;
1L
0U
0N
1U
1N
#1960000
1"
16
17
0>
02
0K
0D
0+
1;
0T
0U
#2000000
0"
06
07
#2040000
1"
16
17
0V
1>
12
03
1E
1T
1D
0*
1+
0;
0M
0E
0T
1U
1M
0N
0U
1N
#2080000
0%
0"
0=
06
07
#2120000
1"
16
17
#2160000
0"
06
07
#2200000
1"
16
17
#2240000
0"
06
07
#2280000
1"
16
17
#2320000
0"
06
07
#2360000
1"
16
17
#2400000
0"
06
07
#2440000
1"
16
17
#2480000
0"
06
07
#2520000
1"
16
17
#2560000
b111 #
b11 #
b1 #
b0 #
1%
0"
08
0R
0@
0C
1=
06
07
#2600000
1"
16
17
0>
02
0D
0+
1;
1E
1T
0M
1U
0N
#2640000
0"
06
07
#2680000
1"
16
17
1V
0O
1>
12
04
13
0E
0T
0F
1M
1D
1*
0)
1+
0;
1F
0M
0G
1T
0U
1N
1G
1H
0N
1U
0H
1I
0I
#2720000
0"
06
07
#2760000
1"
16
17
0>
02
0D
0+
1;
0T
0U
#2800000
0"
06
07
#2840000
1"
16
17
0V
1>
12
03
1E
1T
1D
0*
1+
0;
0F
1M
0E
0T
1U
0G
1F
0M
1N
0U
1H
1G
0N
0H
1I
0I
#2880000
0"
06
07
#2920000
1"
16
17
0>
02
0D
0+
1;
1E
1T
0F
1M
1U
0G
1N
1H
1I
#2960000
0"
06
07
#3000000
1"
16
17
1J
1V
1O
1>
12
14
13
05
1G
0E
0T
1F
0M
1D
0(
1*
1)
1+
0;
0H
1M
0G
1T
0U
0N
1H
0I
1N
1U
1I
#3040000
0"
06
07
#3080000
1"
16
17
0>
02
0D
0+
1;
0T
0U
#3120000
0"
06
07
#3160000
1"
16
17
0V
1>
12
03
1E
1T
1D
0*
1+
0;
0M
0E
0T
1U
1M
0N
0U
1N
#3200000
0"
06
07
#3240000
1"
16
17
0>
02
0D
0+
1;
1E
1T
0M
1U
0N
#3280000
0"
06
07
#3320000
1"
16
17
1V
0O
1>
12
04
13
0E
0T
0F
1M
1D
1*
0)
1+
0;
1F
0M
1G
1T
0U
1N
0G
0H
0N
1U
1H
0I
1I
#3360000
0"
06
07
#3400000
1"
16
17
0>
02
0D
0+
1;
0T
0U
#3440000
0"
06
07
#3480000
1"
16
17
0V
1>
12
03
1E
1T
1D
0*
1+
0;
0F
1M
0E
0T
1U
1G
1F
0M
1N
0U
0H
0G
0N
1H
0I
1I
#3520000
0'
0"
09
06
07
0B
0L
#3560000
1"
16
17
0>
02
1P
0D
0+
0H
1E
1T
0F
1M
1G
#3600000
0"
06
07
#3640000
1"
16
17
#3680000
0"
06
07
#3720000
1"
16
17
#3760000
0"
06
07
#3800000
1"
16
17
#3840000
0"
06
07
#3880000
1"
16
17
#3920000
0"
06
07
#3960000
1"
16
17
#4000000
0"
06
07
#4040000
1"
16
17
#4080000
0"
06
07
#4120000
1"
16
17
#4160000
b1000 #
b1100 #
b1110 #
b1111 #
0"
18
1R
1@
1C
06
07
#4200000
1"
16
17
#4240000
0"
06
07
#4280000
1"
16
17
#4320000
1'
0"
19
06
07
1Q
1B
0I
1;
1U
1N
#4360000
1"
16
17
0J
1V
1O
1>
12
14
13
15
0P
1K
0G
0E
0T
1F
0M
1D
1(
1*
1)
1+
0;
0Q
1L
1H
1M
1G
1T
0H
1I
0I
#4400000
0"
06
07
#4440000
1"
16
17
0>
02
0K
0D
0+
1;
0T
0U
#4480000
0"
06
07
#4520000
1"
16
17
0V
1>
12
03
1E
1T
1D
0*
1+
0;
0M
0E
0T
1U
1M
0N
0U
1N
#4560000
0"
06
07
#4600000
1"
16
17
0>
02
0D
0+
1;
1E
1T
0M
1U
0N
#4640000
0"
06
07
#4680000
1"
16
17
1V
0O
1>
12
04
13
0E
0T
0F
1M
1D
1*
0)
1+
0;
1F
0M
0G
1T
0U
1N
1G
1H
0N
1U
0H
1I
0I
#4720000
0"
06
07
#4760000
1"
16
17
0>
02
0D
0+
1;
0T
0U
#4800000
0"
06
07
#4840000
1"
16
17
0V
1>
12
03
1E
1T
1D
0*
1+
0;
0F
1M
0E
0T
1U
0G
1F
0M
1N
0U
1H
1G
0N
0H
1I
0I
#4880000
0"
06
07
#4920000
1"
16
17
0>
02
0D
0+
1;
1E
1T
0F
1M
1U
0G
1N
1H
1I
#4960000
0"
06
07
#5000000
1"
16
17
1J
1V
1O
1>
12
14
13
05
1G
0E
0T
1F
0M
1D
0(
1*
1)
1+
0;
0H
1M
0G
1T
0U
0N
1H
0I
1N
1U
1I
#5040000
0"
06
07
#5080000
1"
16
17
0>
02
0D
0+
1;
0T
0U
#5120000
0"
06
07
#5160000
1"
16
17
0V
1>
12
03
1E
1T
1D
0*
1+
0;
0M
0E
0T
1U
1M
0N
0U
1N
#5200000
0"
06
07
#5240000
1"
16
17
0>
02
0D
0+
1;
1E
1T
0M
1U
0N
#5280000
b111 #
b11 #
b1 #
b0 #
0"
08
0R
0@
0C
06
07
#5320000
1"
16
17
1V
0O
1>
12
04
13
0E
0T
0F
1M
1D
1*
0)
1+
0;
1F
0M
1G
1T
0U
1N
0G
0H
0N
1U
1H
0I
1I
#5360000
0"
06
07
#5400000
1"
16
17
0>
02
0D
0+
1;
0T
0U
#5440000
0"
06
07
#5480000
1"
16
17
0V
1>
12
03
1E
1T
1D
0*
1+
0;
0F
1M
0E
0T
1U
1G
1F
0M
1N
0U
0H
0G
0N
1H
0I
1I
#5520000
0"
06
07
#5560000
1"
16
17
0>
02
1P
0D
0+
1;
1Q
0L
0H
1E
1T
0F
1M
1U
1N
0I
1G
#5600000
0"
06
07
#5640000
1"
16
17
0J
1V
1O
1>
12
14
13
15
0P
1K
0G
0E
0T
1F
0M
1D
1(
1*
1)
1+
0;
0Q
1L
1H
1M
1G
1T
0H
1I
0I
#5680000
0"
06
07
#5720000
1"
16
17
0>
02
0K
0D
0+
1;
0T
0U
#5760000
0"
06
07
#5800000
1"
16
17
0V
1>
12
03
1E
1T
1D
0*
1+
0;
0M
0E
0T
1U
1M
0N
0U
1N
#5840000
0"
06
07
#5880000
1"
16
17
0>
02
0D
0+
1;
1E
1T
0M
1U
0N
#5920000
0"
06
07
#5960000
1"
16
17
1V
0O
1>
12
04
13
0E
0T
0F
1M
1D
1*
0)
1+
0;
1F
0M
0G
1T
0U
1N
1G
1H
0N
1U
0H
1I
0I
#6000000
0"
06
07
#6040000
1"
16
17
0>
02
0D
0+
1;
0T
0U
#6080000
0"
06
07
#6120000
1"
16
17
0V
1>
12
03
1E
1T
1D
0*
1+
0;
0F
1M
0E
0T
1U
0G
1F
0M
1N
0U
1H
1G
0N
0H
1I
0I
#6160000
0"
06
07
#6200000
1"
16
17
0>
02
0D
0+
1;
1E
1T
0F
1M
1U
0G
1N
1H
1I
#6240000
0"
06
07
#6280000
1"
16
17
1J
1V
1O
1>
12
14
13
05
1G
0E
0T
1F
0M
1D
0(
1*
1)
1+
0;
0H
1M
0G
1T
0U
0N
1H
0I
1N
1U
1I
#6320000
0"
06
07
#6360000
1"
16
17
0>
02
0D
0+
1;
0T
0U
#6400000
0"
06
07
#6440000
1"
16
17
0V
1>
12
03
1E
1T
1D
0*
1+
0;
0M
0E
0T
1U
1M
0N
0U
1N
#6480000
0"
06
07
#6520000
1"
16
17
0>
02
0D
0+
1;
1E
1T
0M
1U
0N
#6560000
0"
06
07
#6600000
1"
16
17
1V
0O
1>
12
04
13
0E
0T
0F
1M
1D
1*
0)
1+
0;
1F
0M
1G
1T
0U
1N
0G
0H
0N
1U
1H
0I
1I
#6640000
0"
06
07
#6680000
1"
16
17
0>
02
0D
0+
1;
0T
0U
#6720000
0"
06
07
#6760000
1"
16
17
0V
1>
12
03
1E
1T
1D
0*
1+
0;
0F
1M
0E
0T
1U
1G
1F
0M
1N
0U
0H
0G
0N
1H
0I
1I
#6800000
0"
06
07
#6840000
1"
16
17
0>
02
1P
0D
0+
1;
1Q
0L
0H
1E
1T
0F
1M
1U
1N
0I
1G
#6880000
b1000 #
b1100 #
b1110 #
b1111 #
0"
18
1R
1@
1C
06
07
#6920000
1"
16
17
0J
1V
1O
1>
12
14
13
15
0P
1K
0G
0E
0T
1F
0M
1D
1(
1*
1)
1+
0;
0Q
1L
1H
1M
1G
1T
0H
1I
0I
#6960000
0"
06
07
#7000000
1"
16
17
0>
02
0K
0D
0+
1;
0T
0U
#7040000
0"
06
07
#7080000
1"
16
17
0V
1>
12
03
1E
1T
1D
0*
1+
0;
0M
0E
0T
1U
1M
0N
0U
1N
#7120000
0"
06
07
#7160000
1"
16
17
0>
02
0D
0+
1;
1E
1T
0M
1U
0N
#7200000
0"
06
07
#7240000
1"
16
17
1V
0O
1>
12
04
13
0E
0T
0F
1M
1D
1*
0)
1+
0;
1F
0M
0G
1T
0U
1N
1G
1H
0N
1U
0H
1I
0I
#7280000
0"
06
07
#7320000
1"
16
17
0>
02
0D
0+
1;
0T
0U
#7360000
0"
06
07
#7400000
1"
16
17
0V
1>
12
03
1E
1T
1D
0*
1+
0;
0F
1M
0E
0T
1U
0G
1F
0M
1N
0U
1H
1G
0N
0H
1I
0I
#7440000
0"
06
07
#7480000
1"
16
17
0>
02
0D
0+
1;
1E
1T
0F
1M
1U
0G
1N
1H
1I
#7520000
0"
06
07
#7560000
1"
16
17
1J
1V
1O
1>
12
14
13
05
1G
0E
0T
1F
0M
1D
0(
1*
1)
1+
0;
0H
1M
0G
1T
0U
0N
1H
0I
1N
1U
1I
#7600000
0"
06
07
#7640000
1"
16
17
0>
02
0D
0+
1;
0T
0U
#7680000
0"
06
07
#7720000
1"
16
17
0V
1>
12
03
1E
1T
1D
0*
1+
0;
0M
0E
0T
1U
1M
0N
0U
1N
#7760000
0"
06
07
#7800000
1"
16
17
0>
02
0D
0+
1;
1E
1T
0M
1U
0N
#7840000
0"
06
07
#7880000
1"
16
17
1V
0O
1>
12
04
13
0E
0T
0F
1M
1D
1*
0)
1+
0;
1F
0M
1G
1T
0U
1N
0G
0H
0N
1U
1H
0I
1I
#7920000
0"
06
07
#7960000
1"
16
17
0>
02
0D
0+
1;
0T
0U
#8000000
0"
06
07
#8040000
1"
16
17
0V
1>
12
03
1E
1T
1D
0*
1+
0;
0F
1M
0E
0T
1U
1G
1F
0M
1N
0U
0H
0G
0N
1H
0I
1I
#8080000
0"
06
07
#8120000
1"
16
17
0>
02
1P
0D
0+
1;
1Q
0L
0H
1E
1T
0F
1M
1U
1N
0I
1G
#8160000
0"
06
07
#8200000
1"
16
17
0J
1V
1O
1>
12
14
13
15
0P
1K
0G
0E
0T
1F
0M
1D
1(
1*
1)
1+
0;
0Q
1L
1H
1M
1G
1T
0H
1I
0I
#8240000
0"
06
07
#8280000
1"
16
17
0>
02
0K
0D
0+
1;
0T
0U
#8320000
b111 #
b11 #
b1 #
b0 #
0"
08
0R
0@
0C
06
07
#8360000
1"
16
17
0V
1>
12
03
1E
1T
1D
0*
1+
0;
0M
0E
0T
1U
1M
0N
0U
1N
#8400000
0"
06
07
#8440000
1"
16
17
0>
02
0D
0+
1;
1E
1T
0M
1U
0N
#8480000
0"
06
07
#8520000
1"
16
17
1V
0O
1>
12
04
13
0E
0T
0F
1M
1D
1*
0)
1+
0;
1F
0M
0G
1T
0U
1N
1G
1H
0N
1U
0H
1I
0I
#8560000
0"
06
07
#8600000
1"
16
17
0>
02
0D
0+
1;
0T
0U
#8640000
0"
06
07
#8680000
1"
16
17
0V
1>
12
03
1E
1T
1D
0*
1+
0;
0F
1M
0E
0T
1U
0G
1F
0M
1N
0U
1H
1G
0N
0H
1I
0I
#8720000
0"
06
07
#8760000
1"
16
17
0>
02
0D
0+
1;
1E
1T
0F
1M
1U
0G
1N
1H
1I
#8800000
0"
06
07
#8840000
1"
16
17
1J
1V
1O
1>
12
14
13
05
1G
0E
0T
1F
0M
1D
0(
1*
1)
1+
0;
0H
1M
0G
1T
0U
0N
1H
0I
1N
1U
1I
#8880000
0"
06
07
#8920000
1"
16
17
0>
02
0D
0+
1;
0T
0U
#8960000
0"
06
07
#9000000
1"
16
17
0V
1>
12
03
1E
1T
1D
0*
1+
0;
0M
0E
0T
1U
1M
0N
0U
1N
#9040000
0"
06
07
#9080000
1"
16
17
0>
02
0D
0+
1;
1E
1T
0M
1U
0N
#9120000
0"
06
07
#9160000
1"
16
17
1V
0O
1>
12
04
13
0E
0T
0F
1M
1D
1*
0)
1+
0;
1F
0M
1G
1T
0U
1N
0G
0H
0N
1U
1H
0I
1I
#9200000
0"
06
07
#9240000
1"
16
17
0>
02
0D
0+
1;
0T
0U
#9280000
0"
06
07
#9320000
1"
16
17
0V
1>
12
03
1E
1T
1D
0*
1+
0;
0F
1M
0E
0T
1U
1G
1F
0M
1N
0U
0H
0G
0N
1H
0I
1I
#9360000
0"
06
07
#9400000
1"
16
17
0>
02
1P
0D
0+
1;
1Q
0L
0H
1E
1T
0F
1M
1U
1N
0I
1G
#9440000
0"
06
07
#9480000
1"
16
17
0J
1V
1O
1>
12
14
13
15
0P
1K
0G
0E
0T
1F
0M
1D
1(
1*
1)
1+
0;
0Q
1L
1H
1M
1G
1T
0H
1I
0I
#9520000
0"
06
07
#9560000
1"
16
17
0>
02
0K
0D
0+
1;
0T
0U
#9600000
0"
06
07
#9640000
1"
16
17
0V
1>
12
03
1E
1T
1D
0*
1+
0;
0M
0E
0T
1U
1M
0N
0U
1N
#9680000
0"
06
07
#9720000
1"
16
17
0>
02
0D
0+
1;
1E
1T
0M
1U
0N
#9760000
0"
06
07
#9800000
1"
16
17
1V
0O
1>
12
04
13
0E
0T
0F
1M
1D
1*
0)
1+
0;
1F
0M
0G
1T
0U
1N
1G
1H
0N
1U
0H
1I
0I
#9840000
0"
06
07
#9880000
1"
16
17
0>
02
0D
0+
1;
0T
0U
#9920000
0"
06
07
#9960000
1"
16
17
0V
1>
12
03
1E
1T
1D
0*
1+
0;
0F
1M
0E
0T
1U
0G
1F
0M
1N
0U
1H
1G
0N
0H
1I
0I
