lab5/ex_1/simulation/qsim/ex_1.msim.vcd
$comment
	File created using the following command:
		vcd file ex_1.msim.vcd -direction
$end
$date
	Wed Oct 27 20:26:55 2021
$end
$version
	ModelSim Version 2020.1
$end
$timescale
	1ps
$end

$scope module ex_1_vlg_vec_tst $end
$var reg 1 ! clk $end
$var wire 1 " q [3] $end
$var wire 1 # q [2] $end
$var wire 1 $ q [1] $end
$var wire 1 % q [0] $end

$scope module i1 $end
$var wire 1 & gnd $end
$var wire 1 ' vcc $end
$var wire 1 ( unknown $end
$var tri1 1 ) devclrn $end
$var tri1 1 * devpor $end
$var tri1 1 + devoe $end
$var wire 1 , q[0]~output_o $end
$var wire 1 - q[1]~output_o $end
$var wire 1 . q[2]~output_o $end
$var wire 1 / q[3]~output_o $end
$var wire 1 0 clk~input_o $end
$var wire 1 1 clk~inputclkctrl_outclk $end
$var wire 1 2 q[0]~3_combout $end
$var wire 1 3 q[0]~reg0_q $end
$var wire 1 4 q[1]~0_combout $end
$var wire 1 5 q[1]~reg0_q $end
$var wire 1 6 q[2]~1_combout $end
$var wire 1 7 q[2]~reg0_q $end
$var wire 1 8 q[3]~2_combout $end
$var wire 1 9 q[3]~reg0_q $end
$upscope $end
$upscope $end
$enddefinitions $end
#0
$dumpvars
0!
0%
0$
0#
0"
0&
1'
x(
1)
1*
1+
0,
0-
0.
0/
00
01
12
03
04
05
06
07
08
09
$end
#10000
1!
10
11
13
1,
1%
14
02
#20000
0!
00
01
#30000
1!
10
11
15
03
0,
1-
1$
0%
12
#40000
0!
00
01
#50000
1!
10
11
13
1,
1%
16
04
02
#60000
0!
00
01
#70000
1!
10
11
17
05
03
0,
0-
1.
1#
0$
0%
12
#80000
0!
00
01
#90000
1!
10
11
13
1,
1%
14
02
#100000
0!
00
01
#110000
1!
10
11
15
03
0,
1-
1$
0%
12
#120000
0!
00
01
#130000
1!
10
11
13
1,
1%
18
06
04
02
#140000
0!
00
01
#150000
1!
10
11
19
07
05
03
0,
0-
0.
1/
1"
0#
0$
0%
12
#160000
0!
00
01
#170000
1!
10
11
13
1,
1%
14
02
#180000
0!
00
01
#190000
1!
10
11
15
03
0,
1-
1$
0%
12
#200000
0!
00
01
#210000
1!
10
11
13
1,
1%
16
04
02
#220000
0!
00
01
#230000
1!
10
11
17
05
03
0,
0-
1.
1#
0$
0%
12
#240000
0!
00
01
#250000
1!
10
11
13
1,
1%
14
02
#260000
0!
00
01
#270000
1!
10
11
15
03
0,
1-
1$
0%
12
#280000
0!
00
01
#290000
1!
10
11
13
1,
1%
08
06
04
02
#300000
0!
00
01
#310000
1!
10
11
09
07
05
03
0,
0-
0.
0/
0"
0#
0$
0%
12
#320000
0!
00
01
#330000
1!
10
11
13
1,
1%
14
02
#340000
0!
00
01
#350000
1!
10
11
15
03
0,
1-
1$
0%
12
#360000
0!
00
01
#370000
1!
10
11
13
1,
1%
16
04
02
#380000
0!
00
01
#390000
1!
10
11
17
05
03
0,
0-
1.
1#
0$
0%
12
#400000
0!
00
01
#410000
1!
10
11
13
1,
1%
14
02
#420000
0!
00
01
#430000
1!
10
11
15
03
0,
1-
1$
0%
12
#440000
0!
00
01
#450000
1!
10
11
13
1,
1%
18
06
04
02
#460000
0!
00
01
#470000
1!
10
11
19
07
05
03
0,
0-
0.
1/
1"
0#
0$
0%
12
#480000
0!
00
01
#490000
1!
10
11
13
1,
1%
14
02
#500000
0!
00
01
#510000
1!
10
11
15
03
0,
1-
1$
0%
12
#520000
0!
00
01
#530000
1!
10
11
13
1,
1%
16
04
02
#540000
0!
00
01
#550000
1!
10
11
17
05
03
0,
0-
1.
1#
0$
0%
12
#560000
0!
00
01
#570000
1!
10
11
13
1,
1%
14
02
#580000
0!
00
01
#590000
1!
10
11
15
03
0,
1-
1$
0%
12
#600000
0!
00
01
#610000
1!
10
11
13
1,
1%
08
06
04
02
#620000
0!
00
01
#630000
1!
10
11
09
07
05
03
0,
0-
0.
0/
0"
0#
0$
0%
12
#640000
0!
00
01
#650000
1!
10
11
13
1,
1%
14
02
#660000
0!
00
01
#670000
1!
10
11
15
03
0,
1-
1$
0%
12
#680000
0!
00
01
#690000
1!
10
11
13
1,
1%
16
04
02
#700000
0!
00
01
#710000
1!
10
11
17
05
03
0,
0-
1.
1#
0$
0%
12
#720000
0!
00
01
#730000
1!
10
11
13
1,
1%
14
02
#740000
0!
00
01
#750000
1!
10
11
15
03
0,
1-
1$
0%
12
#760000
0!
00
01
#770000
1!
10
11
13
1,
1%
18
06
04
02
#780000
0!
00
01
#790000
1!
10
11
19
07
05
03
0,
0-
0.
1/
1"
0#
0$
0%
12
#800000
0!
00
01
#810000
1!
10
11
13
1,
1%
14
02
#820000
0!
00
01
#830000
1!
10
11
15
03
0,
1-
1$
0%
12
#840000
0!
00
01
#850000
1!
10
11
13
1,
1%
16
04
02
#860000
0!
00
01
#870000
1!
10
11
17
05
03
0,
0-
1.
1#
0$
0%
12
#880000
0!
00
01
#890000
1!
10
11
13
1,
1%
14
02
#900000
0!
00
01
#910000
1!
10
11
15
03
0,
1-
1$
0%
12
#920000
0!
00
01
#930000
1!
10
11
13
1,
1%
08
06
04
02
#940000
0!
00
01
#950000
1!
10
11
09
07
05
03
0,
0-
0.
0/
0"
0#
0$
0%
12
#960000
0!
00
01
#970000
1!
10
11
13
1,
1%
14
02
#980000
0!
00
01
#990000
1!
10
11
15
03
0,
1-
1$
0%
12
