lab6/lab6_1/simulation/qsim/lab6_1.msim.vcd
$comment
	File created using the following command:
		vcd file lab6_1.msim.vcd -direction
$end
$date
	Wed Nov 03 12:09:47 2021
$end
$version
	ModelSim Version 2020.1
$end
$timescale
	1ps
$end

$scope module lab6_1_vlg_vec_tst $end
$var reg 4 ! d_in [3:0] $end
$var wire 1 " to_bin [3] $end
$var wire 1 # to_bin [2] $end
$var wire 1 $ to_bin [1] $end
$var wire 1 % to_bin [0] $end
$var wire 1 & to_gray [3] $end
$var wire 1 ' to_gray [2] $end
$var wire 1 ( to_gray [1] $end
$var wire 1 ) to_gray [0] $end

$scope module i1 $end
$var wire 1 * gnd $end
$var wire 1 + vcc $end
$var wire 1 , unknown $end
$var tri1 1 - devclrn $end
$var tri1 1 . devpor $end
$var tri1 1 / devoe $end
$var wire 1 0 to_gray[0]~output_o $end
$var wire 1 1 to_gray[1]~output_o $end
$var wire 1 2 to_gray[2]~output_o $end
$var wire 1 3 to_gray[3]~output_o $end
$var wire 1 4 to_bin[0]~output_o $end
$var wire 1 5 to_bin[1]~output_o $end
$var wire 1 6 to_bin[2]~output_o $end
$var wire 1 7 to_bin[3]~output_o $end
$var wire 1 8 d_in[0]~input_o $end
$var wire 1 9 d_in[1]~input_o $end
$var wire 1 : q~0_combout $end
$var wire 1 ; d_in[2]~input_o $end
$var wire 1 < q~1_combout $end
$var wire 1 = d_in[3]~input_o $end
$var wire 1 > q~2_combout $end
$upscope $end
$upscope $end
$enddefinitions $end
#0
$dumpvars
b0 !
0%
0$
0#
0"
0)
0(
0'
0&
0*
1+
x,
1-
1.
1/
00
01
02
03
04
05
06
07
08
09
0:
0;
0<
0=
0>
$end
#60000
b1 !
18
14
1%
1:
10
1)
#120000
b11 !
b10 !
08
19
15
04
0%
1$
1<
11
1(
#180000
b11 !
18
14
1%
0:
00
0)
#240000
b111 !
b101 !
b100 !
08
09
1;
16
05
04
0%
0$
1#
1>
12
1'
#300000
b101 !
18
14
1%
1:
10
1)
#360000
b111 !
b110 !
08
19
15
04
0%
1$
0<
01
0(
#420000
b111 !
18
14
1%
0:
00
0)
#480000
b1111 !
b1011 !
b1001 !
b1000 !
08
09
0;
1=
13
17
06
05
04
0%
0$
0#
1"
1&
#540000
b1001 !
18
14
1%
1:
10
1)
#600000
b1011 !
b1010 !
08
19
15
04
0%
1$
1<
11
1(
#660000
b1011 !
18
14
1%
0:
00
0)
#720000
b1111 !
b1101 !
b1100 !
08
09
1;
16
05
04
0%
0$
1#
0>
02
0'
#780000
b1101 !
18
14
1%
1:
10
1)
#840000
b1111 !
b1110 !
08
19
15
04
0%
1$
0<
01
0(
#900000
b1111 !
18
14
1%
0:
00
0)
#960000
b111 !
b11 !
b1 !
b0 !
08
09
0;
0=
03
07
06
05
04
0%
0$
0#
0"
0&
