lab5/lab5_1/simulation/qsim/lab5_1.msim.vcd
$comment
	File created using the following command:
		vcd file lab5_1.msim.vcd -direction
$end
$date
	Fri Oct 29 10:36:28 2021
$end
$version
	ModelSim Version 2020.1
$end
$timescale
	1ps
$end

$scope module lab5_1_vlg_vec_tst $end
$var reg 1 ! arst $end
$var reg 1 " clk $end
$var reg 4 # da [3:0] $end
$var reg 4 $ db [3:0] $end
$var reg 1 % ena $end
$var wire 1 & result [7] $end
$var wire 1 ' result [6] $end
$var wire 1 ( result [5] $end
$var wire 1 ) result [4] $end
$var wire 1 * result [3] $end
$var wire 1 + result [2] $end
$var wire 1 , result [1] $end
$var wire 1 - result [0] $end

$scope module i1 $end
$var wire 1 . gnd $end
$var wire 1 / vcc $end
$var wire 1 0 unknown $end
$var tri1 1 1 devclrn $end
$var tri1 1 2 devpor $end
$var tri1 1 3 devoe $end
$var wire 1 4 result[0]~output_o $end
$var wire 1 5 result[1]~output_o $end
$var wire 1 6 result[2]~output_o $end
$var wire 1 7 result[3]~output_o $end
$var wire 1 8 result[4]~output_o $end
$var wire 1 9 result[5]~output_o $end
$var wire 1 : result[6]~output_o $end
$var wire 1 ; result[7]~output_o $end
$var wire 1 < clk~input_o $end
$var wire 1 = clk~inputclkctrl_outclk $end
$var wire 1 > da[0]~input_o $end
$var wire 1 ? arst~input_o $end
$var wire 1 @ ena~input_o $end
$var wire 1 A db[1]~input_o $end
$var wire 1 B db[0]~input_o $end
$var wire 1 C output_rg|q[0]~8_combout $end
$var wire 1 D da[1]~input_o $end
$var wire 1 E output_rg|q[0]~9 $end
$var wire 1 F output_rg|q[1]~10_combout $end
$var wire 1 G db[2]~input_o $end
$var wire 1 H db[3]~input_o $end
$var wire 1 I da[2]~input_o $end
$var wire 1 J mult_|Mult0|auto_generated|op_1~0_combout $end
$var wire 1 K output_rg|q[1]~11 $end
$var wire 1 L output_rg|q[2]~12_combout $end
$var wire 1 M mult_|Mult0|auto_generated|cs2a[1]~0_combout $end
$var wire 1 N da[3]~input_o $end
$var wire 1 O mult_|Mult0|auto_generated|op_1~1 $end
$var wire 1 P mult_|Mult0|auto_generated|op_1~2_combout $end
$var wire 1 Q output_rg|q[2]~13 $end
$var wire 1 R output_rg|q[3]~14_combout $end
$var wire 1 S mult_|Mult0|auto_generated|op_1~3 $end
$var wire 1 T mult_|Mult0|auto_generated|op_1~4_combout $end
$var wire 1 U output_rg|q[3]~15 $end
$var wire 1 V output_rg|q[4]~16_combout $end
$var wire 1 W mult_|Mult0|auto_generated|op_1~5 $end
$var wire 1 X mult_|Mult0|auto_generated|op_1~6_combout $end
$var wire 1 Y output_rg|q[4]~17 $end
$var wire 1 Z output_rg|q[5]~18_combout $end
$var wire 1 [ mult_|Mult0|auto_generated|op_1~7 $end
$var wire 1 \ mult_|Mult0|auto_generated|op_1~8_combout $end
$var wire 1 ] output_rg|q[5]~19 $end
$var wire 1 ^ output_rg|q[6]~20_combout $end
$var wire 1 _ mult_|Mult0|auto_generated|op_1~9 $end
$var wire 1 ` mult_|Mult0|auto_generated|op_1~10_combout $end
$var wire 1 a output_rg|q[6]~21 $end
$var wire 1 b output_rg|q[7]~22_combout $end
$var wire 1 c output_rg|q [7] $end
$var wire 1 d output_rg|q [6] $end
$var wire 1 e output_rg|q [5] $end
$var wire 1 f output_rg|q [4] $end
$var wire 1 g output_rg|q [3] $end
$var wire 1 h output_rg|q [2] $end
$var wire 1 i output_rg|q [1] $end
$var wire 1 j output_rg|q [0] $end
$var wire 1 k mult_|Mult0|auto_generated|le5a [4] $end
$var wire 1 l mult_|Mult0|auto_generated|le5a [3] $end
$var wire 1 m mult_|Mult0|auto_generated|le5a [2] $end
$var wire 1 n mult_|Mult0|auto_generated|le5a [1] $end
$var wire 1 o mult_|Mult0|auto_generated|le5a [0] $end
$var wire 1 p input_rg_2|q [3] $end
$var wire 1 q input_rg_2|q [2] $end
$var wire 1 r input_rg_2|q [1] $end
$var wire 1 s input_rg_2|q [0] $end
$var wire 1 t mult_|Mult0|auto_generated|le4a [5] $end
$var wire 1 u mult_|Mult0|auto_generated|le4a [4] $end
$var wire 1 v mult_|Mult0|auto_generated|le4a [3] $end
$var wire 1 w mult_|Mult0|auto_generated|le4a [2] $end
$var wire 1 x mult_|Mult0|auto_generated|le4a [1] $end
$var wire 1 y mult_|Mult0|auto_generated|le4a [0] $end
$var wire 1 z input_rg_1|q [3] $end
$var wire 1 { input_rg_1|q [2] $end
$var wire 1 | input_rg_1|q [1] $end
$var wire 1 } input_rg_1|q [0] $end
$var wire 1 ~ mult_|Mult0|auto_generated|le3a [5] $end
$var wire 1 !! mult_|Mult0|auto_generated|le3a [4] $end
$var wire 1 "! mult_|Mult0|auto_generated|le3a [3] $end
$var wire 1 #! mult_|Mult0|auto_generated|le3a [2] $end
$var wire 1 $! mult_|Mult0|auto_generated|le3a [1] $end
$var wire 1 %! mult_|Mult0|auto_generated|le3a [0] $end
$upscope $end
$upscope $end
$enddefinitions $end
#0
$dumpvars
1!
0"
b1010 #
b10 $
0%
0-
0,
0+
0*
0)
0(
0'
0&
0.
1/
x0
11
12
13
04
05
06
07
08
09
0:
0;
0<
0=
0>
1?
0@
1A
0B
0C
1D
0E
0F
0G
0H
0I
0J
1K
0L
0M
1N
0O
0P
0Q
0R
1S
0T
1U
0V
0W
0X
0Y
0Z
1[
0\
1]
0^
0_
1`
0a
0b
0j
0i
0h
0g
0f
0e
0d
0c
0o
0n
0m
0l
zk
0s
0r
0q
0p
0y
0x
0w
0v
0u
0t
0}
0|
0{
0z
0%!
0$!
0#!
0"!
0!!
z~
$end
#10000
1"
1<
1=
#20000
0"
0<
0=
#30000
1%
1"
1@
1<
1=
1z
1|
1r
1"!
1$!
1M
1%!
1b
1^
1Z
1C
1P
1v
1x
1E
1F
0C
0U
1X
0K
0F
0]
1V
0Z
1L
1a
0^
0b
#40000
0"
0<
0=
#50000
1"
1<
1=
1f
1h
16
18
1)
1+
#60000
b1011 #
b0 $
b1 $
0"
1B
0A
1>
0<
0=
#70000
1"
1<
1=
1s
0r
1}
0a
1]
0M
0E
1b
1^
1Z
1C
0v
0x
1K
0b
0^
1F
0X
1U
1R
0L
0Z
0V
#80000
0"
0<
0=
#90000
1"
1<
1=
0f
1g
0h
1i
1j
14
15
06
17
08
0)
1*
0+
1,
1-
#100000
0"
0<
0=
#110000
1"
1<
1=
#120000
b1111 #
b1101 #
b1100 #
b11 $
b10 $
0"
0B
1A
0>
0D
1I
0<
0=
#130000
1"
1<
1=
1{
0|
0s
1r
0}
0"!
1#!
1M
1E
1b
1^
1Z
0C
0P
1J
1v
1w
0K
0F
1Q
1X
1T
0R
0]
1R
0Z
1V
1a
0^
0b
#140000
0"
0<
0=
#150000
1"
1<
1=
1f
0i
0j
04
05
18
1)
0,
0-
#160000
0"
0<
0=
#170000
1"
1<
1=
#180000
b1101 #
b11 $
0"
1B
1>
0<
0=
#190000
1"
1<
1=
1s
1}
1!!
0#!
0%!
1y
1W
0T
0J
0E
1C
1L
0[
0X
1K
0V
0L
1F
1\
1]
0Q
1Z
1L
0R
#200000
0"
0<
0=
#210000
1"
1<
1=
1e
0f
0g
1h
1i
1j
14
15
16
07
08
19
1(
0)
0*
1+
1,
1-
#220000
0"
0<
0=
#230000
1"
1<
1=
#240000
b111 $
b1111 #
b101 $
b1110 #
b100 $
0"
0>
1D
0B
0A
1G
0<
0=
#250000
1"
1<
1=
1q
1|
0s
0r
0}
0y
1x
0$!
0!!
0a
1b
1^
0Z
0C
0W
1T
0L
1R
0F
0b
1[
1X
1V
0\
1Z
0^
#260000
0"
0<
0=
#270000
1"
1<
1=
1f
1g
0h
0i
0j
04
05
06
17
18
1)
1*
0+
0,
0-
#280000
0"
0<
0=
#290000
1"
1<
1=
#300000
b1111 #
b101 $
0"
1B
1>
0<
0=
#310000
1"
1<
1=
1s
1}
1"!
1#!
1$!
1%!
1y
1P
1J
1F
1C
1L
0U
1Q
0R
0L
1Y
0V
1R
0]
0Z
1^
#320000
0"
0<
0=
#330000
1"
1<
1=
1d
0e
0f
1i
1j
14
15
08
09
1:
1'
0(
0)
1,
1-
#340000
0"
0<
0=
#350000
1"
1<
1=
#360000
b111 #
b11 #
b1 #
b111 $
b0 #
b110 $
0"
0B
1A
0>
0D
0I
0N
0<
0=
#370000
1"
1<
1=
0z
0{
0|
0s
1r
0}
1u
0v
1!!
0w
0x
1a
0M
1t
1E
1b
0^
1Z
0C
1\
0X
1v
1w
1x
0`
1O
0J
0K
0R
0b
0F
1X
1W
0T
0S
0P
1^
0Z
1R
1b
0[
0X
0Y
1T
1Z
1V
0R
1_
0\
1]
1Y
0V
1`
0a
0]
0Z
1a
0^
0b
#380000
0"
0<
0=
#390000
1"
1<
1=
0d
0g
0i
0j
04
05
07
0:
0'
0*
0,
0-
#400000
0"
0<
0=
#410000
1"
1<
1=
#420000
b1 #
b111 $
0"
1B
1>
0<
0=
#430000
1"
1<
1=
1s
1}
0%!
1o
0x
0E
1U
1C
1V
1R
1K
1F
0V
0Q
1L
0R
#440000
0"
0<
0=
#450000
1"
1<
1=
1h
1i
1j
14
15
16
1+
1,
1-
#460000
0"
0<
0=
#470000
0!
1"
0?
1<
1=
0}
0r
0s
0q
0j
0i
0h
06
05
04
0o
1x
0y
0$!
0a
0u
1]
0!!
0"!
0t
0#!
0-
0,
0+
1b
1^
1Z
0C
0Y
0_
1\
0T
1S
1P
0`
0v
0w
0x
0O
1V
1R
0L
0F
0b
0^
1`
0W
1[
1X
0P
0Z
1^
0V
1b
0X
0\
0b
1Z
0R
0Z
0^
#480000
b1111 $
b1011 $
b11 #
b1001 $
b10 #
b1000 $
0"
0>
1D
0B
0A
0G
1H
0<
0=
#490000
1"
1<
1=
#500000
0"
0<
0=
#510000
1!
1"
1?
1<
1=
1p
1|
1u
1n
1t
1y
1\
1X
0`
1v
1x
1J
1L
0[
0X
1Q
1^
1Z
1b
1R
0L
1_
0\
0U
0Z
0R
1`
0^
1V
0b
#520000
0"
0<
0=
#530000
1"
1<
1=
1f
18
1)
#540000
b11 #
b1001 $
0"
1B
1>
0<
0=
#550000
1"
1<
1=
1s
1}
1$!
1%!
1o
0x
1Y
1U
1F
1C
0V
1R
0Y
1Z
1V
0Z
#560000
0"
0<
0=
#570000
1"
1<
1=
1g
1i
1j
14
15
17
1*
1,
1-
#580000
0"
0<
0=
#590000
1"
1<
1=
#600000
b111 #
b101 #
b1011 $
b100 #
b1010 $
0"
0B
1A
0>
0D
1I
0<
0=
#610000
1"
1<
1=
1{
0|
0s
1r
0}
1m
0v
1w
1#!
0n
1x
1!!
0o
1M
1E
1b
1^
1Z
0C
1\
1[
1W
1O
0J
0U
1v
0w
0K
0R
0V
0F
1a
0\
0[
1P
0W
1T
0^
1V
0a
1\
1[
1X
1Y
0b
1^
1R
0V
1a
0\
0]
1b
0^
0b
#620000
0"
0<
0=
#630000
1"
1<
1=
1e
0f
0i
0j
04
05
08
19
1(
0)
0,
0-
#640000
0"
0<
0=
#650000
1"
1<
1=
#660000
b101 #
b1011 $
0"
1B
1>
0<
0=
#670000
1"
1<
1=
1s
1}
1"!
0#!
0%!
1o
0y
0S
0P
0O
1J
0E
0Q
1C
1V
1L
1W
0T
1U
1S
1P
1Q
1K
0L
1F
0[
0X
0Y
0W
1T
0U
0Q
1L
1\
1]
1[
1X
1Y
0R
0\
0]
#680000
0"
0<
0=
#690000
1"
1<
1=
1f
0g
1h
1i
1j
14
15
16
07
18
1)
0*
1+
1,
1-
#700000
0"
0<
0=
#710000
1"
1<
1=
#720000
b1111 $
b111 #
b1101 $
b110 #
b1100 $
0"
0>
1D
0B
0A
1G
0<
0=
#730000
1"
1<
1=
1q
1|
0s
0r
0}
1n
0o
1y
0x
0$!
0!!
0"!
0a
1b
1^
0Z
0C
0[
0X
1Q
1U
0T
0P
0V
0L
1R
0F
0b
1\
1]
0Y
1Z
0Z
#740000
0"
0<
0=
#750000
1"
1<
1=
1d
0e
0f
1g
0h
0i
0j
04
05
06
17
08
09
1:
1'
0(
0)
1*
0+
0,
0-
#760000
0"
0<
0=
#770000
1"
1<
1=
#780000
b111 #
b1101 $
0"
1B
1>
0<
0=
#790000
1"
1<
1=
1s
1}
1#!
1$!
1%!
1o
0y
1O
0J
0Q
1F
1C
1V
1L
1P
0L
0R
1R
#800000
0"
0<
0=
#810000
1"
1<
1=
1f
1i
1j
14
15
18
1)
1,
1-
#820000
0"
0<
0=
#830000
1"
1<
1=
#840000
b1111 #
b1011 #
b1001 #
b1111 $
b1000 #
b1110 $
0"
0B
1A
0>
0D
0I
1N
0<
0=
#850000
1"
1<
1=
1z
0{
0|
0s
1r
0}
1l
0u
0v
1"!
0m
1w
0n
1x
1a
0o
0M
0t
1E
1b
0^
1Z
0C
0_
1[
0S
0P
1T
0U
0w
0x
0O
1J
0K
0R
0b
0V
0F
0`
0\
1U
1Y
1S
1P
1Q
0a
0Y
0]
0T
0U
1b
1^
1V
0Z
1]
1a
0b
1Z
0^
0a
1^
1b
0b
#860000
0"
0<
0=
#870000
1"
1<
1=
1e
0g
0i
0j
04
05
07
19
1(
0*
0,
0-
#880000
0"
0<
0=
#890000
1"
1<
1=
#900000
b1001 #
b1111 $
0"
1B
1>
0<
0=
#910000
1"
1<
1=
1s
1}
1!!
0"!
0%!
1o
1T
0P
0E
1Y
1C
0V
1U
1K
0]
1V
1R
1F
0Z
0Q
1a
0V
1L
0^
0R
1b
#920000
0"
0<
0=
#930000
1"
1<
1=
1c
0d
0e
0f
1h
1i
1j
14
15
16
08
09
0:
1;
1&
0'
0(
0)
1+
1,
1-
#940000
0"
0<
0=
#950000
1"
1<
1=
#960000
b111 $
b11 $
b1011 #
b1 $
b1010 #
b0 $
0"
0>
1D
0B
0A
0G
0H
0<
0=
#970000
1"
1<
1=
0p
0q
1|
0s
0r
0}
0l
0o
0#!
0$!
0!!
0a
1]
0b
1^
1Z
0C
1`
0Y
0J
0T
1V
0F
1b
0^
0b
0Z
0L
0V
#980000
0"
0<
0=
#990000
1"
1<
1=
0c
0h
0i
0j
04
05
06
0;
0&
0+
0,
0-
