lab1/lab1_2/simulation/qsim/lab1_2.msim.vcd
$comment
	File created using the following command:
		vcd file lab1_2.msim.vcd -direction
$end
$date
	Fri Sep 17 16:46:26 2021
$end
$version
	ModelSim Version 10.1d
$end
$timescale
	1ps
$end
$scope module lab1_2_vlg_vec_tst $end
$var reg 1 ! pba $end
$var reg 4 " sw30 [3:0] $end
$var reg 4 # sw74 [3:0] $end
$var wire 1 $ led [3] $end
$var wire 1 % led [2] $end
$var wire 1 & led [1] $end
$var wire 1 ' led [0] $end
$var wire 1 ( sampler $end
$scope module i1 $end
$var wire 1 ) gnd $end
$var wire 1 * vcc $end
$var wire 1 + unknown $end
$var tri1 1 , devclrn $end
$var tri1 1 - devpor $end
$var tri1 1 . devoe $end
$var wire 1 / led[0]~output_o $end
$var wire 1 0 led[1]~output_o $end
$var wire 1 1 led[2]~output_o $end
$var wire 1 2 led[3]~output_o $end
$var wire 1 3 sw30[0]~input_o $end
$var wire 1 4 sw74[0]~input_o $end
$var wire 1 5 pba~input_o $end
$var wire 1 6 led~0_combout $end
$var wire 1 7 sw74[1]~input_o $end
$var wire 1 8 sw30[1]~input_o $end
$var wire 1 9 led~1_combout $end
$var wire 1 : sw30[2]~input_o $end
$var wire 1 ; sw74[2]~input_o $end
$var wire 1 < led~2_combout $end
$var wire 1 = sw30[3]~input_o $end
$var wire 1 > sw74[3]~input_o $end
$var wire 1 ? led~3_combout $end
$upscope $end
$upscope $end
$enddefinitions $end
#0
$dumpvars
0!
b0 "
b1000 #
0'
0&
0%
0$
x(
0)
1*
x+
1,
1-
1.
0/
00
01
02
03
04
05
06
07
08
09
0:
0;
0<
0=
1>
0?
$end
#100000
b1 "
b1001 #
1!
14
13
15
0(
16
1?
1/
12
1'
1$
#200000
b11 "
b1011 #
b10 "
b1010 #
0!
04
17
03
18
05
1(
06
19
0?
0/
10
02
0'
1&
0$
#300000
b11 "
b1011 #
1!
14
13
15
0(
16
1?
1/
12
1'
1$
#400000
b111 "
b1111 #
b101 "
b1101 #
b100 "
b1100 #
0!
04
07
1;
03
08
1:
05
1(
06
09
1<
0?
0/
00
11
02
0'
0&
1%
0$
#500000
b101 "
b1101 #
1!
14
13
15
0(
16
1?
1/
12
1'
1$
#600000
b111 "
b1111 #
b110 "
b1110 #
0!
04
17
03
18
05
1(
06
19
0?
0/
10
02
0'
1&
0$
#700000
b111 "
b1111 #
1!
14
13
15
0(
16
1?
1/
12
1'
1$
#800000
b1111 "
b111 #
b1011 "
b11 #
b1001 "
b1 #
b1000 "
b0 #
0!
04
07
0;
0>
03
08
0:
1=
05
1(
06
09
0<
0/
00
01
0'
0&
0%
#900000
b1001 "
b1 #
1!
14
13
15
0(
16
0?
1/
02
1'
0$
