lab2/lab2_2/simulation/qsim/lab2_2.msim.vcd
$comment
	File created using the following command:
		vcd file lab2_2.msim.vcd -direction
$end
$date
	Fri Sep 24 12:24:12 2021
$end
$version
	ModelSim Version 10.1d
$end
$timescale
	1ps
$end
$scope module lab2_2_vlg_vec_tst $end
$var reg 4 ! sw [3:0] $end
$var reg 1 " sw7 $end
$var wire 1 # led [7] $end
$var wire 1 $ led [6] $end
$var wire 1 % led [5] $end
$var wire 1 & led [4] $end
$var wire 1 ' led [3] $end
$var wire 1 ( led [2] $end
$var wire 1 ) led [1] $end
$var wire 1 * led [0] $end
$var wire 1 + sampler $end
$scope module i1 $end
$var wire 1 , gnd $end
$var wire 1 - vcc $end
$var wire 1 . unknown $end
$var tri1 1 / devclrn $end
$var tri1 1 0 devpor $end
$var tri1 1 1 devoe $end
$var wire 1 2 led[0]~output_o $end
$var wire 1 3 led[1]~output_o $end
$var wire 1 4 led[2]~output_o $end
$var wire 1 5 led[3]~output_o $end
$var wire 1 6 led[4]~output_o $end
$var wire 1 7 led[5]~output_o $end
$var wire 1 8 led[6]~output_o $end
$var wire 1 9 led[7]~output_o $end
$var wire 1 : sw[0]~input_o $end
$var wire 1 ; sw7~input_o $end
$var wire 1 < led~0_combout $end
$var wire 1 = sw[1]~input_o $end
$var wire 1 > Add0~2_combout $end
$var wire 1 ? Add0~4_combout $end
$var wire 1 @ sw[2]~input_o $end
$var wire 1 A Add0~3 $end
$var wire 1 B Add0~5_combout $end
$var wire 1 C Add0~7_combout $end
$var wire 1 D sw[3]~input_o $end
$var wire 1 E Add1~0_combout $end
$var wire 1 F Add0~6 $end
$var wire 1 G Add0~8_combout $end
$var wire 1 H Add0~22_combout $end
$var wire 1 I Add1~1_combout $end
$var wire 1 J Add0~9 $end
$var wire 1 K Add0~10_combout $end
$var wire 1 L Add0~12_combout $end
$var wire 1 M Add1~2_combout $end
$var wire 1 N Add0~11 $end
$var wire 1 O Add0~13_combout $end
$var wire 1 P Add0~15_combout $end
$var wire 1 Q Add1~3_combout $end
$var wire 1 R Add0~14 $end
$var wire 1 S Add0~16_combout $end
$var wire 1 T Add0~18_combout $end
$var wire 1 U Add0~17 $end
$var wire 1 V Add0~19_combout $end
$var wire 1 W Add0~21_combout $end
$upscope $end
$upscope $end
$enddefinitions $end
#0
$dumpvars
b0 !
0"
0*
0)
0(
0'
0&
0%
0$
0#
x+
0,
1-
x.
1/
10
11
02
03
04
05
06
07
08
09
0:
0;
0<
0=
0>
0?
0@
0A
0B
0C
0D
0E
1F
0G
0H
0I
0J
0K
0L
0M
1N
0O
0P
0Q
0R
0S
0T
1U
0V
0W
$end
#100000
b1 !
1:
0+
1E
1>
1H
1?
1G
15
13
1'
1)
#200000
b11 !
b10 !
0:
1=
1+
1I
0E
1B
0H
0?
1C
1K
0G
05
03
14
0'
0)
1(
1L
16
1&
#300000
b11 !
1:
0+
1E
1A
0>
1H
1?
1G
0F
0B
15
13
1'
1)
1J
0G
0N
0K
1O
#400000
b111 !
1"
b101 !
b100 !
0:
0=
1@
1;
1+
0I
0A
1R
0O
0H
0?
0C
1P
0L
1N
1K
1F
1B
1S
05
03
04
17
06
0'
0)
0(
1%
0&
0P
0R
1O
0J
1G
07
0%
1L
1C
1T
0S
0K
16
14
18
1&
1(
1$
1P
1H
17
15
1%
1'
0T
0L
08
06
0$
0&
#500000
b101 !
1:
0+
1I
0E
1>
1<
1K
0G
12
1*
1?
13
1)
1L
0H
16
05
1&
0'
#600000
b111 !
b110 !
0:
1=
1+
1E
0F
0B
0<
1J
02
0*
0C
0N
0K
04
0(
1R
0O
0L
1S
06
0&
0P
07
0%
1T
18
1$
#700000
b111 !
1:
0+
1Q
1M
0I
0E
1A
0>
1<
0U
0S
0R
1O
1N
1K
0J
1G
1B
12
1*
0?
1V
1U
1S
0O
0K
03
0)
0T
1P
1L
1H
1C
0V
08
17
16
15
14
0$
1%
1&
1'
1(
1W
1T
0P
0L
19
18
07
06
1#
1$
0%
0&
0W
09
0#
#800000
b1111 !
b1011 !
b1001 !
b1000 !
0:
0=
0@
1D
1+
0Q
0M
1I
0A
1F
1O
1V
0S
1J
0G
0<
0V
1S
0O
0N
0B
0J
1G
02
0*
1W
0T
1P
0H
1O
1N
1K
19
08
17
05
1#
0$
1%
0'
0W
1T
0P
0C
1H
0O
09
18
07
04
15
0#
1$
0%
0(
1'
1P
1L
17
16
1%
1&
0P
07
0%
#900000
b1001 !
1:
0+
1E
1>
1<
1J
0G
12
1*
1?
0N
0K
13
1)
0H
1O
05
0'
0L
06
0&
1P
17
1%
#960000
0"
0;
1+
0P
1L
1H
0<
07
16
15
02
0%
1&
1'
0*
