lab7/lab7_2/simulation/qsim/lab7_2.msim.vcd
$comment
	File created using the following command:
		vcd file lab7_2.msim.vcd -direction
$end
$date
	Fri Nov 19 12:34:35 2021
$end
$version
	ModelSim Version 2020.1
$end
$timescale
	1ps
$end

$scope module lab7_2_vlg_vec_tst $end
$var reg 1 ! ARSTn $end
$var reg 1 " WEn $end
$var reg 1 # clk $end
$var wire 1 $ q [3] $end
$var wire 1 % q [2] $end
$var wire 1 & q [1] $end
$var wire 1 ' q [0] $end

$scope module i1 $end
$var wire 1 ( gnd $end
$var wire 1 ) vcc $end
$var wire 1 * unknown $end
$var tri1 1 + devclrn $end
$var tri1 1 , devpor $end
$var tri1 1 - devoe $end
$var wire 1 . q[0]~output_o $end
$var wire 1 / q[1]~output_o $end
$var wire 1 0 q[2]~output_o $end
$var wire 1 1 q[3]~output_o $end
$var wire 1 2 ARSTn~input_o $end
$var wire 1 3 clk~input_o $end
$var wire 1 4 clk~inputclkctrl_outclk $end
$var wire 1 5 cnt_d|Add0~0_combout $end
$var wire 1 6 cnt_d|Add0~1 $end
$var wire 1 7 cnt_d|Add0~2_combout $end
$var wire 1 8 cnt_d|Add0~3 $end
$var wire 1 9 cnt_d|Add0~4_combout $end
$var wire 1 : cnt_d|cnt~0_combout $end
$var wire 1 ; cnt_d|Add0~5 $end
$var wire 1 < cnt_d|Add0~6_combout $end
$var wire 1 = cnt_d|Add0~7 $end
$var wire 1 > cnt_d|Add0~8_combout $end
$var wire 1 ? cnt_d|Add0~9 $end
$var wire 1 @ cnt_d|Add0~10_combout $end
$var wire 1 A cnt_d|Add0~11 $end
$var wire 1 B cnt_d|Add0~12_combout $end
$var wire 1 C cnt_d|Add0~13 $end
$var wire 1 D cnt_d|Add0~14_combout $end
$var wire 1 E cnt_d|Add0~15 $end
$var wire 1 F cnt_d|Add0~16_combout $end
$var wire 1 G cnt_d|Add0~17 $end
$var wire 1 H cnt_d|Add0~18_combout $end
$var wire 1 I cnt_d|Add0~19 $end
$var wire 1 J cnt_d|Add0~20_combout $end
$var wire 1 K cnt_d|Add0~21 $end
$var wire 1 L cnt_d|Add0~22_combout $end
$var wire 1 M cnt_d|Add0~23 $end
$var wire 1 N cnt_d|Add0~24_combout $end
$var wire 1 O cnt_d|Add0~25 $end
$var wire 1 P cnt_d|Add0~26_combout $end
$var wire 1 Q cnt_d|Add0~27 $end
$var wire 1 R cnt_d|Add0~28_combout $end
$var wire 1 S cnt_d|Add0~29 $end
$var wire 1 T cnt_d|Add0~30_combout $end
$var wire 1 U cnt_d|Add0~31 $end
$var wire 1 V cnt_d|Add0~32_combout $end
$var wire 1 W cnt_d|Add0~33 $end
$var wire 1 X cnt_d|Add0~34_combout $end
$var wire 1 Y cnt_d|Add0~35 $end
$var wire 1 Z cnt_d|Add0~36_combout $end
$var wire 1 [ cnt_d|Add0~37 $end
$var wire 1 \ cnt_d|Add0~38_combout $end
$var wire 1 ] cnt_d|Add0~39 $end
$var wire 1 ^ cnt_d|Add0~40_combout $end
$var wire 1 _ cnt_d|Add0~41 $end
$var wire 1 ` cnt_d|Add0~42_combout $end
$var wire 1 a cnt_d|Add0~43 $end
$var wire 1 b cnt_d|Add0~44_combout $end
$var wire 1 c cnt_d|Add0~45 $end
$var wire 1 d cnt_d|Add0~46_combout $end
$var wire 1 e cnt_d|Equal0~6_combout $end
$var wire 1 f cnt_d|Equal0~5_combout $end
$var wire 1 g cnt_d|Equal0~7_combout $end
$var wire 1 h cnt_d|Add0~47 $end
$var wire 1 i cnt_d|Add0~48_combout $end
$var wire 1 j cnt_d|Add0~49 $end
$var wire 1 k cnt_d|Add0~50_combout $end
$var wire 1 l cnt_d|Add0~51 $end
$var wire 1 m cnt_d|Add0~52_combout $end
$var wire 1 n cnt_d|Add0~53 $end
$var wire 1 o cnt_d|Add0~54_combout $end
$var wire 1 p cnt_d|Equal0~8_combout $end
$var wire 1 q cnt_d|Add0~55 $end
$var wire 1 r cnt_d|Add0~56_combout $end
$var wire 1 s cnt_d|Add0~57 $end
$var wire 1 t cnt_d|Add0~58_combout $end
$var wire 1 u cnt_d|Add0~59 $end
$var wire 1 v cnt_d|Add0~60_combout $end
$var wire 1 w cnt_d|Add0~61 $end
$var wire 1 x cnt_d|Add0~62_combout $end
$var wire 1 y cnt_d|Equal0~9_combout $end
$var wire 1 z cnt_d|Equal0~0_combout $end
$var wire 1 { cnt_d|Equal0~3_combout $end
$var wire 1 | cnt_d|Equal0~2_combout $end
$var wire 1 } cnt_d|Equal0~1_combout $end
$var wire 1 ~ cnt_d|Equal0~4_combout $end
$var wire 1 !! cnt_d|Equal0~10_combout $end
$var wire 1 "! adr|cnt[0]~5_combout $end
$var wire 1 #! adr|cnt[1]~4_combout $end
$var wire 1 $! adr|cnt[2]~0_combout $end
$var wire 1 %! WEn~input_o $end
$var wire 1 &! adr|cnt[1]~1_combout $end
$var wire 1 '! adr|cnt[1]~2_combout $end
$var wire 1 (! adr|cnt[3]~3_combout $end
$var wire 1 )! RAM|mem~128_combout $end
$var wire 1 *! RAM|mem~129_combout $end
$var wire 1 +! RAM|mem~28_q $end
$var wire 1 ,! RAM|mem~134_combout $end
$var wire 1 -! RAM|mem~135_combout $end
$var wire 1 .! RAM|mem~60_q $end
$var wire 1 /! RAM|mem~44feeder_combout $end
$var wire 1 0! RAM|mem~130_combout $end
$var wire 1 1! RAM|mem~131_combout $end
$var wire 1 2! RAM|mem~44_q $end
$var wire 1 3! RAM|mem~132_combout $end
$var wire 1 4! RAM|mem~133_combout $end
$var wire 1 5! RAM|mem~12_q $end
$var wire 1 6! RAM|mem~71_combout $end
$var wire 1 7! RAM|mem~72_combout $end
$var wire 1 8! RAM|mem~36feeder_combout $end
$var wire 1 9! RAM|mem~112_combout $end
$var wire 1 :! RAM|mem~113_combout $end
$var wire 1 ;! RAM|mem~36_q $end
$var wire 1 <! RAM|mem~118_combout $end
$var wire 1 =! RAM|mem~119_combout $end
$var wire 1 >! RAM|mem~52_q $end
$var wire 1 ?! RAM|mem~20feeder_combout $end
$var wire 1 @! RAM|mem~114_combout $end
$var wire 1 A! RAM|mem~115_combout $end
$var wire 1 B! RAM|mem~20_q $end
$var wire 1 C! RAM|mem~116_combout $end
$var wire 1 D! RAM|mem~117_combout $end
$var wire 1 E! RAM|mem~4_q $end
$var wire 1 F! RAM|mem~66_combout $end
$var wire 1 G! RAM|mem~67_combout $end
$var wire 1 H! RAM|mem~140_combout $end
$var wire 1 I! RAM|mem~120_combout $end
$var wire 1 J! RAM|mem~121_combout $end
$var wire 1 K! RAM|mem~32_q $end
$var wire 1 L! RAM|mem~143_combout $end
$var wire 1 M! RAM|mem~126_combout $end
$var wire 1 N! RAM|mem~127_combout $end
$var wire 1 O! RAM|mem~48_q $end
$var wire 1 P! RAM|mem~141_combout $end
$var wire 1 Q! RAM|mem~122_combout $end
$var wire 1 R! RAM|mem~123_combout $end
$var wire 1 S! RAM|mem~16_q $end
$var wire 1 T! RAM|mem~142_combout $end
$var wire 1 U! RAM|mem~124_combout $end
$var wire 1 V! RAM|mem~125_combout $end
$var wire 1 W! RAM|mem~0_q $end
$var wire 1 X! RAM|mem~68_combout $end
$var wire 1 Y! RAM|mem~69_combout $end
$var wire 1 Z! RAM|mem~70_combout $end
$var wire 1 [! RAM|mem~139_combout $end
$var wire 1 \! RAM|mem~110_combout $end
$var wire 1 ]! RAM|mem~111_combout $end
$var wire 1 ^! RAM|mem~56_q $end
$var wire 1 _! RAM|mem~136_combout $end
$var wire 1 `! RAM|mem~104_combout $end
$var wire 1 a! RAM|mem~105_combout $end
$var wire 1 b! RAM|mem~24_q $end
$var wire 1 c! RAM|mem~137_combout $end
$var wire 1 d! RAM|mem~106_combout $end
$var wire 1 e! RAM|mem~107_combout $end
$var wire 1 f! RAM|mem~40_q $end
$var wire 1 g! RAM|mem~138_combout $end
$var wire 1 h! RAM|mem~108_combout $end
$var wire 1 i! RAM|mem~109_combout $end
$var wire 1 j! RAM|mem~8_q $end
$var wire 1 k! RAM|mem~64_combout $end
$var wire 1 l! RAM|mem~65_combout $end
$var wire 1 m! RAM|mem~73_combout $end
$var wire 1 n! q~0_combout $end
$var wire 1 o! RAM|mem~144_combout $end
$var wire 1 p! RAM|mem~41_q $end
$var wire 1 q! RAM|mem~45_q $end
$var wire 1 r! RAM|mem~145_combout $end
$var wire 1 s! RAM|mem~33_q $end
$var wire 1 t! RAM|mem~37_q $end
$var wire 1 u! RAM|mem~74_combout $end
$var wire 1 v! RAM|mem~75_combout $end
$var wire 1 w! RAM|mem~150_combout $end
$var wire 1 x! RAM|mem~57_q $end
$var wire 1 y! RAM|mem~61_q $end
$var wire 1 z! RAM|mem~151_combout $end
$var wire 1 {! RAM|mem~49_q $end
$var wire 1 |! RAM|mem~53feeder_combout $end
$var wire 1 }! RAM|mem~53_q $end
$var wire 1 ~! RAM|mem~81_combout $end
$var wire 1 !" RAM|mem~82_combout $end
$var wire 1 "" RAM|mem~21feeder_combout $end
$var wire 1 #" RAM|mem~21_q $end
$var wire 1 $" RAM|mem~29_q $end
$var wire 1 %" RAM|mem~147_combout $end
$var wire 1 &" RAM|mem~17_q $end
$var wire 1 '" RAM|mem~146_combout $end
$var wire 1 (" RAM|mem~25_q $end
$var wire 1 )" RAM|mem~76_combout $end
$var wire 1 *" RAM|mem~77_combout $end
$var wire 1 +" RAM|mem~5feeder_combout $end
$var wire 1 ," RAM|mem~5_q $end
$var wire 1 -" RAM|mem~13_q $end
$var wire 1 ." RAM|mem~149_combout $end
$var wire 1 /" RAM|mem~1_q $end
$var wire 1 0" RAM|mem~148_combout $end
$var wire 1 1" RAM|mem~9_q $end
$var wire 1 2" RAM|mem~78_combout $end
$var wire 1 3" RAM|mem~79_combout $end
$var wire 1 4" RAM|mem~80_combout $end
$var wire 1 5" RAM|mem~83_combout $end
$var wire 1 6" q~1_combout $end
$var wire 1 7" RAM|mem~46feeder_combout $end
$var wire 1 8" RAM|mem~46_q $end
$var wire 1 9" RAM|mem~30feeder_combout $end
$var wire 1 :" RAM|mem~30_q $end
$var wire 1 ;" RAM|mem~14_q $end
$var wire 1 <" RAM|mem~91_combout $end
$var wire 1 =" RAM|mem~62_q $end
$var wire 1 >" RAM|mem~92_combout $end
$var wire 1 ?" RAM|mem~159_combout $end
$var wire 1 @" RAM|mem~50_q $end
$var wire 1 A" RAM|mem~156_combout $end
$var wire 1 B" RAM|mem~18_q $end
$var wire 1 C" RAM|mem~158_combout $end
$var wire 1 D" RAM|mem~2_q $end
$var wire 1 E" RAM|mem~157_combout $end
$var wire 1 F" RAM|mem~34_q $end
$var wire 1 G" RAM|mem~88_combout $end
$var wire 1 H" RAM|mem~89_combout $end
$var wire 1 I" RAM|mem~152_combout $end
$var wire 1 J" RAM|mem~42_q $end
$var wire 1 K" RAM|mem~155_combout $end
$var wire 1 L" RAM|mem~58_q $end
$var wire 1 M" RAM|mem~153_combout $end
$var wire 1 N" RAM|mem~26_q $end
$var wire 1 O" RAM|mem~154_combout $end
$var wire 1 P" RAM|mem~10_q $end
$var wire 1 Q" RAM|mem~86_combout $end
$var wire 1 R" RAM|mem~87_combout $end
$var wire 1 S" RAM|mem~90_combout $end
$var wire 1 T" RAM|mem~54_q $end
$var wire 1 U" RAM|mem~22_q $end
$var wire 1 V" RAM|mem~38feeder_combout $end
$var wire 1 W" RAM|mem~38_q $end
$var wire 1 X" RAM|mem~6_q $end
$var wire 1 Y" RAM|mem~84_combout $end
$var wire 1 Z" RAM|mem~85_combout $end
$var wire 1 [" RAM|mem~93_combout $end
$var wire 1 \" q~2_combout $end
$var wire 1 ]" RAM|mem~55feeder_combout $end
$var wire 1 ^" RAM|mem~55_q $end
$var wire 1 _" RAM|mem~63_q $end
$var wire 1 `" RAM|mem~167_combout $end
$var wire 1 a" RAM|mem~51_q $end
$var wire 1 b" RAM|mem~166_combout $end
$var wire 1 c" RAM|mem~59_q $end
$var wire 1 d" RAM|mem~101_combout $end
$var wire 1 e" RAM|mem~102_combout $end
$var wire 1 f" RAM|mem~23_q $end
$var wire 1 g" RAM|mem~161_combout $end
$var wire 1 h" RAM|mem~19_q $end
$var wire 1 i" RAM|mem~94_combout $end
$var wire 1 j" RAM|mem~31_q $end
$var wire 1 k" RAM|mem~160_combout $end
$var wire 1 l" RAM|mem~27_q $end
$var wire 1 m" RAM|mem~95_combout $end
$var wire 1 n" RAM|mem~164_combout $end
$var wire 1 o" RAM|mem~11_q $end
$var wire 1 p" RAM|mem~15_q $end
$var wire 1 q" RAM|mem~165_combout $end
$var wire 1 r" RAM|mem~3_q $end
$var wire 1 s" RAM|mem~7_q $end
$var wire 1 t" RAM|mem~98_combout $end
$var wire 1 u" RAM|mem~99_combout $end
$var wire 1 v" RAM|mem~39feeder_combout $end
$var wire 1 w" RAM|mem~39_q $end
$var wire 1 x" RAM|mem~47_q $end
$var wire 1 y" RAM|mem~162_combout $end
$var wire 1 z" RAM|mem~43_q $end
$var wire 1 {" RAM|mem~163_combout $end
$var wire 1 |" RAM|mem~35_q $end
$var wire 1 }" RAM|mem~96_combout $end
$var wire 1 ~" RAM|mem~97_combout $end
$var wire 1 !# RAM|mem~100_combout $end
$var wire 1 "# RAM|mem~103_combout $end
$var wire 1 ## q~3_combout $end
$var wire 1 $# RAM|q [3] $end
$var wire 1 %# RAM|q [2] $end
$var wire 1 &# RAM|q [1] $end
$var wire 1 '# RAM|q [0] $end
$var wire 1 (# adr|cnt [3] $end
$var wire 1 )# adr|cnt [2] $end
$var wire 1 *# adr|cnt [1] $end
$var wire 1 +# adr|cnt [0] $end
$var wire 1 ,# cnt_d|cnt [31] $end
$var wire 1 -# cnt_d|cnt [30] $end
$var wire 1 .# cnt_d|cnt [29] $end
$var wire 1 /# cnt_d|cnt [28] $end
$var wire 1 0# cnt_d|cnt [27] $end
$var wire 1 1# cnt_d|cnt [26] $end
$var wire 1 2# cnt_d|cnt [25] $end
$var wire 1 3# cnt_d|cnt [24] $end
$var wire 1 4# cnt_d|cnt [23] $end
$var wire 1 5# cnt_d|cnt [22] $end
$var wire 1 6# cnt_d|cnt [21] $end
$var wire 1 7# cnt_d|cnt [20] $end
$var wire 1 8# cnt_d|cnt [19] $end
$var wire 1 9# cnt_d|cnt [18] $end
$var wire 1 :# cnt_d|cnt [17] $end
$var wire 1 ;# cnt_d|cnt [16] $end
$var wire 1 <# cnt_d|cnt [15] $end
$var wire 1 =# cnt_d|cnt [14] $end
$var wire 1 ># cnt_d|cnt [13] $end
$var wire 1 ?# cnt_d|cnt [12] $end
$var wire 1 @# cnt_d|cnt [11] $end
$var wire 1 A# cnt_d|cnt [10] $end
$var wire 1 B# cnt_d|cnt [9] $end
$var wire 1 C# cnt_d|cnt [8] $end
$var wire 1 D# cnt_d|cnt [7] $end
$var wire 1 E# cnt_d|cnt [6] $end
$var wire 1 F# cnt_d|cnt [5] $end
$var wire 1 G# cnt_d|cnt [4] $end
$var wire 1 H# cnt_d|cnt [3] $end
$var wire 1 I# cnt_d|cnt [2] $end
$var wire 1 J# cnt_d|cnt [1] $end
$var wire 1 K# cnt_d|cnt [0] $end
$upscope $end
$upscope $end
$enddefinitions $end
#0
$dumpvars
1!
0"
0#
0'
0&
0%
0$
0(
1)
x*
1+
1,
1-
0.
0/
00
01
12
03
04
15
06
07
18
09
0:
0;
0<
1=
0>
0?
0@
1A
0B
0C
0D
1E
0F
0G
0H
1I
0J
0K
0L
1M
0N
0O
0P
1Q
0R
0S
0T
1U
0V
0W
0X
1Y
0Z
0[
0\
1]
0^
0_
0`
1a
0b
0c
0d
1e
1f
1g
1h
0i
0j
0k
1l
0m
0n
0o
1p
1q
0r
0s
0t
1u
0v
0w
0x
1y
0z
1{
1|
1}
0~
0!!
0"!
0#!
0$!
0%!
0&!
0'!
0(!
0)!
0*!
0+!
0,!
0-!
0.!
0/!
00!
01!
02!
03!
04!
05!
06!
07!
08!
09!
0:!
0;!
0<!
0=!
0>!
0?!
0@!
0A!
0B!
0C!
0D!
0E!
0F!
0G!
1H!
0I!
0J!
0K!
1L!
0M!
0N!
0O!
1P!
0Q!
0R!
0S!
1T!
1U!
1V!
0W!
1X!
1Y!
1Z!
1[!
0\!
0]!
0^!
1_!
0`!
0a!
0b!
1c!
0d!
0e!
0f!
1g!
0h!
0i!
0j!
1k!
1l!
1m!
0n!
1o!
0p!
0q!
1r!
0s!
0t!
1u!
1v!
1w!
0x!
0y!
1z!
0{!
0|!
0}!
1~!
1!"
0""
0#"
0$"
1%"
0&"
1'"
0("
1)"
1*"
0+"
0,"
0-"
1."
0/"
10"
01"
12"
13"
14"
15"
06"
07"
08"
09"
0:"
0;"
0<"
0="
0>"
1?"
0@"
1A"
0B"
1C"
0D"
1E"
0F"
1G"
1H"
1I"
0J"
1K"
0L"
1M"
0N"
1O"
0P"
1Q"
1R"
1S"
0T"
0U"
0V"
0W"
0X"
0Y"
0Z"
1["
0\"
0]"
0^"
0_"
1`"
0a"
1b"
0c"
1d"
1e"
0f"
1g"
0h"
1i"
0j"
1k"
0l"
1m"
1n"
0o"
0p"
1q"
0r"
0s"
1t"
1u"
0v"
0w"
0x"
1y"
0z"
1{"
0|"
1}"
1~"
1!#
1"#
0##
0'#
0&#
0%#
0$#
0+#
0*#
0)#
0(#
0K#
0J#
0I#
0H#
0G#
0F#
0E#
0D#
0C#
0B#
0A#
0@#
0?#
0>#
0=#
0<#
0;#
0:#
09#
08#
07#
06#
05#
04#
03#
02#
01#
00#
0/#
0.#
0-#
0,#
$end
#5000
1#
13
14
1$#
1r"
1%#
1D"
1&#
1/"
1'#
1W!
1K#
0t"
0G"
02"
0X!
16
1##
1\"
16"
1n!
05
1.
1/
10
11
0u"
0H"
03"
0Y!
1$
1%
1&
1'
17
0!#
0S"
04"
0Z!
0"#
0["
05"
0m!
#10000
0#
03
04
#15000
1#
13
14
0$#
0%#
0&#
0'#
1J#
0K#
08
06
0##
0\"
06"
0n!
07
15
0.
0/
00
01
19
18
0$
0%
0&
0'
17
09
1:
0:
#20000
0#
03
04
#25000
1#
13
14
1K#
1z
16
05
1~
08
07
1!!
19
1"!
#30000
0#
03
04
#35000
1#
13
14
1+#
0J#
0K#
0~"
0}"
0i"
0e"
0d"
0*"
0)"
0~!
0u!
0U!
1C!
1&!
0z
18
06
0g!
0c!
0_!
0[!
0T!
0P!
0L!
0H!
1?!
18!
1/!
1#!
0"!
17
15
0m"
0!"
0v!
0V!
1D!
1'!
0~
09
07
0'!
0!!
0#!
1"!
#40000
0#
03
04
#45000
1#
13
14
1E!
1K#
1F!
16
05
1G!
17
1Z!
1m!
#50000
0#
03
04
#55000
1#
13
14
1'#
1J#
0K#
08
06
1n!
07
15
1.
19
18
1'
17
09
1:
0:
#60000
0#
03
04
#65000
1#
13
14
1K#
1z
16
05
1~
08
07
1'!
1!!
19
1#!
0"!
#70000
0#
03
04
#75000
1#
13
14
1*#
0+#
0J#
0K#
1}"
1u"
1m"
1d"
1S"
12"
1)"
1!"
1v!
1h!
0Z!
0C!
0&!
0z
18
06
00"
0."
1+"
0'"
0%"
1""
1|!
0z!
0w!
0r!
0o!
0m!
1g!
1c!
1_!
1[!
1T!
1P!
1L!
1H!
0?!
08!
0/!
1"!
17
15
1~"
1!#
1e"
13"
1*"
1i!
0D!
0'!
0~
09
1["
1m!
07
14"
0!!
1"#
15"
0"!
#80000
0#
03
04
#85000
1#
13
14
1$#
1o"
1%#
1P"
1&#
1j!
1K#
0u"
0Q"
0k!
16
1##
1\"
16"
05
1/
10
11
0!#
0R"
0l!
1$
1%
1&
17
0S"
0"#
0m!
0["
#90000
0#
03
04
#95000
1#
13
14
0$#
0%#
0'#
1J#
0K#
08
06
0##
0\"
0n!
07
15
0.
00
01
19
18
0$
0%
0'
17
09
1:
0:
#100000
0#
03
04
#105000
1#
13
14
1K#
1z
16
05
1~
08
07
1!!
19
1"!
#110000
0#
03
04
#115000
1#
13
14
1+#
0J#
0K#
0~"
1t"
1i"
0e"
1S"
03"
0*"
1~!
1u!
0h!
1Z!
13!
1&!
0z
18
06
0g!
0c!
0_!
0[!
0T!
0P!
0L!
0H!
1?!
18!
1/!
1$!
0#!
0"!
17
15
0m"
04"
0!"
0v!
0i!
14!
1'!
0~
09
07
0'!
0!!
05"
0$!
1#!
1"!
#120000
0#
03
04
#125000
1#
13
14
0&#
1-"
15!
1K#
13"
16!
16
06"
05
0/
14"
17!
0&
17
15"
1m!
#130000
0#
03
04
#135000
1#
13
14
1&#
1'#
1J#
0K#
08
06
16"
1n!
07
15
1.
1/
19
18
1&
1'
17
09
1:
0:
#140000
0#
03
04
#145000
1#
13
14
1K#
1z
16
05
1~
08
07
1'!
1!!
19
1$!
0#!
0"!
#150000
0#
03
04
#155000
1#
13
14
1)#
0*#
0+#
0J#
0K#
1Q"
1H"
04"
1l!
1X!
1Q!
0F!
07!
06!
03!
1u"
0t"
1m"
0S"
02"
1!"
1v!
0Z!
1~"
1e"
1*"
0&!
0z
18
06
1V"
0O"
0M"
0K"
0I"
0E"
0C"
0A"
0?"
19"
17"
10"
1."
0+"
1'"
1%"
0""
0|!
1z!
1w!
1r!
1o!
1["
1g!
1c!
1_!
1[!
1T!
1P!
1L!
1H!
0?!
08!
0/!
1"!
17
15
1R"
1S"
1Y!
1R!
0G!
04!
0u"
03"
14"
0'!
0~
09
05"
0m!
1"#
0["
07
1Z!
0!!
1["
15"
1m!
0"!
#160000
0#
03
04
#165000
1#
13
14
1$#
1h"
1%#
1&"
1S!
1K#
0i"
0)"
0X!
16
1##
1\"
05
10
11
0m"
0*"
0Y!
1$
1%
17
04"
0Z!
0"#
05"
0m!
#170000
0#
03
04
#175000
1#
13
14
0$#
0&#
0'#
1J#
0K#
08
06
0##
06"
0n!
07
15
0.
0/
01
19
18
0$
0&
0'
17
09
1:
0:
#180000
0#
03
04
#185000
1#
13
14
1K#
1z
16
05
1~
08
07
1!!
19
1"!
#190000
0#
03
04
#195000
1#
13
14
1+#
0J#
0K#
0~"
0}"
0e"
0d"
0S"
0~!
0u!
0Q!
1@!
1&!
0z
18
06
0["
0g!
0c!
0_!
0[!
0T!
0P!
0L!
0H!
1?!
18!
1/!
1#!
0"!
17
15
0!"
0v!
0R!
1A!
1'!
0~
09
07
0'!
0!!
0#!
1"!
#200000
0#
03
04
#205000
1#
13
14
0%#
1U"
1B!
1K#
1Z"
1F!
16
0\"
05
00
1G!
0%
1["
17
1Z!
1m!
#210000
0#
03
04
#215000
1#
13
14
1%#
1'#
1J#
0K#
08
06
1\"
1n!
07
15
1.
10
19
18
1%
1'
17
09
1:
0:
#220000
0#
03
04
#225000
1#
13
14
1K#
1z
16
05
1~
08
07
1'!
1!!
19
1#!
0"!
#230000
0#
03
04
#235000
1#
13
14
1*#
0+#
0J#
0K#
1}"
1m"
1d"
1S"
12"
1)"
1!"
1v!
1`!
0Z!
0@!
0&!
0z
18
06
00"
0."
1+"
0'"
0%"
1""
1|!
0z!
0w!
0r!
0o!
0m!
1(!
0["
1g!
1c!
1_!
1[!
1T!
1P!
1L!
1H!
0?!
08!
0/!
1"!
17
15
1~"
1e"
13"
1*"
1a!
0A!
0'!
0~
09
1"#
1["
1m!
07
14"
0!!
0(!
15"
0"!
#240000
0#
03
04
#245000
1#
13
14
1$#
1l"
1&#
1b!
1K#
0m"
0l!
16
1##
16"
05
1/
11
1$
1&
0"#
0m!
17
#250000
0#
03
04
#255000
1#
13
14
0$#
0'#
1J#
0K#
08
06
0##
0n!
07
15
0.
01
19
18
0$
0'
17
09
1:
0:
#260000
0#
03
04
#265000
1#
13
14
1K#
1z
16
05
1~
08
07
1!!
19
1"!
#270000
0#
03
04
#275000
1#
13
14
1+#
0J#
0K#
0~"
1t"
1i"
0e"
0*"
1~!
1u!
0`!
1Z!
1)!
1&!
0z
18
06
0["
0g!
0c!
0_!
0[!
0T!
0P!
0L!
0H!
1?!
18!
1/!
0$!
0#!
0"!
17
15
04"
0!"
0v!
0a!
1*!
1'!
0~
09
07
0'!
0!!
05"
1(!
0(!
1$!
1#!
1"!
#280000
0#
03
04
#285000
1#
13
14
0%#
1:"
0&#
1$"
1+!
1K#
1<"
1*"
17!
16
0\"
06"
05
0/
00
1>"
14"
0%
0&
1m!
17
1["
15"
#290000
0#
03
04
#295000
1#
13
14
1%#
1&#
1'#
1J#
0K#
08
06
1\"
16"
1n!
07
15
1.
1/
10
19
18
1%
1&
1'
17
09
1:
0:
#300000
0#
03
04
#305000
1#
13
14
1K#
1z
16
05
1~
08
07
1'!
1!!
19
1(!
0$!
0#!
0"!
#310000
0#
03
04
#315000
1#
13
14
1(#
0)#
0*#
0+#
0J#
0K#
0Q"
1G"
0>"
0<"
04"
1k!
1Y!
1I!
0G!
0F!
0)!
0Z"
0H"
07!
1u"
0t"
1m"
0i"
02"
0)"
1!"
1v!
0Z!
1~"
1e"
0&!
0z
18
06
0{"
0y"
1v"
0q"
0n"
0k"
0g"
0b"
0`"
1]"
05"
0V"
1O"
1M"
1K"
1I"
1E"
1C"
1A"
1?"
09"
07"
10"
1."
0+"
1'"
1%"
0""
0|!
1z!
1w!
1r!
1o!
1g!
1c!
1_!
1[!
1T!
1P!
1L!
1H!
0?!
08!
0/!
1"!
17
15
1H"
1l!
1Z!
1J!
0*!
0S"
1!#
0u"
0m"
03"
0*"
0'!
0~
09
15"
0m!
07
1S"
0!!
1m!
0["
1"#
1["
0"!
#320000
0#
03
04
#325000
1#
13
14
1$#
1F"
1s!
1K!
1K#
0G"
0u!
0Y!
16
1##
05
11
0H"
0v!
0Z!
1$
17
0S"
05"
0m!
0["
#330000
0#
03
04
#335000
1#
13
14
0%#
0&#
0'#
1J#
0K#
08
06
0\"
06"
0n!
07
15
0.
0/
00
19
18
0%
0&
0'
17
09
1:
0:
#340000
0#
03
04
#345000
1#
13
14
1K#
1z
16
05
1~
08
07
1!!
19
1"!
#350000
0#
03
04
#355000
1#
13
14
1+#
0J#
0K#
0~"
0}"
0e"
0d"
0~!
0I!
19!
1&!
0z
18
06
0g!
0c!
0_!
0[!
0T!
0P!
0L!
0H!
1?!
18!
1/!
1#!
0"!
17
15
0!#
0!"
0J!
1:!
1'!
0~
09
07
0'!
0!!
0"#
0#!
1"!
#360000
0#
03
04
#365000
1#
13
14
0$#
1w"
1;!
1K#
1~"
1G!
16
0##
05
01
1!#
1Z!
0$
17
1"#
1m!
#370000
0#
03
04
#375000
1#
13
14
1$#
1'#
1J#
0K#
08
06
1##
1n!
07
15
1.
11
19
18
1$
1'
17
09
1:
0:
#380000
0!
0#
02
03
04
1\"
16"
1/
10
1%
1&
0+#
0(#
0~"
1}"
1d"
1~!
0Z!
1U!
09!
0&!
0!#
0R"
0k!
0G!
1F!
16!
1g!
1c!
1_!
1[!
1T!
1P!
1L!
1H!
0?!
08!
0/!
0"!
1{"
1y"
0v"
1q"
1n"
1k"
1g"
1b"
1`"
0]"
0(!
1~"
1e"
1!"
1V!
0:!
0l!
1G!
17!
0m!
0"#
#385000
1#
13
14
0$#
0'#
1K#
1z
16
05
1~
08
07
1!!
19
1"!
#390000
0#
03
04
#395000
1#
13
14
0J#
0K#
0z
18
06
17
15
0~
09
07
0!!
0"!
#400000
1!
0#
12
03
04
0##
0\"
06"
0n!
0.
0/
00
01
0$
0%
0&
0'
#405000
1#
13
14
1K#
16
05
17
#410000
0#
03
04
#415000
1#
13
14
1J#
0K#
08
06
07
15
19
18
17
09
1:
0:
#420000
0#
03
04
#425000
1#
13
14
1K#
1z
16
05
1~
08
07
1!!
19
1"!
#430000
0#
03
04
#435000
1#
13
14
1+#
0J#
0K#
0~"
0}"
0e"
0d"
0~!
1Z!
0U!
1C!
1&!
0z
18
06
0g!
0c!
0_!
0[!
0T!
0P!
0L!
0H!
1?!
18!
1/!
1#!
0"!
17
15
1~"
0!"
0V!
1D!
1'!
0~
09
1m!
07
0'!
0!!
0#!
1"!
#440000
0#
03
04
#445000
1#
13
14
1'#
1K#
16
1n!
05
1.
1'
17
#450000
0#
03
04
#455000
1#
13
14
1J#
0K#
08
06
07
15
19
18
17
09
1:
0:
#460000
0#
03
04
#465000
1#
13
14
1K#
1z
16
05
1~
08
07
1'!
1!!
19
1#!
0"!
#470000
0#
03
04
#475000
1#
13
14
1*#
0+#
0J#
0K#
1}"
1d"
12"
1)"
1!"
1v!
1h!
0Z!
0C!
0~"
0&!
0z
18
06
00"
0."
1+"
0'"
0%"
1""
1|!
0z!
0w!
0r!
0o!
1g!
1c!
1_!
1[!
1T!
1P!
1L!
1H!
0?!
08!
0/!
1"!
17
15
1~"
1e"
13"
1*"
1i!
0D!
0'!
0~
09
0m!
07
14"
0!!
15"
0"!
#480000
0#
03
04
#485000
1#
13
14
1&#
0'#
1K#
16
16"
0n!
05
0.
1/
1&
0'
17
#490000
0#
03
04
#495000
1#
13
14
1J#
0K#
08
06
07
15
19
18
17
09
1:
0:
#500000
0#
03
04
#505000
1#
13
14
1K#
1z
16
05
1~
08
07
1!!
19
1"!
#510000
0#
03
04
#515000
1#
13
14
1+#
0J#
0K#
0~"
1t"
1i"
0e"
1S"
1~!
1u!
0h!
1Z!
13!
1&!
0z
18
06
0g!
0c!
0_!
0[!
0T!
0P!
0L!
0H!
1?!
18!
1/!
1$!
0#!
0"!
17
15
0!"
0v!
0i!
14!
1'!
0~
09
1m!
07
0'!
0!!
0$!
1#!
1"!
#520000
0#
03
04
#525000
1#
13
14
1'#
1K#
16
1n!
05
1.
1'
17
#530000
0#
03
04
#535000
1#
13
14
1J#
0K#
08
06
07
15
19
18
17
09
1:
0:
#540000
0#
03
04
#545000
1#
13
14
1K#
1z
16
05
1~
08
07
1'!
1!!
19
1$!
0#!
0"!
#550000
0#
03
04
