lab1/lab1_1/simulation/qsim/lab1_1.msim.vcd
$comment
	File created using the following command:
		vcd file lab1_1.msim.vcd -direction
$end
$date
	Wed Oct 13 16:40:04 2021
$end
$version
	ModelSim Version 2020.1
$end
$timescale
	1ps
$end

$scope module lab1_1_vlg_vec_tst $end
$var reg 1 ! sw0 $end
$var reg 1 " sw1 $end
$var reg 1 # sw2 $end
$var wire 1 $ led0 $end
$var wire 1 % led1 $end
$var wire 1 & led2 $end
$var wire 1 ' led3 $end
$var wire 1 ( led4 $end
$var wire 1 ) led5 $end
$var wire 1 * led6 $end
$var wire 1 + led7 $end
$var wire 1 , led8 $end
$var wire 1 - led9 $end

$scope module i1 $end
$var wire 1 . gnd $end
$var wire 1 / vcc $end
$var wire 1 0 unknown $end
$var tri1 1 1 devclrn $end
$var tri1 1 2 devpor $end
$var tri1 1 3 devoe $end
$var wire 1 4 led0~output_o $end
$var wire 1 5 led1~output_o $end
$var wire 1 6 led2~output_o $end
$var wire 1 7 led3~output_o $end
$var wire 1 8 led4~output_o $end
$var wire 1 9 led5~output_o $end
$var wire 1 : led6~output_o $end
$var wire 1 ; led7~output_o $end
$var wire 1 < led8~output_o $end
$var wire 1 = led9~output_o $end
$var wire 1 > sw2~input_o $end
$var wire 1 ? sw0~input_o $end
$var wire 1 @ sw1~input_o $end
$var wire 1 A led1~0_combout $end
$var wire 1 B temp~combout $end
$upscope $end
$upscope $end
$enddefinitions $end
#0
$dumpvars
0!
0"
0#
1$
0%
1&
1'
0(
0)
0*
0+
0,
0-
0.
1/
x0
11
12
13
14
05
16
17
08
09
0:
0;
0<
0=
0>
0?
0@
0A
0B
$end
#100000
1#
1>
#200000
1"
0#
1@
0>
1B
06
0&
#300000
1#
1>
1A
15
1%
#400000
1!
0"
0#
1?
0@
0>
0A
05
0%
#500000
1#
1>
1A
15
1%
#600000
1"
0#
1@
0>
0A
05
0%
#700000
1#
1>
1A
15
1%
#800000
0!
0"
0#
0?
0@
0>
0B
0A
05
16
1&
0%
#900000
1#
1>
