lab4/lab4_3/simulation/qsim/lab4_3.msim.vcd
$comment
	File created using the following command:
		vcd file lab4_3.msim.vcd -direction
$end
$date
	Fri Oct 15 11:33:32 2021
$end
$version
	ModelSim Version 2020.1
$end
$timescale
	1ps
$end

$scope module lab4_3_vlg_vec_tst $end
$var reg 1 ! aclr $end
$var reg 1 " clk $end
$var wire 1 # led30 [3] $end
$var wire 1 $ led30 [2] $end
$var wire 1 % led30 [1] $end
$var wire 1 & led30 [0] $end
$var wire 1 ' led74 [3] $end
$var wire 1 ( led74 [2] $end
$var wire 1 ) led74 [1] $end
$var wire 1 * led74 [0] $end

$scope module i1 $end
$var wire 1 + gnd $end
$var wire 1 , vcc $end
$var wire 1 - unknown $end
$var tri1 1 . devclrn $end
$var tri1 1 / devpor $end
$var tri1 1 0 devoe $end
$var wire 1 1 led30[0]~output_o $end
$var wire 1 2 led30[1]~output_o $end
$var wire 1 3 led30[2]~output_o $end
$var wire 1 4 led30[3]~output_o $end
$var wire 1 5 led74[0]~output_o $end
$var wire 1 6 led74[1]~output_o $end
$var wire 1 7 led74[2]~output_o $end
$var wire 1 8 led74[3]~output_o $end
$var wire 1 9 clk~input_o $end
$var wire 1 : clk~inputclkctrl_outclk $end
$var wire 1 ; led30[0]~2_combout $end
$var wire 1 < aclr~input_o $end
$var wire 1 = aclr~inputclkctrl_outclk $end
$var wire 1 > tmp[0]~3_combout $end
$var wire 1 ? tmp[2]~1_combout $end
$var wire 1 @ tmp[3]~0_combout $end
$var wire 1 A tmp~2_combout $end
$var wire 1 B Equal0~0_combout $end
$var wire 1 C ena~feeder_combout $end
$var wire 1 D ena~q $end
$var wire 1 E led30[0]~reg0_q $end
$var wire 1 F led30~1_combout $end
$var wire 1 G led30[2]~reg0_q $end
$var wire 1 H Selector0~0_combout $end
$var wire 1 I led30[3]~reg0_q $end
$var wire 1 J led30~0_combout $end
$var wire 1 K led30[1]~reg0_q $end
$var wire 1 L led74[0]~3_combout $end
$var wire 1 M cout~0_combout $end
$var wire 1 N cout~1_combout $end
$var wire 1 O cout~q $end
$var wire 1 P always2~0_combout $end
$var wire 1 Q led74[0]~reg0_q $end
$var wire 1 R led74[2]~1_combout $end
$var wire 1 S led74[2]~reg0_q $end
$var wire 1 T led74~2_combout $end
$var wire 1 U led74[3]~reg0_q $end
$var wire 1 V led74~0_combout $end
$var wire 1 W led74[1]~reg0_q $end
$var wire 1 X tmp [3] $end
$var wire 1 Y tmp [2] $end
$var wire 1 Z tmp [1] $end
$var wire 1 [ tmp [0] $end
$upscope $end
$upscope $end
$enddefinitions $end
#0
$dumpvars
1!
0"
0&
0%
0$
0#
0*
0)
0(
0'
0+
1,
x-
1.
1/
10
01
02
03
04
05
06
07
08
09
0:
1;
1<
1=
1>
0?
0@
0A
0B
0C
0D
0E
0F
0G
0H
0I
0J
0K
1L
0M
0N
0O
0P
0Q
0R
0S
0T
0U
0V
0W
0[
0Z
0Y
0X
$end
#10000
1"
19
1:
1[
1B
0>
1C
#20000
0"
09
0:
#30000
1"
19
1:
1D
0[
0B
1>
0C
#40000
0"
09
0:
#50000
1"
19
1:
0D
1[
1E
11
1B
1&
0>
1J
0;
1C
#60000
0"
09
0:
#70000
1"
19
1:
1D
0[
0B
1>
0C
#80000
0"
09
0:
#90000
1"
19
1:
0D
1[
1K
0E
01
12
1B
1%
0&
0>
1;
1C
#100000
0"
09
0:
#110000
1"
19
1:
1D
0[
0B
1>
0C
#120000
0"
09
0:
#130000
1"
19
1:
0D
1[
1E
11
1B
1&
0>
0J
1F
0;
1C
#140000
0"
09
0:
#150000
1"
19
1:
1D
0[
0B
1>
0C
#160000
0"
09
0:
#170000
1"
19
1:
0D
1[
0K
1G
0E
01
13
02
1B
0%
1$
0&
0>
1;
1C
#180000
0"
09
0:
#190000
1"
19
1:
1D
0[
0B
1>
0C
#200000
0"
09
0:
#210000
1"
19
1:
0D
1[
1E
11
1B
1&
0>
1J
0;
1C
#220000
0"
09
0:
#230000
1"
19
1:
1D
0[
0B
1>
0C
#240000
0"
09
0:
#250000
1"
19
1:
0D
1[
1K
0E
01
12
1B
1%
0&
0>
1;
1C
#260000
0"
09
0:
#270000
1"
19
1:
1D
0[
0B
1>
0C
#280000
0"
09
0:
#290000
1"
19
1:
0D
1[
1E
11
1B
1&
0>
0J
1H
0F
0;
1C
#300000
0"
09
0:
#310000
1"
19
1:
1D
0[
0B
1>
0C
#320000
0"
09
0:
#330000
1"
19
1:
0D
1[
0K
1I
0G
0E
01
03
14
02
1B
1M
0%
1#
0$
0&
0>
1;
1C
#340000
0"
09
0:
#350000
1"
19
1:
1D
0[
0B
1N
1>
0C
#360000
0"
09
0:
#370000
1"
19
1:
1O
0D
1[
1E
11
1B
0M
1&
0>
0H
0;
1C
#380000
0"
09
0:
#390000
1"
19
1:
1D
0[
1P
0B
0N
1>
0C
#400000
0"
09
0:
#410000
1"
19
1:
0O
0D
1[
1Q
0I
0E
01
04
15
0P
1B
1*
0#
0&
0>
1V
0L
1;
1C
#420000
0"
09
0:
#430000
1"
19
1:
1D
0[
0B
1>
0C
#440000
0"
09
0:
#450000
1"
19
1:
0D
1[
1E
11
1B
1&
0>
1J
0;
1C
#460000
0"
09
0:
#470000
1"
19
1:
1D
0[
0B
1>
0C
#480000
0"
09
0:
#490000
1"
19
1:
0D
1[
1K
0E
01
12
1B
1%
0&
0>
1;
1C
#500000
0"
09
0:
#510000
1"
19
1:
1D
0[
0B
1>
0C
#520000
0"
09
0:
#530000
1"
19
1:
0D
1[
1E
11
1B
1&
0>
0J
1F
0;
1C
#540000
0"
09
0:
#550000
1"
19
1:
1D
0[
0B
1>
0C
#560000
0"
09
0:
#570000
1"
19
1:
0D
1[
0K
1G
0E
01
13
02
1B
0%
1$
0&
0>
1;
1C
#580000
0"
09
0:
#590000
1"
19
1:
1D
0[
0B
1>
0C
#600000
0"
09
0:
#610000
1"
19
1:
0D
1[
1E
11
1B
1&
0>
1J
0;
1C
#620000
0"
09
0:
#630000
1"
19
1:
1D
0[
0B
1>
0C
#640000
0"
09
0:
#650000
1"
19
1:
0D
1[
1K
0E
01
12
1B
1%
0&
0>
1;
1C
#660000
0"
09
0:
#670000
1"
19
1:
1D
0[
0B
1>
0C
#680000
0"
09
0:
#690000
1"
19
1:
0D
1[
1E
11
1B
1&
0>
0J
1H
0F
0;
1C
#700000
0"
09
0:
#710000
1"
19
1:
1D
0[
0B
1>
0C
#720000
0"
09
0:
#730000
1"
19
1:
0D
1[
0K
1I
0G
0E
01
03
14
02
1B
1M
0%
1#
0$
0&
0>
1;
1C
#740000
0"
09
0:
#750000
1"
19
1:
1D
0[
0B
1N
1>
0C
#760000
0"
09
0:
#770000
1"
19
1:
1O
0D
1[
1E
11
1B
0M
1&
0>
0H
0;
1C
#780000
0"
09
0:
#790000
1"
19
1:
1D
0[
1P
0B
0N
1>
0C
#800000
0"
09
0:
#810000
1"
19
1:
0O
0D
1[
1W
0Q
0I
0E
01
04
05
16
0P
1B
1)
0*
0#
0&
0>
1L
1;
1C
#820000
0"
09
0:
#830000
1"
19
1:
1D
0[
0B
1>
0C
#840000
0"
09
0:
#850000
1"
19
1:
0D
1[
1E
11
1B
1&
0>
1J
0;
1C
#860000
0"
09
0:
#870000
1"
19
1:
1D
0[
0B
1>
0C
#880000
0"
09
0:
#890000
1"
19
1:
0D
1[
1K
0E
01
12
1B
1%
0&
0>
1;
1C
#900000
0"
09
0:
#910000
1"
19
1:
1D
0[
0B
1>
0C
#920000
0"
09
0:
#930000
1"
19
1:
0D
1[
1E
11
1B
1&
0>
0J
1F
0;
1C
#940000
0"
09
0:
#950000
1"
19
1:
1D
0[
0B
1>
0C
#960000
0"
09
0:
#970000
1"
19
1:
0D
1[
0K
1G
0E
01
13
02
1B
0%
1$
0&
0>
1;
1C
#980000
0"
09
0:
#990000
1"
19
1:
1D
0[
0B
1>
0C
#1000000
0"
09
0:
#1010000
1"
19
1:
0D
1[
1E
11
1B
1&
0>
1J
0;
1C
#1020000
0"
09
0:
#1030000
1"
19
1:
1D
0[
0B
1>
0C
#1040000
0"
09
0:
#1050000
1"
19
1:
0D
1[
1K
0E
01
12
1B
1%
0&
0>
1;
1C
#1060000
0"
09
0:
#1070000
1"
19
1:
1D
0[
0B
1>
0C
#1080000
0"
09
0:
#1090000
1"
19
1:
0D
1[
1E
11
1B
1&
0>
0J
1H
0F
0;
1C
#1100000
0"
09
0:
#1110000
1"
19
1:
1D
0[
0B
1>
0C
#1120000
0"
09
0:
#1130000
1"
19
1:
0D
1[
0K
1I
0G
0E
01
03
14
02
1B
1M
0%
1#
0$
0&
0>
1;
1C
#1140000
0"
09
0:
#1150000
1"
19
1:
1D
0[
0B
1N
1>
0C
#1160000
0"
09
0:
#1170000
1"
19
1:
1O
0D
1[
1E
11
1B
0M
1&
0>
0H
0;
1C
#1180000
0"
09
0:
#1190000
1"
19
1:
1D
0[
1P
0B
0N
1>
0C
#1200000
0"
09
0:
#1210000
1"
19
1:
0O
0D
1[
1Q
0I
0E
01
04
15
0P
1B
1*
0#
0&
0>
0V
1R
0L
1;
0R
1C
#1220000
0"
09
0:
#1230000
1"
19
1:
1D
0[
0B
1>
0C
#1240000
0"
09
0:
#1250000
1"
19
1:
0D
1[
1E
11
1B
1&
0>
1J
0;
1C
#1260000
0"
09
0:
#1270000
1"
19
1:
1D
0[
0B
1>
0C
#1280000
0"
09
0:
#1290000
1"
19
1:
0D
1[
1K
0E
01
12
1B
1%
0&
0>
1;
1C
#1300000
0"
09
0:
#1310000
1"
19
1:
1D
0[
0B
1>
0C
#1320000
0"
09
0:
#1330000
1"
19
1:
0D
1[
1E
11
1B
1&
0>
0J
1F
0;
1C
#1340000
0"
09
0:
#1350000
1"
19
1:
1D
0[
0B
1>
0C
#1360000
0"
09
0:
#1370000
1"
19
1:
0D
1[
0K
1G
0E
01
13
02
1B
0%
1$
0&
0>
1;
1C
#1380000
0"
09
0:
#1390000
1"
19
1:
1D
0[
0B
1>
0C
#1400000
0"
09
0:
#1410000
1"
19
1:
0D
1[
1E
11
1B
1&
0>
1J
0;
1C
#1420000
0"
09
0:
#1430000
1"
19
1:
1D
0[
0B
1>
0C
#1440000
0"
09
0:
#1450000
1"
19
1:
0D
1[
1K
0E
01
12
1B
1%
0&
0>
1;
1C
#1460000
0"
09
0:
#1470000
1"
19
1:
1D
0[
0B
1>
0C
#1480000
0"
09
0:
#1490000
1"
19
1:
0D
1[
1E
11
1B
1&
0>
0J
1H
0F
0;
1C
#1500000
0"
09
0:
#1510000
1"
19
1:
1D
0[
0B
1>
0C
#1520000
0"
09
0:
#1530000
1"
19
1:
0D
1[
0K
1I
0G
0E
01
03
14
02
1B
1M
0%
1#
0$
0&
0>
1;
1C
#1540000
0"
09
0:
#1550000
1"
19
1:
1D
0[
0B
1N
1>
0C
#1560000
0"
09
0:
#1570000
1"
19
1:
1O
0D
1[
1E
11
1B
0M
1&
0>
0H
0;
1C
#1580000
0"
09
0:
#1590000
1"
19
1:
1D
0[
1P
0B
0N
1>
1R
0C
#1600000
0"
09
0:
#1610000
1"
19
1:
0O
0D
1[
0W
1S
0Q
0I
0E
01
04
05
17
06
0P
1B
0)
1(
0*
0#
0&
0>
1L
1;
1C
#1620000
0"
09
0:
#1630000
1"
19
1:
1D
0[
0B
1>
0C
#1640000
0"
09
0:
#1650000
1"
19
1:
0D
1[
1E
11
1B
1&
0>
1J
0;
1C
#1660000
0"
09
0:
#1670000
1"
19
1:
1D
0[
0B
1>
0C
#1680000
0"
09
0:
#1690000
1"
19
1:
0D
1[
1K
0E
01
12
1B
1%
0&
0>
1;
1C
#1700000
0"
09
0:
#1710000
1"
19
1:
1D
0[
0B
1>
0C
#1720000
0"
09
0:
#1730000
1"
19
1:
0D
1[
1E
11
1B
1&
0>
0J
1F
0;
1C
#1740000
0"
09
0:
#1750000
1"
19
1:
1D
0[
0B
1>
0C
#1760000
0"
09
0:
#1770000
1"
19
1:
0D
1[
0K
1G
0E
01
13
02
1B
0%
1$
0&
0>
1;
1C
#1780000
0"
09
0:
#1790000
1"
19
1:
1D
0[
0B
1>
0C
#1800000
0"
09
0:
#1810000
1"
19
1:
0D
1[
1E
11
1B
1&
0>
1J
0;
1C
#1820000
0"
09
0:
#1830000
1"
19
1:
1D
0[
0B
1>
0C
#1840000
0"
09
0:
#1850000
1"
19
1:
0D
1[
1K
0E
01
12
1B
1%
0&
0>
1;
1C
#1860000
0"
09
0:
#1870000
1"
19
1:
1D
0[
0B
1>
0C
#1880000
0"
09
0:
#1890000
1"
19
1:
0D
1[
1E
11
1B
1&
0>
0J
1H
0F
0;
1C
#1900000
0"
09
0:
#1910000
1"
19
1:
1D
0[
0B
1>
0C
#1920000
0"
09
0:
#1930000
1"
19
1:
0D
1[
0K
1I
0G
0E
01
03
14
02
1B
1M
0%
1#
0$
0&
0>
1;
1C
#1940000
0"
09
0:
#1950000
1"
19
1:
1D
0[
0B
1N
1>
0C
#1960000
0"
09
0:
#1970000
1"
19
1:
1O
0D
1[
1E
11
1B
0M
1&
0>
0H
0;
1C
#1980000
0"
09
0:
#1990000
1"
19
1:
1D
0[
1P
0B
0N
1>
0C
#2000000
0"
09
0:
#2010000
1"
19
1:
0O
0D
1[
1Q
0I
0E
01
04
15
0P
1B
1*
0#
0&
0>
1V
0L
1;
1C
#2020000
0"
09
0:
#2030000
1"
19
1:
1D
0[
0B
1>
0C
#2040000
0"
09
0:
#2050000
1"
19
1:
0D
1[
1E
11
1B
1&
0>
1J
0;
1C
#2060000
0"
09
0:
#2070000
1"
19
1:
1D
0[
0B
1>
0C
#2080000
0"
09
0:
#2090000
1"
19
1:
0D
1[
1K
0E
01
12
1B
1%
0&
0>
1;
1C
#2100000
0"
09
0:
#2110000
1"
19
1:
1D
0[
0B
1>
0C
#2120000
0"
09
0:
#2130000
1"
19
1:
0D
1[
1E
11
1B
1&
0>
0J
1F
0;
1C
#2140000
0"
09
0:
#2150000
1"
19
1:
1D
0[
0B
1>
0C
#2160000
0"
09
0:
#2170000
1"
19
1:
0D
1[
0K
1G
0E
01
13
02
1B
0%
1$
0&
0>
1;
1C
#2180000
0"
09
0:
#2190000
1"
19
1:
1D
0[
0B
1>
0C
#2200000
0"
09
0:
#2210000
1"
19
1:
0D
1[
1E
11
1B
1&
0>
1J
0;
1C
#2220000
0"
09
0:
#2230000
1"
19
1:
1D
0[
0B
1>
0C
#2240000
0"
09
0:
#2250000
1"
19
1:
0D
1[
1K
0E
01
12
1B
1%
0&
0>
1;
1C
#2260000
0"
09
0:
#2270000
1"
19
1:
1D
0[
0B
1>
0C
#2280000
0"
09
0:
#2290000
1"
19
1:
0D
1[
1E
11
1B
1&
0>
0J
1H
0F
0;
1C
#2300000
0"
09
0:
#2310000
1"
19
1:
1D
0[
0B
1>
0C
#2320000
0"
09
0:
#2330000
1"
19
1:
0D
1[
0K
1I
0G
0E
01
03
14
02
1B
1M
0%
1#
0$
0&
0>
1;
1C
#2340000
0"
09
0:
#2350000
1"
19
1:
1D
0[
0B
1N
1>
0C
#2360000
0"
09
0:
#2370000
1"
19
1:
1O
0D
1[
1E
11
1B
0M
1&
0>
0H
0;
1C
#2380000
0"
09
0:
#2390000
1"
19
1:
1D
0[
1P
0B
0N
1>
0C
#2400000
0"
09
0:
#2410000
1"
19
1:
0O
0D
1[
1W
0Q
0I
0E
01
04
05
16
0P
1B
1)
0*
0#
0&
0>
1L
1;
1C
#2420000
0"
09
0:
#2430000
1"
19
1:
1D
0[
0B
1>
0C
#2440000
0"
09
0:
#2450000
1"
19
1:
0D
1[
1E
11
1B
1&
0>
1J
0;
1C
#2460000
0"
09
0:
#2470000
1"
19
1:
1D
0[
0B
1>
0C
#2480000
0"
09
0:
#2490000
1"
19
1:
0D
1[
1K
0E
01
12
1B
1%
0&
0>
1;
1C
#2500000
0"
09
0:
#2510000
1"
19
1:
1D
0[
0B
1>
0C
#2520000
0"
09
0:
#2530000
1"
19
1:
0D
1[
1E
11
1B
1&
0>
0J
1F
0;
1C
#2540000
0"
09
0:
#2550000
1"
19
1:
1D
0[
0B
1>
0C
#2560000
0"
09
0:
#2570000
1"
19
1:
0D
1[
0K
1G
0E
01
13
02
1B
0%
1$
0&
0>
1;
1C
#2580000
0"
09
0:
#2590000
1"
19
1:
1D
0[
0B
1>
0C
#2600000
0"
09
0:
#2610000
1"
19
1:
0D
1[
1E
11
1B
1&
0>
1J
0;
1C
#2620000
0"
09
0:
#2630000
1"
19
1:
1D
0[
0B
1>
0C
#2640000
0"
09
0:
#2650000
1"
19
1:
0D
1[
1K
0E
01
12
1B
1%
0&
0>
1;
1C
#2660000
0"
09
0:
#2670000
1"
19
1:
1D
0[
0B
1>
0C
#2680000
0"
09
0:
#2690000
1"
19
1:
0D
1[
1E
11
1B
1&
0>
0J
1H
0F
0;
1C
#2700000
0"
09
0:
#2710000
1"
19
1:
1D
0[
0B
1>
0C
#2720000
0"
09
0:
#2730000
1"
19
1:
0D
1[
0K
1I
0G
0E
01
03
14
02
1B
1M
0%
1#
0$
0&
0>
1;
1C
#2740000
0"
09
0:
#2750000
1"
19
1:
1D
0[
0B
1N
1>
0C
#2760000
0"
09
0:
#2770000
1"
19
1:
1O
0D
1[
1E
11
1B
0M
1&
0>
0H
0;
1C
#2780000
0"
09
0:
#2790000
1"
19
1:
1D
0[
1P
0B
0N
1>
0C
#2800000
0"
09
0:
#2810000
1"
19
1:
0O
0D
1[
1Q
0I
0E
01
04
15
0P
1B
1*
0#
0&
0>
0V
1T
0R
0L
1;
1R
1C
#2820000
0"
09
0:
#2830000
1"
19
1:
1D
0[
0B
1>
0C
#2840000
0"
09
0:
#2850000
1"
19
1:
0D
1[
1E
11
1B
1&
0>
1J
0;
1C
#2860000
0"
09
0:
#2870000
1"
19
1:
1D
0[
0B
1>
0C
#2880000
0"
09
0:
#2890000
1"
19
1:
0D
1[
1K
0E
01
12
1B
1%
0&
0>
1;
1C
#2900000
0"
09
0:
#2910000
1"
19
1:
1D
0[
0B
1>
0C
#2920000
0"
09
0:
#2930000
1"
19
1:
0D
1[
1E
11
1B
1&
0>
0J
1F
0;
1C
#2940000
0"
09
0:
#2950000
1"
19
1:
1D
0[
0B
1>
0C
#2960000
0"
09
0:
#2970000
1"
19
1:
0D
1[
0K
1G
0E
01
13
02
1B
0%
1$
0&
0>
1;
1C
#2980000
0"
09
0:
#2990000
1"
19
1:
1D
0[
0B
1>
0C
#3000000
0"
09
0:
#3010000
1"
19
1:
0D
1[
1E
11
1B
1&
0>
1J
0;
1C
#3020000
0"
09
0:
#3030000
1"
19
1:
1D
0[
0B
1>
0C
#3040000
0"
09
0:
#3050000
1"
19
1:
0D
1[
1K
0E
01
12
1B
1%
0&
0>
1;
1C
#3060000
0"
09
0:
#3070000
1"
19
1:
1D
0[
0B
1>
0C
#3080000
0"
09
0:
#3090000
1"
19
1:
0D
1[
1E
11
1B
1&
0>
0J
1H
0F
0;
1C
#3100000
0"
09
0:
#3110000
1"
19
1:
1D
0[
0B
1>
0C
#3120000
0"
09
0:
#3130000
1"
19
1:
0D
1[
0K
1I
0G
0E
01
03
14
02
1B
1M
0%
1#
0$
0&
0>
1;
1C
#3140000
0"
09
0:
#3150000
1"
19
1:
1D
0[
0B
1N
1>
0C
#3160000
0"
09
0:
#3170000
1"
19
1:
1O
0D
1[
1E
11
1B
0M
1&
0>
0H
0;
1C
#3180000
0"
09
0:
#3190000
1"
19
1:
1D
0[
1P
0B
0N
1>
0R
0C
#3200000
0"
09
0:
#3210000
1"
19
1:
0O
0D
1[
0W
1U
0S
0Q
0I
0E
01
04
05
07
18
06
0P
1B
0)
1'
0(
0*
0#
0&
0>
1L
1;
1C
#3220000
0"
09
0:
#3230000
1"
19
1:
1D
0[
0B
1>
0C
#3240000
0"
09
0:
#3250000
1"
19
1:
0D
1[
1E
11
1B
1&
0>
1J
0;
1C
#3260000
0"
09
0:
#3270000
1"
19
1:
1D
0[
0B
1>
0C
#3280000
0"
09
0:
#3290000
1"
19
1:
0D
1[
1K
0E
01
12
1B
1%
0&
0>
1;
1C
#3300000
0"
09
0:
#3310000
1"
19
1:
1D
0[
0B
1>
0C
#3320000
0"
09
0:
#3330000
1"
19
1:
0D
1[
1E
11
1B
1&
0>
0J
1F
0;
1C
#3340000
0"
09
0:
#3350000
1"
19
1:
1D
0[
0B
1>
0C
#3360000
0"
09
0:
#3370000
1"
19
1:
0D
1[
0K
1G
0E
01
13
02
1B
0%
1$
0&
0>
1;
1C
#3380000
0"
09
0:
#3390000
1"
19
1:
1D
0[
0B
1>
0C
#3400000
0"
09
0:
#3410000
1"
19
1:
0D
1[
1E
11
1B
1&
0>
1J
0;
1C
#3420000
0"
09
0:
#3430000
1"
19
1:
1D
0[
0B
1>
0C
#3440000
0"
09
0:
#3450000
1"
19
1:
0D
1[
1K
0E
01
12
1B
1%
0&
0>
1;
1C
#3460000
0"
09
0:
#3470000
1"
19
1:
1D
0[
0B
1>
0C
#3480000
0"
09
0:
#3490000
1"
19
1:
0D
1[
1E
11
1B
1&
0>
0J
1H
0F
0;
1C
#3500000
0"
09
0:
#3510000
1"
19
1:
1D
0[
0B
1>
0C
#3520000
0"
09
0:
#3530000
1"
19
1:
0D
1[
0K
1I
0G
0E
01
03
14
02
1B
1M
0%
1#
0$
0&
0>
1;
1C
#3540000
0"
09
0:
#3550000
1"
19
1:
1D
0[
0B
1N
1>
0C
#3560000
0"
09
0:
#3570000
1"
19
1:
1O
0D
1[
1E
11
1B
0M
1&
0>
0H
0;
1C
#3580000
0"
09
0:
#3590000
1"
19
1:
1D
0[
1P
0B
0N
1>
0C
#3600000
0"
09
0:
#3610000
1"
19
1:
0O
0D
1[
1Q
0I
0E
01
04
15
0P
1B
1*
0#
0&
0>
0T
0L
1;
1C
#3620000
0"
09
0:
#3630000
1"
19
1:
1D
0[
0B
1>
0C
#3640000
0"
09
0:
#3650000
1"
19
1:
0D
1[
1E
11
1B
1&
0>
1J
0;
1C
#3660000
0"
09
0:
#3670000
1"
19
1:
1D
0[
0B
1>
0C
#3680000
0"
09
0:
#3690000
1"
19
1:
0D
1[
1K
0E
01
12
1B
1%
0&
0>
1;
1C
#3700000
0"
09
0:
#3710000
1"
19
1:
1D
0[
0B
1>
0C
#3720000
0"
09
0:
#3730000
1"
19
1:
0D
1[
1E
11
1B
1&
0>
0J
1F
0;
1C
#3740000
0"
09
0:
#3750000
1"
19
1:
1D
0[
0B
1>
0C
#3760000
0"
09
0:
#3770000
1"
19
1:
0D
1[
0K
1G
0E
01
13
02
1B
0%
1$
0&
0>
1;
1C
#3780000
0"
09
0:
#3790000
1"
19
1:
1D
0[
0B
1>
0C
#3800000
0"
09
0:
#3810000
1"
19
1:
0D
1[
1E
11
1B
1&
0>
1J
0;
1C
#3820000
0"
09
0:
#3830000
1"
19
1:
1D
0[
0B
1>
0C
#3840000
0"
09
0:
#3850000
1"
19
1:
0D
1[
1K
0E
01
12
1B
1%
0&
0>
1;
1C
#3860000
0"
09
0:
#3870000
1"
19
1:
1D
0[
0B
1>
0C
#3880000
0"
09
0:
#3890000
1"
19
1:
0D
1[
1E
11
1B
1&
0>
0J
1H
0F
0;
1C
#3900000
0"
09
0:
#3910000
1"
19
1:
1D
0[
0B
1>
0C
#3920000
0"
09
0:
#3930000
1"
19
1:
0D
1[
0K
1I
0G
0E
01
03
14
02
1B
1M
0%
1#
0$
0&
0>
1;
1C
#3940000
0"
09
0:
#3950000
1"
19
1:
1D
0[
0B
1N
1>
0C
#3960000
0"
09
0:
#3970000
1"
19
1:
1O
0D
1[
1E
11
1B
0M
1&
0>
0H
0;
1C
#3980000
0"
09
0:
#3990000
1"
19
1:
1D
0[
1P
0B
0N
1>
0C
#4000000
0"
09
0:
#4010000
1"
19
1:
0O
0D
1[
0U
0Q
0I
0E
01
04
05
08
0P
1B
0'
0*
0#
0&
0>
1L
1;
1C
#4020000
0"
09
0:
#4030000
1"
19
1:
1D
0[
0B
1>
0C
#4040000
0"
09
0:
#4050000
1"
19
1:
0D
1[
1E
11
1B
1&
0>
1J
0;
1C
#4060000
0"
09
0:
#4070000
1"
19
1:
1D
0[
0B
1>
0C
#4080000
0"
09
0:
#4090000
1"
19
1:
0D
1[
1K
0E
01
12
1B
1%
0&
0>
1;
1C
#4100000
0"
09
0:
#4110000
1"
19
1:
1D
0[
0B
1>
0C
#4120000
0"
09
0:
#4130000
1"
19
1:
0D
1[
1E
11
1B
1&
0>
0J
1F
0;
1C
#4140000
0"
09
0:
#4150000
1"
19
1:
1D
0[
0B
1>
0C
#4160000
0"
09
0:
#4170000
1"
19
1:
0D
1[
0K
1G
0E
01
13
02
1B
0%
1$
0&
0>
1;
1C
#4180000
0"
09
0:
#4190000
1"
19
1:
1D
0[
0B
1>
0C
#4200000
0"
09
0:
#4210000
1"
19
1:
0D
1[
1E
11
1B
1&
0>
1J
0;
1C
#4220000
0"
09
0:
#4230000
1"
19
1:
1D
0[
0B
1>
0C
#4240000
0"
09
0:
#4250000
1"
19
1:
0D
1[
1K
0E
01
12
1B
1%
0&
0>
1;
1C
#4260000
0"
09
0:
#4270000
1"
19
1:
1D
0[
0B
1>
0C
#4280000
0"
09
0:
#4290000
1"
19
1:
0D
1[
1E
11
1B
1&
0>
0J
1H
0F
0;
1C
#4300000
0"
09
0:
#4310000
1"
19
1:
1D
0[
0B
1>
0C
#4320000
0!
0"
0<
09
0=
0:
0D
0E
0G
0K
02
03
01
0&
0$
0%
0H
1;
#4330000
1"
19
1:
#4340000
0"
09
0:
#4350000
1"
19
1:
#4360000
0"
09
0:
#4370000
1"
19
1:
#4380000
0"
09
0:
#4390000
1"
19
1:
#4400000
0"
09
0:
#4410000
1"
19
1:
#4420000
0"
09
0:
#4430000
1"
19
1:
#4440000
0"
09
0:
#4450000
1"
19
1:
#4460000
0"
09
0:
#4470000
1"
19
1:
#4480000
0"
09
0:
#4490000
1"
19
1:
#4500000
0"
09
0:
#4510000
1"
19
1:
#4520000
0"
09
0:
#4530000
1"
19
1:
#4540000
0"
09
0:
#4550000
1"
19
1:
#4560000
0"
09
0:
#4570000
1"
19
1:
#4580000
0"
09
0:
#4590000
1"
19
1:
#4600000
0"
09
0:
#4610000
1"
19
1:
#4620000
0"
09
0:
#4630000
1"
19
1:
#4640000
0"
09
0:
#4650000
1"
19
1:
#4660000
0"
09
0:
#4670000
1"
19
1:
#4680000
0"
09
0:
#4690000
1"
19
1:
#4700000
0"
09
0:
#4710000
1"
19
1:
#4720000
0"
09
0:
#4730000
1"
19
1:
#4740000
0"
09
0:
#4750000
1"
19
1:
#4760000
0"
09
0:
#4770000
1"
19
1:
#4780000
0"
09
0:
#4790000
1"
19
1:
#4800000
0"
09
0:
#4810000
1"
19
1:
#4820000
0"
09
0:
#4830000
1"
19
1:
#4840000
0"
09
0:
#4850000
1"
19
1:
#4860000
0"
09
0:
#4870000
1"
19
1:
#4880000
0"
09
0:
#4890000
1"
19
1:
#4900000
0"
09
0:
#4910000
1"
19
1:
#4920000
0"
09
0:
#4930000
1"
19
1:
#4940000
0"
09
0:
#4950000
1"
19
1:
#4960000
1!
0"
1<
09
1=
0:
#4970000
1"
19
1:
1[
1B
0>
1C
#4980000
0"
09
0:
#4990000
1"
19
1:
1D
0[
0B
1>
0C
#5000000
0"
09
0:
#5010000
1"
19
1:
0D
1[
1E
11
1B
1&
0>
1J
0;
1C
#5020000
0"
09
0:
#5030000
1"
19
1:
1D
0[
0B
1>
0C
#5040000
0"
09
0:
#5050000
1"
19
1:
0D
1[
1K
0E
01
12
1B
1%
0&
0>
1;
1C
#5060000
0"
09
0:
#5070000
1"
19
1:
1D
0[
0B
1>
0C
#5080000
0"
09
0:
#5090000
1"
19
1:
0D
1[
1E
11
1B
1&
0>
0J
1F
0;
1C
#5100000
0"
09
0:
#5110000
1"
19
1:
1D
0[
0B
1>
0C
#5120000
0"
09
0:
#5130000
1"
19
1:
0D
1[
0K
1G
0E
01
13
02
1B
0%
1$
0&
0>
1;
1C
#5140000
0"
09
0:
#5150000
1"
19
1:
1D
0[
0B
1>
0C
#5160000
0"
09
0:
#5170000
1"
19
1:
0D
1[
1E
11
1B
1&
0>
1J
0;
1C
#5180000
0"
09
0:
#5190000
1"
19
1:
1D
0[
0B
1>
0C
#5200000
0"
09
0:
#5210000
1"
19
1:
0D
1[
1K
0E
01
12
1B
1%
0&
0>
1;
1C
#5220000
0"
09
0:
#5230000
1"
19
1:
1D
0[
0B
1>
0C
#5240000
0"
09
0:
#5250000
1"
19
1:
0D
1[
1E
11
1B
1&
0>
0J
1H
0F
0;
1C
#5260000
0"
09
0:
#5270000
1"
19
1:
1D
0[
0B
1>
0C
#5280000
0"
09
0:
#5290000
1"
19
1:
0D
1[
0K
1I
0G
0E
01
03
14
02
1B
1M
0%
1#
0$
0&
0>
1;
1C
#5300000
0"
09
0:
#5310000
1"
19
1:
1D
0[
0B
1N
1>
0C
#5320000
0"
09
0:
#5330000
1"
19
1:
1O
0D
1[
1E
11
1B
0M
1&
0>
0H
0;
1C
#5340000
0"
09
0:
#5350000
1"
19
1:
1D
0[
1P
0B
0N
1>
0C
#5360000
0"
09
0:
#5370000
1"
19
1:
0O
0D
1[
1Q
0I
0E
01
04
15
0P
1B
1*
0#
0&
0>
1V
0L
1;
1C
#5380000
0"
09
0:
#5390000
1"
19
1:
1D
0[
0B
1>
0C
#5400000
0"
09
0:
#5410000
1"
19
1:
0D
1[
1E
11
1B
1&
0>
1J
0;
1C
#5420000
0"
09
0:
#5430000
1"
19
1:
1D
0[
0B
1>
0C
#5440000
0"
09
0:
#5450000
1"
19
1:
0D
1[
1K
0E
01
12
1B
1%
0&
0>
1;
1C
#5460000
0"
09
0:
