lab4/lab4_2/simulation/qsim/lab4_2.msim.vcd
$comment
	File created using the following command:
		vcd file lab4_2.msim.vcd -direction
$end
$date
	Fri Oct 15 11:26:15 2021
$end
$version
	ModelSim Version 2020.1
$end
$timescale
	1ps
$end

$scope module lab4_2_vlg_vec_tst $end
$var reg 1 ! clk $end
$var reg 1 " key $end
$var reg 8 # sw70 [7:0] $end
$var wire 1 $ led70 [7] $end
$var wire 1 % led70 [6] $end
$var wire 1 & led70 [5] $end
$var wire 1 ' led70 [4] $end
$var wire 1 ( led70 [3] $end
$var wire 1 ) led70 [2] $end
$var wire 1 * led70 [1] $end
$var wire 1 + led70 [0] $end

$scope module i1 $end
$var wire 1 , gnd $end
$var wire 1 - vcc $end
$var wire 1 . unknown $end
$var tri1 1 / devclrn $end
$var tri1 1 0 devpor $end
$var tri1 1 1 devoe $end
$var wire 1 2 led70[0]~output_o $end
$var wire 1 3 led70[1]~output_o $end
$var wire 1 4 led70[2]~output_o $end
$var wire 1 5 led70[3]~output_o $end
$var wire 1 6 led70[4]~output_o $end
$var wire 1 7 led70[5]~output_o $end
$var wire 1 8 led70[6]~output_o $end
$var wire 1 9 led70[7]~output_o $end
$var wire 1 : clk~input_o $end
$var wire 1 ; clk~inputclkctrl_outclk $end
$var wire 1 < key~input_o $end
$var wire 1 = sw70[0]~input_o $end
$var wire 1 > led70~0_combout $end
$var wire 1 ? temp[0]~3_combout $end
$var wire 1 @ temp[1]~0_combout $end
$var wire 1 A temp~1_combout $end
$var wire 1 B temp[3]~2_combout $end
$var wire 1 C Equal0~0_combout $end
$var wire 1 D ena~q $end
$var wire 1 E led70[0]~reg0_q $end
$var wire 1 F sw70[1]~input_o $end
$var wire 1 G led70~1_combout $end
$var wire 1 H led70[1]~reg0_q $end
$var wire 1 I sw70[2]~input_o $end
$var wire 1 J led70~2_combout $end
$var wire 1 K led70[2]~reg0_q $end
$var wire 1 L sw70[3]~input_o $end
$var wire 1 M led70~3_combout $end
$var wire 1 N led70[3]~reg0_q $end
$var wire 1 O sw70[4]~input_o $end
$var wire 1 P led70~4_combout $end
$var wire 1 Q led70[4]~reg0_q $end
$var wire 1 R sw70[5]~input_o $end
$var wire 1 S led70~5_combout $end
$var wire 1 T led70[5]~reg0_q $end
$var wire 1 U sw70[6]~input_o $end
$var wire 1 V led70~6_combout $end
$var wire 1 W led70[6]~reg0_q $end
$var wire 1 X sw70[7]~input_o $end
$var wire 1 Y led70~7_combout $end
$var wire 1 Z led70[7]~reg0_q $end
$var wire 1 [ temp [3] $end
$var wire 1 \ temp [2] $end
$var wire 1 ] temp [1] $end
$var wire 1 ^ temp [0] $end
$upscope $end
$upscope $end
$enddefinitions $end
#0
$dumpvars
1!
1"
b10110110 #
0+
0*
0)
0(
0'
0&
0%
0$
0,
1-
x.
1/
10
11
02
03
04
05
06
07
08
09
1:
1;
1<
0=
0>
1?
0@
0A
0B
0C
0D
0E
1F
0G
0H
1I
0J
0K
0L
0M
0N
1O
0P
0Q
1R
0S
0T
0U
0V
0W
1X
0Y
0Z
0^
0]
0\
0[
$end
#10000
0!
0:
0;
#20000
1!
1:
1;
1^
1@
0?
#30000
0!
0:
0;
#40000
1!
1:
1;
1]
0^
1?
#50000
0!
0:
0;
#60000
1!
1:
1;
1^
1C
0@
0?
#70000
0"
0!
0<
0:
0;
1Y
1S
1P
1J
1G
#80000
1!
1:
1;
1D
0]
0^
0C
1?
#90000
0!
0:
0;
#100000
1!
1:
1;
0D
1^
1Z
1T
1Q
1K
1H
13
14
16
17
19
1$
1&
1'
1)
1*
1@
0?
#110000
0!
0:
0;
#120000
1"
1!
1<
1:
1;
0Y
1V
0P
1M
0G
1]
0^
1?
#130000
0!
0:
0;
#140000
1!
1:
1;
1^
1C
0@
0?
#150000
0!
0:
0;
#160000
1!
1:
1;
1D
0]
0^
0C
1?
#170000
0!
0:
0;
#180000
1!
1:
1;
0D
1^
0Z
1W
0Q
1N
0H
03
15
06
18
09
0$
1%
0'
1(
0*
1@
0?
1Y
0S
1P
0J
#190000
0!
0:
0;
#200000
1!
1:
1;
1]
0^
1?
#210000
0!
0:
0;
#220000
1!
1:
1;
1^
1C
0@
0?
#230000
0!
0:
0;
#240000
1!
1:
1;
1D
0]
0^
0C
1?
#250000
0!
0:
0;
#260000
1!
1:
1;
0D
1^
1Z
0T
1Q
0K
04
16
07
19
1$
0&
1'
0)
1@
0?
0V
1S
0M
#270000
0!
0:
0;
#280000
1!
1:
1;
1]
0^
1?
#290000
0!
0:
0;
#300000
1!
1:
1;
1^
1C
0@
0?
#310000
0!
0:
0;
#320000
1!
1:
1;
1D
0]
0^
0C
1?
#330000
0!
0:
0;
#340000
1!
1:
1;
0D
1^
0W
1T
0N
05
17
08
0%
1&
0(
1@
0?
0Y
1V
0P
#350000
0!
0:
0;
#360000
1!
1:
1;
1]
0^
1?
#370000
0!
0:
0;
#380000
1!
1:
1;
1^
1C
0@
0?
#390000
0!
0:
0;
#400000
0"
1!
0<
1:
1;
1Y
0V
1P
1J
1G
1D
0]
0^
0C
1?
#410000
0!
0:
0;
#420000
1!
1:
1;
0D
1^
1K
1H
13
14
1)
1*
1@
0?
#430000
0!
0:
0;
#440000
1!
1:
1;
1]
0^
1?
#450000
0!
0:
0;
#460000
1!
1:
1;
1^
1C
0@
0?
#470000
0!
0:
0;
#480000
1!
1:
1;
1D
0]
0^
0C
1?
#490000
0!
0:
0;
#500000
1"
1!
1<
1:
1;
0Y
1V
0P
1M
0G
0D
1^
1@
0?
#510000
0!
0:
0;
#520000
1!
1:
1;
1]
0^
1?
#530000
0!
0:
0;
#540000
1!
1:
1;
1^
1C
0@
0?
#550000
0!
0:
0;
#560000
1!
1:
1;
1D
0]
0^
0C
1?
#570000
0!
0:
0;
#580000
1!
1:
1;
0D
1^
0Z
1W
0Q
1N
0H
03
15
06
18
09
0$
1%
0'
1(
0*
1@
0?
1Y
0S
1P
0J
#590000
0!
0:
0;
#600000
1!
1:
1;
1]
0^
1?
#610000
0!
0:
0;
#620000
1!
1:
1;
1^
1C
0@
0?
#630000
0!
0:
0;
#640000
1!
1:
1;
1D
0]
0^
0C
1?
#650000
0!
0:
0;
#660000
1!
1:
1;
0D
1^
1Z
0T
1Q
0K
04
16
07
19
1$
0&
1'
0)
1@
0?
0V
1S
0M
#670000
0!
0:
0;
#680000
1!
1:
1;
1]
0^
1?
#690000
0!
0:
0;
#700000
1!
1:
1;
1^
1C
0@
0?
#710000
0!
0:
0;
#720000
1!
1:
1;
1D
0]
0^
0C
1?
#730000
0!
0:
0;
#740000
1!
1:
1;
0D
1^
0W
1T
0N
05
17
08
0%
1&
0(
1@
0?
0Y
1V
0P
#750000
0!
0:
0;
#760000
1!
1:
1;
1]
0^
1?
#770000
0!
0:
0;
#780000
1!
1:
1;
1^
1C
0@
0?
#790000
0!
0:
0;
#800000
1!
1:
1;
1D
0]
0^
0C
1?
#810000
0!
0:
0;
#820000
1!
1:
1;
0D
1^
0Z
1W
0Q
06
18
09
0$
1%
0'
1@
0?
1Y
0S
#830000
0!
0:
0;
#840000
1!
1:
1;
1]
0^
1?
#850000
0!
0:
0;
#860000
1!
1:
1;
1^
1C
0@
0?
#870000
0!
0:
0;
#880000
1!
1:
1;
1D
0]
0^
0C
1?
#890000
0!
0:
0;
#900000
1!
1:
1;
0D
1^
1Z
0T
07
19
1$
0&
1@
0?
0V
#910000
0!
0:
0;
#920000
1!
1:
1;
1]
0^
1?
#930000
0!
0:
0;
#940000
1!
1:
1;
1^
1C
0@
0?
#950000
0!
0:
0;
#960000
1!
1:
1;
1D
0]
0^
0C
1?
#970000
0!
0:
0;
#980000
b110110 #
b10110 #
b110 #
b1110 #
1!
1L
0O
0R
0X
1:
1;
0D
1^
0W
08
0%
1@
0?
0Y
#990000
0!
0:
0;
