lab6/lab6_3/simulation/qsim/lab6_3.msim.vcd
$comment
	File created using the following command:
		vcd file lab6_3.msim.vcd -direction
$end
$date
	Fri Nov 12 09:30:26 2021
$end
$version
	ModelSim Version 2020.1
$end
$timescale
	1ps
$end

$scope module lab6_3_vlg_vec_tst $end
$var reg 2 ! a [1:0] $end
$var reg 2 " b [1:0] $end
$var reg 2 # c [1:0] $end
$var reg 1 $ clk $end
$var reg 2 % d [1:0] $end
$var reg 1 & pba $end
$var wire 1 ' max [1] $end
$var wire 1 ( max [0] $end
$var wire 1 ) max_min [1] $end
$var wire 1 * max_min [0] $end
$var wire 1 + min [1] $end
$var wire 1 , min [0] $end
$var wire 1 - min_max [1] $end
$var wire 1 . min_max [0] $end

$scope module i1 $end
$var wire 1 / gnd $end
$var wire 1 0 vcc $end
$var wire 1 1 unknown $end
$var tri1 1 2 devclrn $end
$var tri1 1 3 devpor $end
$var tri1 1 4 devoe $end
$var wire 1 5 max[0]~output_o $end
$var wire 1 6 max[1]~output_o $end
$var wire 1 7 max_min[0]~output_o $end
$var wire 1 8 max_min[1]~output_o $end
$var wire 1 9 min_max[0]~output_o $end
$var wire 1 : min_max[1]~output_o $end
$var wire 1 ; min[0]~output_o $end
$var wire 1 < min[1]~output_o $end
$var wire 1 = clk~input_o $end
$var wire 1 > clk~inputclkctrl_outclk $end
$var wire 1 ? a[0]~input_o $end
$var wire 1 @ b[0]~input_o $end
$var wire 1 A b[1]~input_o $end
$var wire 1 B a[1]~input_o $end
$var wire 1 C maximum~6_combout $end
$var wire 1 D pba~input_o $end
$var wire 1 E c[1]~input_o $end
$var wire 1 F d[1]~input_o $end
$var wire 1 G maximum~8_combout $end
$var wire 1 H maximum~9_combout $end
$var wire 1 I d[0]~input_o $end
$var wire 1 J c[0]~input_o $end
$var wire 1 K maximum~7_combout $end
$var wire 1 L maximum~2_combout $end
$var wire 1 M max[0]~reg0feeder_combout $end
$var wire 1 N max[0]~reg0_q $end
$var wire 1 O maximum~3_combout $end
$var wire 1 P max[1]~reg0feeder_combout $end
$var wire 1 Q max[1]~reg0_q $end
$var wire 1 R minimum~3_combout $end
$var wire 1 S minimum~9_combout $end
$var wire 1 T minimum~8_combout $end
$var wire 1 U maximum~5_combout $end
$var wire 1 V minimum~7_combout $end
$var wire 1 W minimum~6_combout $end
$var wire 1 X maximum~4_combout $end
$var wire 1 Y minimum~2_combout $end
$var wire 1 Z maximum~0_combout $end
$var wire 1 [ max_min[0]~reg0_q $end
$var wire 1 \ maximum~1_combout $end
$var wire 1 ] max_min[1]~reg0_q $end
$var wire 1 ^ minimum~0_combout $end
$var wire 1 _ min_max[0]~reg0_q $end
$var wire 1 ` minimum~1_combout $end
$var wire 1 a min_max[1]~reg0_q $end
$var wire 1 b minimum~4_combout $end
$var wire 1 c min[0]~reg0feeder_combout $end
$var wire 1 d min[0]~reg0_q $end
$var wire 1 e minimum~5_combout $end
$var wire 1 f min[1]~reg0feeder_combout $end
$var wire 1 g min[1]~reg0_q $end
$var wire 1 h maxRg [1] $end
$var wire 1 i maxRg [0] $end
$var wire 1 j mid1 [1] $end
$var wire 1 k mid1 [0] $end
$var wire 1 l mid2 [1] $end
$var wire 1 m mid2 [0] $end
$var wire 1 n minRg [1] $end
$var wire 1 o minRg [0] $end
$var wire 1 p max1 [1] $end
$var wire 1 q max1 [0] $end
$var wire 1 r max2 [1] $end
$var wire 1 s max2 [0] $end
$var wire 1 t min2 [1] $end
$var wire 1 u min2 [0] $end
$var wire 1 v min1 [1] $end
$var wire 1 w min1 [0] $end
$upscope $end
$upscope $end
$enddefinitions $end
#0
$dumpvars
b1 !
b10 "
b11 #
0$
b0 %
1&
0(
0'
0*
0)
0,
0+
0.
0-
0/
10
x1
12
13
14
05
06
07
08
09
0:
0;
0<
0=
0>
1?
0@
1A
0B
0C
1D
1E
0F
1G
1H
0I
1J
1K
0L
0M
0N
0O
0P
0Q
0R
0S
0T
0U
1V
0W
0X
0Y
0Z
0[
0\
0]
0^
0_
0`
0a
0b
0c
0d
0e
0f
0g
0i
0h
0k
0j
0m
0l
0o
0n
0q
0p
0s
0r
0u
0t
0w
0v
$end
#10000
1$
1=
1>
1w
1s
1p
1r
1X
1L
1R
1O
#20000
0$
0=
0>
#30000
1$
1=
1>
1m
1j
1h
1i
1^
1\
1P
1M
#40000
0$
0=
0>
#50000
1$
1=
1>
1_
1]
1Q
1N
15
16
18
19
1.
1)
1'
1(
#60000
b11 !
b10 !
b11 "
b1 #
b1 %
0$
1I
0E
1@
0?
1B
0=
0>
1W
0G
0V
1C
1T
#70000
1$
1=
1>
1u
0w
1v
0r
1q
1b
0X
1U
1Y
0R
#80000
0$
0=
0>
#90000
1$
1=
1>
1o
1k
0m
1l
0j
1c
#100000
0$
0=
0>
#110000
1$
1=
1>
1d
1;
1,
#120000
b0 #
b11 %
b11 !
b10 "
b10 %
0$
0@
1?
0I
1F
0J
0=
0>
0W
0K
1G
#130000
1$
1=
1>
0u
0s
1r
0b
0Y
1R
#140000
0$
0=
0>
#150000
1$
1=
1>
0o
0k
1j
0c
0^
1`
#160000
0$
0=
0>
#170000
1$
1=
1>
0d
1a
0_
09
1:
0;
0,
1-
0.
#180000
b1 !
b1 #
b0 !
b11 "
b11 %
0$
1I
1@
1J
0?
0B
0=
0>
1W
1K
0T
#190000
1$
1=
1>
1u
0v
1s
1X
0U
1Y
#200000
0$
0=
0>
#210000
1$
1=
1>
1k
1m
0l
1^
1Z
0`
#220000
0$
0=
0>
#230000
1$
1=
1>
0a
1_
1[
17
19
0:
0-
1.
1*
#240000
b1 "
b11 #
b1 %
b1 !
b0 "
b0 %
0$
1?
0I
0F
1E
0@
0A
0=
0>
0W
0H
#250000
1$
1=
1>
0u
0p
0X
0R
#260000
0$
0=
0>
#270000
0&
1$
0D
1=
1>
0q
0r
0s
0i
0h
0j
0m
0k
0N
0Q
0[
0]
0_
09
08
07
06
05
0(
0'
0*
0)
0.
0Y
0L
0O
0M
0P
0^
0\
0Z
#280000
0$
0=
0>
#290000
1&
1$
1D
1=
1>
1s
1r
1q
1Y
1L
1O
#300000
b11 !
b10 !
b1 "
b1 %
0$
1I
1@
0?
1B
0=
0>
1W
1V
0C
1H
#310000
1$
1=
1>
1k
1u
1w
1h
1i
1p
0q
1Z
1b
1X
1P
1M
0Y
1R
#320000
0$
0=
0>
#330000
1$
1=
1>
1o
0k
1m
1j
1[
1Q
1N
15
16
17
1*
1'
1(
1c
1^
0Z
1\
#340000
0$
0=
0>
#350000
1$
1=
1>
1d
1_
1]
0[
07
18
19
1;
1,
1.
1)
0*
#360000
b10 #
b0 #
b11 %
b11 !
b10 %
0$
1?
0I
1F
0J
0E
0=
0>
1C
0W
0K
#370000
1$
1=
1>
0u
0s
1q
0b
#380000
0$
0=
0>
#390000
1$
1=
1>
0o
0c
#400000
0$
0=
0>
#410000
1$
1=
1>
0d
0;
0,
#420000
b11 "
b1 !
b10 #
b0 !
b11 %
0$
1I
1E
0?
0B
1A
0=
0>
1K
1S
0V
#430000
1$
1=
1>
0w
1t
1s
0X
1U
1Y
#440000
0$
0=
0>
#450000
1$
1=
1>
1k
0m
1l
0^
1Z
1`
#460000
0$
0=
0>
#470000
1$
1=
1>
1a
0_
1[
17
09
1:
1-
0.
1*
