lab5/lab5_2/simulation/qsim/lab5_2.msim.vcd
$comment
	File created using the following command:
		vcd file lab5_2.msim.vcd -direction
$end
$date
	Fri Oct 29 11:29:03 2021
$end
$version
	ModelSim Version 2020.1
$end
$timescale
	1ps
$end

$scope module lab5_2_vlg_vec_tst $end
$var reg 1 ! clk $end
$var reg 8 " data [7:0] $end
$var reg 1 # load $end
$var wire 1 $ led [7] $end
$var wire 1 % led [6] $end
$var wire 1 & led [5] $end
$var wire 1 ' led [4] $end
$var wire 1 ( led [3] $end
$var wire 1 ) led [2] $end
$var wire 1 * led [1] $end
$var wire 1 + led [0] $end

$scope module i1 $end
$var wire 1 , gnd $end
$var wire 1 - vcc $end
$var wire 1 . unknown $end
$var tri1 1 / devclrn $end
$var tri1 1 0 devpor $end
$var tri1 1 1 devoe $end
$var wire 1 2 led[0]~output_o $end
$var wire 1 3 led[1]~output_o $end
$var wire 1 4 led[2]~output_o $end
$var wire 1 5 led[3]~output_o $end
$var wire 1 6 led[4]~output_o $end
$var wire 1 7 led[5]~output_o $end
$var wire 1 8 led[6]~output_o $end
$var wire 1 9 led[7]~output_o $end
$var wire 1 : clk~input_o $end
$var wire 1 ; clk~inputclkctrl_outclk $end
$var wire 1 < load~input_o $end
$var wire 1 = data[3]~input_o $end
$var wire 1 > data[2]~input_o $end
$var wire 1 ? data[1]~input_o $end
$var wire 1 @ srg|out~1_combout $end
$var wire 1 A cnt|Equal0~1_combout $end
$var wire 1 B cnt|Equal0~2_combout $end
$var wire 1 C cnt|Add0~0_combout $end
$var wire 1 D cnt|Add0~1 $end
$var wire 1 E cnt|Add0~2_combout $end
$var wire 1 F cnt|Equal0~0_combout $end
$var wire 1 G cnt|Equal0~3_combout $end
$var wire 1 H cnt|Equal0~4_combout $end
$var wire 1 I cnt|Equal0~5_combout $end
$var wire 1 J cnt|Add0~3 $end
$var wire 1 K cnt|Add0~4_combout $end
$var wire 1 L cnt|tmp~0_combout $end
$var wire 1 M cnt|Add0~5 $end
$var wire 1 N cnt|Add0~6_combout $end
$var wire 1 O cnt|Add0~7 $end
$var wire 1 P cnt|Add0~8_combout $end
$var wire 1 Q cnt|Add0~9 $end
$var wire 1 R cnt|Add0~10_combout $end
$var wire 1 S cnt|Add0~11 $end
$var wire 1 T cnt|Add0~12_combout $end
$var wire 1 U cnt|Add0~13 $end
$var wire 1 V cnt|Add0~14_combout $end
$var wire 1 W cnt|Add0~15 $end
$var wire 1 X cnt|Add0~16_combout $end
$var wire 1 Y cnt|Add0~17 $end
$var wire 1 Z cnt|Add0~18_combout $end
$var wire 1 [ cnt|Add0~19 $end
$var wire 1 \ cnt|Add0~20_combout $end
$var wire 1 ] cnt|Add0~21 $end
$var wire 1 ^ cnt|Add0~22_combout $end
$var wire 1 _ cnt|Add0~23 $end
$var wire 1 ` cnt|Add0~24_combout $end
$var wire 1 a cnt|Add0~25 $end
$var wire 1 b cnt|Add0~26_combout $end
$var wire 1 c cnt|Add0~27 $end
$var wire 1 d cnt|Add0~28_combout $end
$var wire 1 e cnt|Add0~29 $end
$var wire 1 f cnt|Add0~30_combout $end
$var wire 1 g cnt|Add0~31 $end
$var wire 1 h cnt|Add0~32_combout $end
$var wire 1 i cnt|Add0~33 $end
$var wire 1 j cnt|Add0~34_combout $end
$var wire 1 k cnt|Add0~35 $end
$var wire 1 l cnt|Add0~36_combout $end
$var wire 1 m cnt|Add0~37 $end
$var wire 1 n cnt|Add0~38_combout $end
$var wire 1 o cnt|Add0~39 $end
$var wire 1 p cnt|Add0~40_combout $end
$var wire 1 q cnt|Add0~41 $end
$var wire 1 r cnt|Add0~42_combout $end
$var wire 1 s cnt|Add0~43 $end
$var wire 1 t cnt|Add0~44_combout $end
$var wire 1 u cnt|Add0~45 $end
$var wire 1 v cnt|Add0~46_combout $end
$var wire 1 w cnt|Equal0~6_combout $end
$var wire 1 x cnt|Equal0~7_combout $end
$var wire 1 y cnt|ena~q $end
$var wire 1 z srg|out~2_combout $end
$var wire 1 { srg|out~3_combout $end
$var wire 1 | data[4]~input_o $end
$var wire 1 } srg|out~4_combout $end
$var wire 1 ~ data[5]~input_o $end
$var wire 1 !! srg|out~5_combout $end
$var wire 1 "! data[6]~input_o $end
$var wire 1 #! srg|out~6_combout $end
$var wire 1 $! data[7]~input_o $end
$var wire 1 %! srg|out~7_combout $end
$var wire 1 &! data[0]~input_o $end
$var wire 1 '! srg|out~0_combout $end
$var wire 1 (! srg|out [7] $end
$var wire 1 )! srg|out [6] $end
$var wire 1 *! srg|out [5] $end
$var wire 1 +! srg|out [4] $end
$var wire 1 ,! srg|out [3] $end
$var wire 1 -! srg|out [2] $end
$var wire 1 .! srg|out [1] $end
$var wire 1 /! srg|out [0] $end
$var wire 1 0! cnt|tmp [23] $end
$var wire 1 1! cnt|tmp [22] $end
$var wire 1 2! cnt|tmp [21] $end
$var wire 1 3! cnt|tmp [20] $end
$var wire 1 4! cnt|tmp [19] $end
$var wire 1 5! cnt|tmp [18] $end
$var wire 1 6! cnt|tmp [17] $end
$var wire 1 7! cnt|tmp [16] $end
$var wire 1 8! cnt|tmp [15] $end
$var wire 1 9! cnt|tmp [14] $end
$var wire 1 :! cnt|tmp [13] $end
$var wire 1 ;! cnt|tmp [12] $end
$var wire 1 <! cnt|tmp [11] $end
$var wire 1 =! cnt|tmp [10] $end
$var wire 1 >! cnt|tmp [9] $end
$var wire 1 ?! cnt|tmp [8] $end
$var wire 1 @! cnt|tmp [7] $end
$var wire 1 A! cnt|tmp [6] $end
$var wire 1 B! cnt|tmp [5] $end
$var wire 1 C! cnt|tmp [4] $end
$var wire 1 D! cnt|tmp [3] $end
$var wire 1 E! cnt|tmp [2] $end
$var wire 1 F! cnt|tmp [1] $end
$var wire 1 G! cnt|tmp [0] $end
$upscope $end
$upscope $end
$enddefinitions $end
#0
$dumpvars
0!
b1101001 "
0#
0+
0*
0)
0(
0'
0&
0%
0$
0,
1-
x.
1/
10
11
02
03
04
05
06
07
08
09
0:
0;
0<
1=
0>
0?
0@
1A
1B
1C
0D
0E
0F
1G
0H
1I
1J
0K
0L
0M
0N
1O
0P
0Q
0R
1S
0T
0U
0V
1W
0X
0Y
0Z
1[
0\
0]
0^
1_
0`
0a
0b
1c
0d
0e
0f
1g
0h
0i
0j
1k
0l
0m
0n
1o
0p
0q
0r
1s
0t
0u
0v
1w
0x
0y
0z
1{
0|
0}
1~
1!!
1"!
1#!
0$!
0%!
1&!
1'!
0/!
0.!
0-!
0,!
0+!
0*!
0)!
0(!
0G!
0F!
0E!
0D!
0C!
0B!
0A!
0@!
0?!
0>!
0=!
0<!
0;!
0:!
09!
08!
07!
06!
05!
04!
03!
02!
01!
00!
$end
#40000
1!
1:
1;
1G!
1D
0C
1E
#80000
0!
0:
0;
#120000
1!
1:
1;
1F!
0G!
0J
0D
0E
1C
1K
1J
1E
0K
1L
0L
#160000
0!
0:
0;
#200000
1!
1:
1;
1G!
1F
1D
0C
1H
0J
0E
1K
1x
#240000
0!
0:
0;
#280000
1!
1:
1;
1y
0F!
0G!
0F
1J
0D
1E
1C
0H
0K
0E
0x
#320000
0!
0:
0;
#360000
1!
1:
1;
0y
1G!
1/!
1)!
1*!
1,!
15
17
18
12
1D
1+
1%
1&
1(
0C
1E
#400000
b101001 "
b1001 "
b1 "
b0 "
0!
0&!
0=
0~
0"!
0:
0;
0'!
0{
0!!
0#!
#440000
1!
1:
1;
1F!
0G!
0J
0D
0E
1C
1K
1J
1E
0K
1L
0L
#480000
1#
0!
1<
0:
0;
1%!
1#!
1}
1@
#520000
1!
1:
1;
1G!
1F
1D
0C
1H
0J
0E
1K
1x
#560000
0!
0:
0;
#600000
1!
1:
1;
1y
0F!
0G!
0F
1J
0D
1E
1C
0H
0K
0E
0x
#640000
0!
0:
0;
#680000
1!
1:
1;
0y
1G!
0/!
1(!
0*!
1+!
0,!
1.!
13
05
16
07
19
02
1D
0+
1$
0&
1'
0(
1*
0C
0@
1'!
0#!
1!!
0}
1z
1E
#720000
0!
0:
0;
#760000
1!
1:
1;
1F!
0G!
0J
0D
0E
1C
1K
1J
1E
0K
1L
0L
#800000
0!
0:
0;
#840000
1!
1:
1;
1G!
1F
1D
0C
1H
0J
0E
1K
1x
#880000
0!
0:
0;
#920000
1!
1:
1;
1y
0F!
0G!
0F
1J
0D
1E
1C
0H
0K
0E
0x
#960000
0!
0:
0;
#1000000
1!
1:
1;
0y
1G!
1/!
0)!
1*!
0+!
1-!
0.!
03
14
06
17
08
12
1D
1+
0%
1&
0'
1)
0*
0C
1@
0%!
1#!
0!!
1{
0z
1E
#1040000
0!
0:
0;
#1080000
1!
1:
1;
1F!
0G!
0J
0D
0E
1C
1K
1J
1E
0K
1L
0L
#1120000
0!
0:
0;
#1160000
1!
1:
1;
1G!
1F
1D
0C
1H
0J
0E
1K
1x
#1200000
0!
0:
0;
#1240000
1!
1:
1;
1y
0F!
0G!
0F
1J
0D
1E
1C
0H
0K
0E
0x
#1280000
0!
0:
0;
#1320000
1!
1:
1;
0y
1G!
0(!
1)!
0*!
1,!
0-!
1.!
13
04
15
07
18
09
1D
0$
1%
0&
1(
0)
1*
0C
0'!
1%!
0#!
1}
0{
1z
1E
#1360000
0!
0:
0;
#1400000
1!
1:
1;
1F!
0G!
0J
0D
0E
1C
1K
1J
1E
0K
1L
0L
#1440000
0!
0:
0;
#1480000
1!
1:
1;
1G!
1F
1D
0C
1H
0J
0E
1K
1x
#1520000
0!
0:
0;
#1560000
1!
1:
1;
1y
0F!
0G!
0F
1J
0D
1E
1C
0H
0K
0E
0x
#1600000
0!
0:
0;
#1640000
1!
1:
1;
0y
1G!
0/!
1(!
0)!
1+!
0,!
1-!
14
05
16
08
19
02
1D
0+
1$
0%
1'
0(
1)
0C
0@
1'!
0%!
1!!
0}
1{
1E
#1680000
0!
0:
0;
#1720000
1!
1:
1;
1F!
0G!
0J
0D
0E
1C
1K
1J
1E
0K
1L
0L
#1760000
0!
0:
0;
#1800000
1!
1:
1;
1G!
1F
1D
0C
1H
0J
0E
1K
1x
#1840000
0!
0:
0;
#1880000
1!
1:
1;
1y
0F!
0G!
0F
1J
0D
1E
1C
0H
0K
0E
0x
#1920000
0!
0:
0;
#1960000
1!
1:
1;
0y
1G!
1/!
0(!
1*!
0+!
1,!
0.!
03
15
06
17
09
12
1D
1+
0$
1&
0'
1(
0*
0C
1@
0'!
1#!
0!!
1}
0z
1E
#2000000
0!
0:
0;
#2040000
1!
1:
1;
1F!
0G!
0J
0D
0E
1C
1K
1J
1E
0K
1L
0L
#2080000
0!
0:
0;
#2120000
1!
1:
1;
1G!
1F
1D
0C
1H
0J
0E
1K
1x
#2160000
0!
0:
0;
#2200000
1!
1:
1;
1y
0F!
0G!
0F
1J
0D
1E
1C
0H
0K
0E
0x
#2240000
0!
0:
0;
#2280000
1!
1:
1;
0y
1G!
0/!
1)!
0*!
1+!
0-!
1.!
13
04
16
07
18
02
1D
0+
1%
0&
1'
0)
1*
0C
0@
1%!
0#!
1!!
0{
1z
1E
#2320000
0!
0:
0;
#2360000
1!
1:
1;
1F!
0G!
0J
0D
0E
1C
1K
1J
1E
0K
1L
0L
#2400000
0!
0:
0;
#2440000
1!
1:
1;
1G!
1F
1D
0C
1H
0J
0E
1K
1x
#2480000
0!
0:
0;
#2520000
1!
1:
1;
1y
0F!
0G!
0F
1J
0D
1E
1C
0H
0K
0E
0x
#2560000
0!
0:
0;
#2600000
1!
1:
1;
0y
1G!
1(!
0)!
1*!
0,!
1-!
0.!
03
14
05
17
08
19
1D
1$
0%
1&
0(
1)
0*
0C
1'!
0%!
1#!
0}
1{
0z
1E
#2640000
0!
0:
0;
#2680000
1!
1:
1;
1F!
0G!
0J
0D
0E
1C
1K
1J
1E
0K
1L
0L
#2720000
0!
0:
0;
#2760000
1!
1:
1;
1G!
1F
1D
0C
1H
0J
0E
1K
1x
#2800000
0!
0:
0;
#2840000
1!
1:
1;
1y
0F!
0G!
0F
1J
0D
1E
1C
0H
0K
0E
0x
#2880000
0!
0:
0;
#2920000
1!
1:
1;
0y
1G!
1/!
0(!
1)!
0+!
1,!
0-!
04
15
06
18
09
12
1D
1+
0$
1%
0'
1(
0)
0C
1@
0'!
1%!
0!!
1}
0{
1E
#2960000
0!
0:
0;
#3000000
1!
1:
1;
1F!
0G!
0J
0D
0E
1C
1K
1J
1E
0K
1L
0L
#3040000
0!
0:
0;
#3080000
1!
1:
1;
1G!
1F
1D
0C
1H
0J
0E
1K
1x
#3120000
0!
0:
0;
#3160000
1!
1:
1;
1y
0F!
0G!
0F
1J
0D
1E
1C
0H
0K
0E
0x
#3200000
0!
0:
0;
#3240000
1!
1:
1;
0y
1G!
0/!
1(!
0*!
1+!
0,!
1.!
13
05
16
07
19
02
1D
0+
1$
0&
1'
0(
1*
0C
0@
1'!
0#!
1!!
0}
1z
1E
#3280000
0!
0:
0;
#3320000
1!
1:
1;
1F!
0G!
0J
0D
0E
1C
1K
1J
1E
0K
1L
0L
#3360000
0!
0:
0;
#3400000
1!
1:
1;
1G!
1F
1D
0C
1H
0J
0E
1K
1x
#3440000
0!
0:
0;
#3480000
1!
1:
1;
1y
0F!
0G!
0F
1J
0D
1E
1C
0H
0K
0E
0x
#3520000
0!
0:
0;
#3560000
1!
1:
1;
0y
1G!
1/!
0)!
1*!
0+!
1-!
0.!
03
14
06
17
08
12
1D
1+
0%
1&
0'
1)
0*
0C
1@
0%!
1#!
0!!
1{
0z
1E
#3600000
0!
0:
0;
#3640000
1!
1:
1;
1F!
0G!
0J
0D
0E
1C
1K
1J
1E
0K
1L
0L
#3680000
0!
0:
0;
#3720000
1!
1:
1;
1G!
1F
1D
0C
1H
0J
0E
1K
1x
#3760000
0!
0:
0;
#3800000
1!
1:
1;
1y
0F!
0G!
0F
1J
0D
1E
1C
0H
0K
0E
0x
#3840000
0!
0:
0;
#3880000
1!
1:
1;
0y
1G!
0(!
1)!
0*!
1,!
0-!
1.!
13
04
15
07
18
09
1D
0$
1%
0&
1(
0)
1*
0C
0'!
1%!
0#!
1}
0{
1z
1E
#3920000
0!
0:
0;
#3960000
1!
1:
1;
1F!
0G!
0J
0D
0E
1C
1K
1J
1E
0K
1L
0L
#4000000
0!
0:
0;
#4040000
1!
1:
1;
1G!
1F
1D
0C
1H
0J
0E
1K
1x
#4080000
0!
0:
0;
#4120000
1!
1:
1;
1y
0F!
0G!
0F
1J
0D
1E
1C
0H
0K
0E
0x
#4160000
0!
0:
0;
#4200000
1!
1:
1;
0y
1G!
0/!
1(!
0)!
1+!
0,!
1-!
14
05
16
08
19
02
1D
0+
1$
0%
1'
0(
1)
0C
0@
1'!
0%!
1!!
0}
1{
1E
#4240000
0!
0:
0;
#4280000
1!
1:
1;
1F!
0G!
0J
0D
0E
1C
1K
1J
1E
0K
1L
0L
#4320000
0!
0:
0;
#4360000
1!
1:
1;
1G!
1F
1D
0C
1H
0J
0E
1K
1x
#4400000
0!
0:
0;
#4440000
1!
1:
1;
1y
0F!
0G!
0F
1J
0D
1E
1C
0H
0K
0E
0x
#4480000
0!
0:
0;
#4520000
1!
1:
1;
0y
1G!
1/!
0(!
1*!
0+!
1,!
0.!
03
15
06
17
09
12
1D
1+
0$
1&
0'
1(
0*
0C
1@
0'!
1#!
0!!
1}
0z
1E
#4560000
0!
0:
0;
#4600000
1!
1:
1;
1F!
0G!
0J
0D
0E
1C
1K
1J
1E
0K
1L
0L
#4640000
0!
0:
0;
#4680000
1!
1:
1;
1G!
1F
1D
0C
1H
0J
0E
1K
1x
#4720000
0!
0:
0;
#4760000
1!
1:
1;
1y
0F!
0G!
0F
1J
0D
1E
1C
0H
0K
0E
0x
#4800000
0!
0:
0;
#4840000
1!
1:
1;
0y
1G!
0/!
1)!
0*!
1+!
0-!
1.!
13
04
16
07
18
02
1D
0+
1%
0&
1'
0)
1*
0C
0@
1%!
0#!
1!!
0{
1z
1E
#4880000
0!
0:
0;
#4920000
1!
1:
1;
1F!
0G!
0J
0D
0E
1C
1K
1J
1E
0K
1L
0L
#4960000
0!
0:
0;
#5000000
1!
1:
1;
1G!
1F
1D
0C
1H
0J
0E
1K
1x
#5040000
0!
0:
0;
#5080000
1!
1:
1;
1y
0F!
0G!
0F
1J
0D
1E
1C
0H
0K
0E
0x
#5120000
0!
0:
0;
#5160000
1!
1:
1;
0y
1G!
1(!
0)!
1*!
0,!
1-!
0.!
03
14
05
17
08
19
1D
1$
0%
1&
0(
1)
0*
0C
1'!
0%!
1#!
0}
1{
0z
1E
#5200000
0!
0:
0;
#5240000
1!
1:
1;
1F!
0G!
0J
0D
0E
1C
1K
1J
1E
0K
1L
0L
#5280000
0!
0:
0;
#5320000
1!
1:
1;
1G!
1F
1D
0C
1H
0J
0E
1K
1x
#5360000
0!
0:
0;
#5400000
1!
1:
1;
1y
0F!
0G!
0F
1J
0D
1E
1C
0H
0K
0E
0x
#5440000
0!
0:
0;
#5480000
1!
1:
1;
0y
1G!
1/!
0(!
1)!
0+!
1,!
0-!
04
15
06
18
09
12
1D
1+
0$
1%
0'
1(
0)
0C
1@
0'!
1%!
0!!
1}
0{
1E
#5520000
0!
0:
0;
#5560000
1!
1:
1;
1F!
0G!
0J
0D
0E
1C
1K
1J
1E
0K
1L
0L
#5600000
0!
0:
0;
#5640000
1!
1:
1;
1G!
1F
1D
0C
1H
0J
0E
1K
1x
#5680000
0!
0:
0;
#5720000
1!
1:
1;
1y
0F!
0G!
0F
1J
0D
1E
1C
0H
0K
0E
0x
#5760000
0!
0:
0;
#5800000
1!
1:
1;
0y
1G!
0/!
1(!
0*!
1+!
0,!
1.!
13
05
16
07
19
02
1D
0+
1$
0&
1'
0(
1*
0C
0@
1'!
0#!
1!!
0}
1z
1E
#5840000
0!
0:
0;
#5880000
1!
1:
1;
1F!
0G!
0J
0D
0E
1C
1K
1J
1E
0K
1L
0L
#5920000
0!
0:
0;
#5960000
1!
1:
1;
1G!
1F
1D
0C
1H
0J
0E
1K
1x
#6000000
0!
0:
0;
#6040000
1!
1:
1;
1y
0F!
0G!
0F
1J
0D
1E
1C
0H
0K
0E
0x
#6080000
0!
0:
0;
#6120000
1!
1:
1;
0y
1G!
1/!
0)!
1*!
0+!
1-!
0.!
03
14
06
17
08
12
1D
1+
0%
1&
0'
1)
0*
0C
1@
0%!
1#!
0!!
1{
0z
1E
#6160000
0!
0:
0;
#6200000
1!
1:
1;
1F!
0G!
0J
0D
0E
1C
1K
1J
1E
0K
1L
0L
#6240000
0!
0:
0;
#6280000
1!
1:
1;
1G!
1F
1D
0C
1H
0J
0E
1K
1x
#6320000
0!
0:
0;
#6360000
1!
1:
1;
1y
0F!
0G!
0F
1J
0D
1E
1C
0H
0K
0E
0x
#6400000
0!
0:
0;
#6440000
1!
1:
1;
0y
1G!
0(!
1)!
0*!
1,!
0-!
1.!
13
04
15
07
18
09
1D
0$
1%
0&
1(
0)
1*
0C
0'!
1%!
0#!
1}
0{
1z
1E
#6480000
0!
0:
0;
#6520000
1!
1:
1;
1F!
0G!
0J
0D
0E
1C
1K
1J
1E
0K
1L
0L
#6560000
0!
0:
0;
#6600000
1!
1:
1;
1G!
1F
1D
0C
1H
0J
0E
1K
1x
#6640000
0!
0:
0;
#6680000
1!
1:
1;
1y
0F!
0G!
0F
1J
0D
1E
1C
0H
0K
0E
0x
#6720000
0!
0:
0;
#6760000
1!
1:
1;
0y
1G!
0/!
1(!
0)!
1+!
0,!
1-!
14
05
16
08
19
02
1D
0+
1$
0%
1'
0(
1)
0C
0@
1'!
0%!
1!!
0}
1{
1E
#6800000
0!
0:
0;
#6840000
1!
1:
1;
1F!
0G!
0J
0D
0E
1C
1K
1J
1E
0K
1L
0L
#6880000
0!
0:
0;
#6920000
1!
1:
1;
1G!
1F
1D
0C
1H
0J
0E
1K
1x
#6960000
0!
0:
0;
#7000000
1!
1:
1;
1y
0F!
0G!
0F
1J
0D
1E
1C
0H
0K
0E
0x
#7040000
0!
0:
0;
#7080000
1!
1:
1;
0y
1G!
1/!
0(!
1*!
0+!
1,!
0.!
03
15
06
17
09
12
1D
1+
0$
1&
0'
1(
0*
0C
1@
0'!
1#!
0!!
1}
0z
1E
#7120000
0!
0:
0;
#7160000
1!
1:
1;
1F!
0G!
0J
0D
0E
1C
1K
1J
1E
0K
1L
0L
#7200000
0!
0:
0;
#7240000
1!
1:
1;
1G!
1F
1D
0C
1H
0J
0E
1K
1x
#7280000
0!
0:
0;
#7320000
1!
1:
1;
1y
0F!
0G!
0F
1J
0D
1E
1C
0H
0K
0E
0x
#7360000
0!
0:
0;
#7400000
1!
1:
1;
0y
1G!
0/!
1)!
0*!
1+!
0-!
1.!
13
04
16
07
18
02
1D
0+
1%
0&
1'
0)
1*
0C
0@
1%!
0#!
1!!
0{
1z
1E
#7440000
0!
0:
0;
#7480000
1!
1:
1;
1F!
0G!
0J
0D
0E
1C
1K
1J
1E
0K
1L
0L
#7520000
0!
0:
0;
#7560000
1!
1:
1;
1G!
1F
1D
0C
1H
0J
0E
1K
1x
#7600000
0!
0:
0;
#7640000
1!
1:
1;
1y
0F!
0G!
0F
1J
0D
1E
1C
0H
0K
0E
0x
#7680000
0!
0:
0;
#7720000
1!
1:
1;
0y
1G!
1(!
0)!
1*!
0,!
1-!
0.!
03
14
05
17
08
19
1D
1$
0%
1&
0(
1)
0*
0C
1'!
0%!
1#!
0}
1{
0z
1E
#7760000
0!
0:
0;
#7800000
1!
1:
1;
1F!
0G!
0J
0D
0E
1C
1K
1J
1E
0K
1L
0L
#7840000
0!
0:
0;
#7880000
1!
1:
1;
1G!
1F
1D
0C
1H
0J
0E
1K
1x
#7920000
0!
0:
0;
#7960000
1!
1:
1;
1y
0F!
0G!
0F
1J
0D
1E
1C
0H
0K
0E
0x
#8000000
0!
0:
0;
#8040000
1!
1:
1;
0y
1G!
1/!
0(!
1)!
0+!
1,!
0-!
04
15
06
18
09
12
1D
1+
0$
1%
0'
1(
0)
0C
1@
0'!
1%!
0!!
1}
0{
1E
#8080000
0!
0:
0;
#8120000
1!
1:
1;
1F!
0G!
0J
0D
0E
1C
1K
1J
1E
0K
1L
0L
#8160000
0!
0:
0;
#8200000
1!
1:
1;
1G!
1F
1D
0C
1H
0J
0E
1K
1x
#8240000
0!
0:
0;
#8280000
1!
1:
1;
1y
0F!
0G!
0F
1J
0D
1E
1C
0H
0K
0E
0x
#8320000
0!
0:
0;
#8360000
1!
1:
1;
0y
1G!
0/!
1(!
0*!
1+!
0,!
1.!
13
05
16
07
19
02
1D
0+
1$
0&
1'
0(
1*
0C
0@
1'!
0#!
1!!
0}
1z
1E
#8400000
0!
0:
0;
#8440000
1!
1:
1;
1F!
0G!
0J
0D
0E
1C
1K
1J
1E
0K
1L
0L
#8480000
0!
0:
0;
#8520000
1!
1:
1;
1G!
1F
1D
0C
1H
0J
0E
1K
1x
#8560000
0!
0:
0;
#8600000
1!
1:
1;
1y
0F!
0G!
0F
1J
0D
1E
1C
0H
0K
0E
0x
#8640000
0!
0:
0;
#8680000
1!
1:
1;
0y
1G!
1/!
0)!
1*!
0+!
1-!
0.!
03
14
06
17
08
12
1D
1+
0%
1&
0'
1)
0*
0C
1@
0%!
1#!
0!!
1{
0z
1E
#8720000
0!
0:
0;
#8760000
1!
1:
1;
1F!
0G!
0J
0D
0E
1C
1K
1J
1E
0K
1L
0L
#8800000
0!
0:
0;
#8840000
1!
1:
1;
1G!
1F
1D
0C
1H
0J
0E
1K
1x
#8880000
0!
0:
0;
#8920000
1!
1:
1;
1y
0F!
0G!
0F
1J
0D
1E
1C
0H
0K
0E
0x
#8960000
0!
0:
0;
#9000000
1!
1:
1;
0y
1G!
0(!
1)!
0*!
1,!
0-!
1.!
13
04
15
07
18
09
1D
0$
1%
0&
1(
0)
1*
0C
0'!
1%!
0#!
1}
0{
1z
1E
#9040000
0!
0:
0;
#9080000
1!
1:
1;
1F!
0G!
0J
0D
0E
1C
1K
1J
1E
0K
1L
0L
#9120000
0!
0:
0;
#9160000
1!
1:
1;
1G!
1F
1D
0C
1H
0J
0E
1K
1x
#9200000
0!
0:
0;
#9240000
1!
1:
1;
1y
0F!
0G!
0F
1J
0D
1E
1C
0H
0K
0E
0x
#9280000
0!
0:
0;
#9320000
1!
1:
1;
0y
1G!
0/!
1(!
0)!
1+!
0,!
1-!
14
05
16
08
19
02
1D
0+
1$
0%
1'
0(
1)
0C
0@
1'!
0%!
1!!
0}
1{
1E
#9360000
0!
0:
0;
#9400000
1!
1:
1;
1F!
0G!
0J
0D
0E
1C
1K
1J
1E
0K
1L
0L
#9440000
0!
0:
0;
#9480000
1!
1:
1;
1G!
1F
1D
0C
1H
0J
0E
1K
1x
#9520000
0!
0:
0;
#9560000
1!
1:
1;
1y
0F!
0G!
0F
1J
0D
1E
1C
0H
0K
0E
0x
#9600000
0!
0:
0;
#9640000
1!
1:
1;
0y
1G!
1/!
0(!
1*!
0+!
1,!
0.!
03
15
06
17
09
12
1D
1+
0$
1&
0'
1(
0*
0C
1@
0'!
1#!
0!!
1}
0z
1E
#9680000
0!
0:
0;
#9720000
1!
1:
1;
1F!
0G!
0J
0D
0E
1C
1K
1J
1E
0K
1L
0L
#9760000
0!
0:
0;
#9800000
1!
1:
1;
1G!
1F
1D
0C
1H
0J
0E
1K
1x
#9840000
0!
0:
0;
#9880000
1!
1:
1;
1y
0F!
0G!
0F
1J
0D
1E
1C
0H
0K
0E
0x
#9920000
0!
0:
0;
#9960000
1!
1:
1;
0y
1G!
0/!
1)!
0*!
1+!
0-!
1.!
13
04
16
07
18
02
1D
0+
1%
0&
1'
0)
1*
0C
0@
1%!
0#!
1!!
0{
1z
1E
