lab4/lab4_4/simulation/qsim/lab4_4.msim.vcd
$comment
	File created using the following command:
		vcd file lab4_4.msim.vcd -direction
$end
$date
	Fri Oct 15 11:39:44 2021
$end
$version
	ModelSim Version 2020.1
$end
$timescale
	1ps
$end

$scope module lab4_4_vlg_vec_tst $end
$var reg 1 ! clk $end
$var reg 1 " key $end
$var reg 4 # sw30 [3:0] $end
$var wire 1 $ led [1] $end
$var wire 1 % led [0] $end

$scope module i1 $end
$var wire 1 & gnd $end
$var wire 1 ' vcc $end
$var wire 1 ( unknown $end
$var tri1 1 ) devclrn $end
$var tri1 1 * devpor $end
$var tri1 1 + devoe $end
$var wire 1 , led[0]~output_o $end
$var wire 1 - led[1]~output_o $end
$var wire 1 . clk~input_o $end
$var wire 1 / clk~inputclkctrl_outclk $end
$var wire 1 0 sw30[3]~input_o $end
$var wire 1 1 sw30[2]~input_o $end
$var wire 1 2 sw30[1]~input_o $end
$var wire 1 3 sw30[0]~input_o $end
$var wire 1 4 Selector0~2_combout $end
$var wire 1 5 Selector0~3_combout $end
$var wire 1 6 Equal2~0_combout $end
$var wire 1 7 Selector0~0_combout $end
$var wire 1 8 Selector0~6_combout $end
$var wire 1 9 Selector2~2_combout $end
$var wire 1 : key~input_o $end
$var wire 1 ; state.s2~q $end
$var wire 1 < Selector0~1_combout $end
$var wire 1 = Selector0~5_combout $end
$var wire 1 > state.s0~q $end
$var wire 1 ? Selector0~4_combout $end
$var wire 1 @ Selector1~0_combout $end
$var wire 1 A Selector1~1_combout $end
$var wire 1 B state.s1~q $end
$upscope $end
$upscope $end
$enddefinitions $end
#0
$dumpvars
0!
0"
b0 #
1%
0$
0&
1'
x(
1)
1*
1+
1,
0-
0.
0/
00
01
02
03
04
05
06
07
08
09
0:
0;
0<
0=
0>
0?
1@
0A
0B
$end
#10000
1!
1.
1/
#20000
0!
0.
0/
#30000
1"
1!
1:
1.
1/
#40000
0!
0.
0/
#50000
1!
1.
1/
#60000
0!
0.
0/
#70000
b1 #
1!
13
1.
1/
15
1?
1A
1=
#80000
0!
0.
0/
#90000
1!
1.
1/
1B
1>
1-
0,
0?
0%
1$
#100000
0!
0.
0/
#110000
1!
1.
1/
#120000
0!
0.
0/
#130000
1!
1.
1/
#140000
0!
0.
0/
#150000
1!
1.
1/
#160000
b11 #
b10 #
0!
03
12
0.
0/
05
14
1?
0@
18
0A
19
#170000
1!
1.
1/
0B
1;
1,
1@
0?
08
1%
#180000
0!
0.
0/
#190000
1!
1.
1/
#200000
b110 #
b100 #
0!
02
11
0.
0/
17
16
04
1<
09
1A
#210000
1!
1.
1/
1B
0;
0,
0<
0%
#220000
0!
0.
0/
#230000
1!
1.
1/
#240000
0!
0.
0/
#250000
1!
1.
1/
#260000
0!
0.
0/
#270000
1!
1.
1/
#280000
b1100 #
b1000 #
0!
01
10
0.
0/
06
#290000
1!
1.
1/
#300000
0!
0.
0/
#310000
1!
1.
1/
#320000
0!
0.
0/
#330000
1!
1.
1/
#340000
0!
0.
0/
#350000
1!
1.
1/
#360000
0!
0.
0/
#370000
b0 #
1!
00
1.
1/
07
#380000
0!
0.
0/
#390000
1!
1.
1/
#400000
0!
0.
0/
#410000
1!
1.
1/
#420000
0!
0.
0/
#430000
b1 #
1!
13
1.
1/
15
#440000
0!
0.
0/
#450000
1!
1.
1/
#460000
0!
0.
0/
#470000
1!
1.
1/
#480000
0!
0.
0/
#490000
1!
1.
1/
#500000
b11 #
b10 #
0!
03
12
0.
0/
05
14
1?
0@
18
0A
19
#510000
1!
1.
1/
0B
1;
1,
1@
0?
08
1%
#520000
0!
0.
0/
#530000
1!
1.
1/
#540000
0!
0.
0/
#550000
1!
1.
1/
#560000
0!
0.
0/
#570000
b110 #
b100 #
1!
02
11
1.
1/
17
16
04
1<
09
1A
#580000
0"
0!
0:
0.
0/
0;
0>
0-
0<
0$
0A
0=
#590000
1!
1.
1/
#600000
0!
0.
0/
#610000
1!
1.
1/
#620000
0!
0.
0/
#630000
1!
1.
1/
#640000
b1100 #
b1000 #
0!
01
10
0.
0/
06
#650000
1!
1.
1/
#660000
0!
0.
0/
#670000
1!
1.
1/
#680000
1"
0!
1:
0.
0/
#690000
1!
1.
1/
#700000
0!
0.
0/
#710000
1!
1.
1/
#720000
b0 #
0!
00
0.
0/
07
#730000
1!
1.
1/
#740000
0!
0.
0/
#750000
1!
1.
1/
#760000
0!
0.
0/
#770000
1!
1.
1/
#780000
0!
0.
0/
#790000
1!
1.
1/
#800000
b10 #
0!
12
0.
0/
14
#810000
1!
1.
1/
#820000
0!
0.
0/
#830000
1!
1.
1/
#840000
0!
0.
0/
#850000
1!
1.
1/
#860000
0!
0.
0/
#870000
b110 #
b100 #
1!
02
11
1.
1/
17
16
04
#880000
0!
0.
0/
#890000
1!
1.
1/
#900000
0!
0.
0/
#910000
1!
1.
1/
#920000
0!
0.
0/
#930000
1!
1.
1/
#940000
b1100 #
b1000 #
0!
01
10
0.
0/
06
#950000
1!
1.
1/
#960000
0!
0.
0/
#970000
1!
1.
1/
#980000
0!
0.
0/
#990000
b0 #
b100 #
1!
11
00
1.
1/
16
