lab1/lab1_5/simulation/qsim/lab1_5.msim.vcd
$comment
	File created using the following command:
		vcd file lab1_5.msim.vcd -direction
$end
$date
	Wed Sep 15 21:40:09 2021
$end
$version
	ModelSim Version 10.1d
$end
$timescale
	1ps
$end
$scope module lab1_5_vlg_vec_tst $end
$var reg 1 ! cin $end
$var reg 2 " sw [1:0] $end
$var wire 1 # led [1] $end
$var wire 1 $ led [0] $end
$var wire 1 % sampler $end
$scope module i1 $end
$var wire 1 & gnd $end
$var wire 1 ' vcc $end
$var wire 1 ( unknown $end
$var tri1 1 ) devclrn $end
$var tri1 1 * devpor $end
$var tri1 1 + devoe $end
$var wire 1 , led[0]~output_o $end
$var wire 1 - led[1]~output_o $end
$var wire 1 . sw[0]~input_o $end
$var wire 1 / sw[1]~input_o $end
$var wire 1 0 cin~input_o $end
$var wire 1 1 led~0_combout $end
$var wire 1 2 led~1_combout $end
$upscope $end
$upscope $end
$enddefinitions $end
#0
$dumpvars
0!
b0 "
0$
0#
x%
0&
1'
x(
1)
1*
1+
0,
0-
0.
0/
00
01
02
$end
#80000
b1 "
1.
0%
11
1,
1$
#160000
b11 "
b10 "
0.
1/
1%
#240000
b11 "
1.
0%
12
01
1-
0,
1#
0$
#320000
1!
b1 "
b0 "
10
0.
0/
1%
02
11
0-
1,
0#
1$
#400000
b1 "
1.
0%
12
01
1-
0,
1#
0$
#480000
b11 "
b10 "
0.
1/
1%
#560000
b11 "
1.
0%
11
1,
1$
#640000
0!
b1 "
b0 "
00
0.
0/
1%
02
01
0-
0,
0#
0$
#720000
b1 "
1.
0%
11
1,
1$
#800000
b11 "
b10 "
0.
1/
1%
#880000
b11 "
1.
0%
12
01
1-
0,
1#
0$
#960000
1!
b1 "
b0 "
10
0.
0/
1%
02
11
0-
1,
0#
1$
